^D:\VALENTIN\DOCUMENTE\VISUAL STUDIO 2015\PROJECTS\7_SEGMENT_DISPLAY_VERILOG_GENERATOR\7_SEGMENT_DISPLAY_VERILOG_GENERATOR\MAIN.CPP
/c /ZI /nologo /W3 /WX- /sdl /Od /Oy- /D WIN32 /D _DEBUG /D _CONSOLE /D _CRT_SECURE_NO_WARNINGS /D _UNICODE /D UNICODE /Gm /EHsc /RTC1 /MDd /GS /fp:precise /Zc:wchar_t /Zc:forScope /Zc:inline /Fo"DEBUG\\" /Fd"DEBUG\VC140.PDB" /Gd /TP /analyze- D:\VALENTIN\DOCUMENTE\VISUAL STUDIO 2015\PROJECTS\7_SEGMENT_DISPLAY_VERILOG_GENERATOR\7_SEGMENT_DISPLAY_VERILOG_GENERATOR\MAIN.CPP
^D:\VALENTIN\DOCUMENTE\FPGA\FPGA\7_SEGMENT_DISPLAY_VERILOG_GENERATOR\7_SEGMENT_DISPLAY_VERILOG_GENERATOR\MAIN.CPP
/c /ZI /nologo /W3 /WX- /sdl /Od /Oy- /D WIN32 /D _DEBUG /D _CONSOLE /D _CRT_SECURE_NO_WARNINGS /D _UNICODE /D UNICODE /Gm /EHsc /RTC1 /MDd /GS /fp:precise /Zc:wchar_t /Zc:forScope /Zc:inline /Fo"DEBUG\\" /Fd"DEBUG\VC140.PDB" /Gd /TP /analyze- D:\VALENTIN\DOCUMENTE\FPGA\FPGA\7_SEGMENT_DISPLAY_VERILOG_GENERATOR\7_SEGMENT_DISPLAY_VERILOG_GENERATOR\MAIN.CPP
