/*
WARNING: Do NOT edit the input and output ports in this file in a text
editor if you plan to continue editing the block that represents it in
the Block Editor! File corruption is VERY likely to occur.
*/
/*
Copyright (C) 1991-2013 Altera Corporation
Your use of Altera Corporation's design tools, logic functions 
and other software and tools, and its AMPP partner logic 
functions, and any output files from any of the foregoing 
(including device programming or simulation files), and any 
associated documentation or information are expressly subject 
to the terms and conditions of the Altera Program License 
Subscription Agreement, Altera MegaCore Function License 
Agreement, or other applicable license agreement, including, 
without limitation, that your use is for the sole purpose of 
programming logic devices manufactured by Altera and sold by 
Altera or its authorized distributors.  Please refer to the 
applicable agreement for further details.
*/
(header "graphic" (version "1.4"))
(pin
	(input)
	(rect 72 64 248 80)
	(text "INPUT" (rect 133 0 161 10)(font "Arial" (font_size 6)))
	(text "CLOCK" (rect 9 0 46 12)(font "Arial" ))
	(pt 176 8)
	(drawing
		(line (pt 92 12)(pt 117 12))
		(line (pt 92 4)(pt 117 4))
		(line (pt 121 8)(pt 176 8))
		(line (pt 92 12)(pt 92 4))
		(line (pt 117 4)(pt 121 8))
		(line (pt 117 12)(pt 121 8))
	)
	(text "GND" (rect 136 7 157 17)(font "Arial" (font_size 6)))
	(annotation_block (location)(rect 16 80 72 96))
)
(pin
	(input)
	(rect 80 264 248 280)
	(text "INPUT" (rect 125 0 153 10)(font "Arial" (font_size 6)))
	(text "INC_MIN" (rect 5 0 51 12)(font "Arial" ))
	(pt 168 8)
	(drawing
		(line (pt 84 12)(pt 109 12))
		(line (pt 84 4)(pt 109 4))
		(line (pt 113 8)(pt 168 8))
		(line (pt 84 12)(pt 84 4))
		(line (pt 109 4)(pt 113 8))
		(line (pt 109 12)(pt 113 8))
	)
	(text "VCC" (rect 128 7 148 17)(font "Arial" (font_size 6)))
	(annotation_block (location)(rect 24 280 80 296))
)
(pin
	(input)
	(rect 80 376 248 392)
	(text "INPUT" (rect 125 0 153 10)(font "Arial" (font_size 6)))
	(text "INC_HRS" (rect 5 0 54 12)(font "Arial" ))
	(pt 168 8)
	(drawing
		(line (pt 84 12)(pt 109 12))
		(line (pt 84 4)(pt 109 4))
		(line (pt 113 8)(pt 168 8))
		(line (pt 84 12)(pt 84 4))
		(line (pt 109 4)(pt 113 8))
		(line (pt 109 12)(pt 113 8))
	)
	(text "VCC" (rect 128 7 148 17)(font "Arial" (font_size 6)))
	(annotation_block (location)(rect 24 392 80 408))
)
(pin
	(input)
	(rect 80 160 248 176)
	(text "INPUT" (rect 125 0 153 10)(font "Arial" (font_size 6)))
	(text "BEGIN" (rect 5 0 39 12)(font "Arial" ))
	(pt 168 8)
	(drawing
		(line (pt 84 12)(pt 109 12))
		(line (pt 84 4)(pt 109 4))
		(line (pt 113 8)(pt 168 8))
		(line (pt 84 12)(pt 84 4))
		(line (pt 109 4)(pt 113 8))
		(line (pt 109 12)(pt 113 8))
	)
	(text "GND" (rect 128 7 149 17)(font "Arial" (font_size 6)))
	(annotation_block (location)(rect 24 176 80 192))
)
(pin
	(input)
	(rect 72 -40 248 -24)
	(text "INPUT" (rect 133 0 161 10)(font "Arial" (font_size 6)))
	(text "LED_DISPLAY" (rect 5 0 79 12)(font "Arial" ))
	(pt 176 8)
	(drawing
		(line (pt 92 12)(pt 117 12))
		(line (pt 92 4)(pt 117 4))
		(line (pt 121 8)(pt 176 8))
		(line (pt 92 12)(pt 92 4))
		(line (pt 117 4)(pt 121 8))
		(line (pt 117 12)(pt 121 8))
	)
	(text "GND" (rect 136 7 157 17)(font "Arial" (font_size 6)))
	(annotation_block (location)(rect 16 -24 72 -8))
)
(pin
	(output)
	(rect 1656 160 1832 176)
	(text "OUTPUT" (rect 1 0 39 10)(font "Arial" (font_size 6)))
	(text "OUTPUT[6..0]" (rect 90 0 159 12)(font "Arial" ))
	(pt 0 8)
	(drawing
		(line (pt 0 8)(pt 52 8))
		(line (pt 52 4)(pt 78 4))
		(line (pt 52 12)(pt 78 12))
		(line (pt 52 12)(pt 52 4))
		(line (pt 78 4)(pt 82 8))
		(line (pt 82 8)(pt 78 12))
		(line (pt 78 12)(pt 82 8))
	)
	(annotation_block (location)(rect 1832 176 1888 192))
)
(pin
	(output)
	(rect 1656 176 1832 192)
	(text "OUTPUT" (rect 1 0 39 10)(font "Arial" (font_size 6)))
	(text "MINUTESLEFT[6..0]" (rect 90 0 190 12)(font "Arial" ))
	(pt 0 8)
	(drawing
		(line (pt 0 8)(pt 52 8))
		(line (pt 52 4)(pt 78 4))
		(line (pt 52 12)(pt 78 12))
		(line (pt 52 12)(pt 52 4))
		(line (pt 78 4)(pt 82 8))
		(line (pt 82 8)(pt 78 12))
		(line (pt 78 12)(pt 82 8))
	)
	(annotation_block (location)(rect 1832 192 1888 208))
)
(pin
	(output)
	(rect 1656 256 1832 272)
	(text "OUTPUT" (rect 1 0 39 10)(font "Arial" (font_size 6)))
	(text "HOURRIGHT[6..0]" (rect 90 0 183 12)(font "Arial" ))
	(pt 0 8)
	(drawing
		(line (pt 0 8)(pt 52 8))
		(line (pt 52 4)(pt 78 4))
		(line (pt 52 12)(pt 78 12))
		(line (pt 52 12)(pt 52 4))
		(line (pt 78 4)(pt 82 8))
		(line (pt 82 8)(pt 78 12))
		(line (pt 78 12)(pt 82 8))
	)
	(annotation_block (location)(rect 1832 272 1888 288))
)
(pin
	(output)
	(rect 1656 272 1832 288)
	(text "OUTPUT" (rect 1 0 39 10)(font "Arial" (font_size 6)))
	(text "HOURLEFT[6..0]" (rect 90 0 174 12)(font "Arial" ))
	(pt 0 8)
	(drawing
		(line (pt 0 8)(pt 52 8))
		(line (pt 52 4)(pt 78 4))
		(line (pt 52 12)(pt 78 12))
		(line (pt 52 12)(pt 52 4))
		(line (pt 78 4)(pt 82 8))
		(line (pt 82 8)(pt 78 12))
		(line (pt 78 12)(pt 82 8))
	)
	(annotation_block (location)(rect 1832 288 1888 304))
)
(pin
	(output)
	(rect 544 8 720 24)
	(text "OUTPUT" (rect 1 0 39 10)(font "Arial" (font_size 6)))
	(text "DECIMAL" (rect 90 0 138 12)(font "Arial" ))
	(pt 0 8)
	(drawing
		(line (pt 0 8)(pt 52 8))
		(line (pt 52 4)(pt 78 4))
		(line (pt 52 12)(pt 78 12))
		(line (pt 52 12)(pt 52 4))
		(line (pt 78 4)(pt 82 8))
		(line (pt 82 8)(pt 78 12))
		(line (pt 78 12)(pt 82 8))
	)
	(annotation_block (location)(rect 720 24 776 40))
)
(pin
	(output)
	(rect 1656 80 1832 96)
	(text "OUTPUT" (rect 1 0 39 10)(font "Arial" (font_size 6)))
	(text "SECONDS[9..0]" (rect 90 0 170 12)(font "Arial" ))
	(pt 0 8)
	(drawing
		(line (pt 0 8)(pt 52 8))
		(line (pt 52 4)(pt 78 4))
		(line (pt 52 12)(pt 78 12))
		(line (pt 52 12)(pt 52 4))
		(line (pt 78 4)(pt 82 8))
		(line (pt 82 8)(pt 78 12))
		(line (pt 78 12)(pt 82 8))
	)
	(annotation_block (location)(rect 1832 96 1880 112))
)
(symbol
	(rect 1408 232 1616 312)
	(text "to24_5bit_to_BCD" (rect 5 0 94 12)(font "Arial" ))
	(text "inst9" (rect 8 64 31 76)(font "Arial" ))
	(port
		(pt 0 32)
		(input)
		(text "bcd[4..0]" (rect 0 0 43 12)(font "Arial" ))
		(text "bcd[4..0]" (rect 21 27 64 39)(font "Arial" ))
		(line (pt 0 32)(pt 16 32)(line_width 3))
	)
	(port
		(pt 208 32)
		(output)
		(text "seven_seg0[6..0]" (rect 0 0 86 12)(font "Arial" ))
		(text "seven_seg0[6..0]" (rect 115 27 201 39)(font "Arial" ))
		(line (pt 208 32)(pt 192 32)(line_width 3))
	)
	(port
		(pt 208 48)
		(output)
		(text "seven_seg1[6..0]" (rect 0 0 86 12)(font "Arial" ))
		(text "seven_seg1[6..0]" (rect 115 43 201 55)(font "Arial" ))
		(line (pt 208 48)(pt 192 48)(line_width 3))
	)
	(drawing
		(rectangle (rect 16 16 192 64))
	)
)
(symbol
	(rect 1200 136 1408 216)
	(text "to60_6bit_to_BCD" (rect 5 0 94 12)(font "Arial" ))
	(text "inst5" (rect 8 64 31 76)(font "Arial" ))
	(port
		(pt 0 32)
		(input)
		(text "bcd[5..0]" (rect 0 0 43 12)(font "Arial" ))
		(text "bcd[5..0]" (rect 21 27 64 39)(font "Arial" ))
		(line (pt 0 32)(pt 16 32)(line_width 3))
	)
	(port
		(pt 208 32)
		(output)
		(text "seven_seg0[6..0]" (rect 0 0 86 12)(font "Arial" ))
		(text "seven_seg0[6..0]" (rect 115 27 201 39)(font "Arial" ))
		(line (pt 208 32)(pt 192 32)(line_width 3))
	)
	(port
		(pt 208 48)
		(output)
		(text "seven_seg1[6..0]" (rect 0 0 86 12)(font "Arial" ))
		(text "seven_seg1[6..0]" (rect 115 43 201 55)(font "Arial" ))
		(line (pt 208 48)(pt 192 48)(line_width 3))
	)
	(drawing
		(rectangle (rect 16 16 192 64))
	)
)
(symbol
	(rect 912 136 1096 248)
	(text "secondscounter" (rect 5 0 82 12)(font "Arial" ))
	(text "inst4" (rect 8 96 31 108)(font "Arial" ))
	(port
		(pt 0 32)
		(input)
		(text "clock" (rect 0 0 25 12)(font "Arial" ))
		(text "clock" (rect 21 27 46 39)(font "Arial" ))
		(line (pt 0 32)(pt 16 32))
	)
	(port
		(pt 0 48)
		(input)
		(text "reset" (rect 0 0 24 12)(font "Arial" ))
		(text "reset" (rect 21 43 45 55)(font "Arial" ))
		(line (pt 0 48)(pt 16 48))
	)
	(port
		(pt 0 64)
		(input)
		(text "enabled" (rect 0 0 37 12)(font "Arial" ))
		(text "enabled" (rect 21 59 58 71)(font "Arial" ))
		(line (pt 0 64)(pt 16 64))
	)
	(port
		(pt 184 32)
		(output)
		(text "seconds[5..0]" (rect 0 0 67 12)(font "Arial" ))
		(text "seconds[5..0]" (rect 107 27 174 39)(font "Arial" ))
		(line (pt 184 32)(pt 168 32)(line_width 3))
	)
	(port
		(pt 184 48)
		(output)
		(text "ripple" (rect 0 0 25 12)(font "Arial" ))
		(text "ripple" (rect 142 43 167 55)(font "Arial" ))
		(line (pt 184 48)(pt 168 48))
	)
	(drawing
		(rectangle (rect 16 16 168 96))
	)
)
(symbol
	(rect 1200 232 1384 344)
	(text "to24_5bit_upcounter" (rect 5 0 104 12)(font "Arial" ))
	(text "inst11" (rect 8 96 37 108)(font "Arial" ))
	(port
		(pt 0 32)
		(input)
		(text "clock" (rect 0 0 25 12)(font "Arial" ))
		(text "clock" (rect 21 27 46 39)(font "Arial" ))
		(line (pt 0 32)(pt 16 32))
	)
	(port
		(pt 0 48)
		(input)
		(text "reset" (rect 0 0 24 12)(font "Arial" ))
		(text "reset" (rect 21 43 45 55)(font "Arial" ))
		(line (pt 0 48)(pt 16 48))
	)
	(port
		(pt 0 64)
		(input)
		(text "enabled" (rect 0 0 37 12)(font "Arial" ))
		(text "enabled" (rect 21 59 58 71)(font "Arial" ))
		(line (pt 0 64)(pt 16 64))
	)
	(port
		(pt 184 32)
		(output)
		(text "number[4..0]" (rect 0 0 62 12)(font "Arial" ))
		(text "number[4..0]" (rect 111 27 173 39)(font "Arial" ))
		(line (pt 184 32)(pt 168 32)(line_width 3))
	)
	(port
		(pt 184 48)
		(output)
		(text "ripple" (rect 0 0 25 12)(font "Arial" ))
		(text "ripple" (rect 142 43 167 55)(font "Arial" ))
		(line (pt 184 48)(pt 168 48))
	)
	(drawing
		(rectangle (rect 16 16 168 96))
	)
)
(symbol
	(rect 464 56 528 104)
	(text "AND2" (rect 1 0 25 10)(font "Arial" (font_size 6)))
	(text "inst" (rect 3 37 20 49)(font "Arial" ))
	(port
		(pt 0 16)
		(input)
		(text "IN1" (rect 2 7 19 19)(font "Courier New" (bold))(invisible))
		(text "IN1" (rect 2 7 19 19)(font "Courier New" (bold))(invisible))
		(line (pt 0 16)(pt 14 16))
	)
	(port
		(pt 0 32)
		(input)
		(text "IN2" (rect 2 23 19 35)(font "Courier New" (bold))(invisible))
		(text "IN2" (rect 2 23 19 35)(font "Courier New" (bold))(invisible))
		(line (pt 0 32)(pt 14 32))
	)
	(port
		(pt 64 24)
		(output)
		(text "OUT" (rect 48 15 65 27)(font "Courier New" (bold))(invisible))
		(text "OUT" (rect 48 15 65 27)(font "Courier New" (bold))(invisible))
		(line (pt 42 24)(pt 64 24))
	)
	(drawing
		(line (pt 14 12)(pt 30 12))
		(line (pt 14 37)(pt 31 37))
		(line (pt 14 12)(pt 14 37))
		(arc (pt 31 37)(pt 30 12)(rect 18 12 43 37))
	)
)
(symbol
	(rect 544 48 728 160)
	(text "secondscounter" (rect 5 0 82 12)(font "Arial" ))
	(text "inst6" (rect 8 96 31 108)(font "Arial" ))
	(port
		(pt 0 32)
		(input)
		(text "clock" (rect 0 0 25 12)(font "Arial" ))
		(text "clock" (rect 21 27 46 39)(font "Arial" ))
		(line (pt 0 32)(pt 16 32))
	)
	(port
		(pt 0 48)
		(input)
		(text "reset" (rect 0 0 24 12)(font "Arial" ))
		(text "reset" (rect 21 43 45 55)(font "Arial" ))
		(line (pt 0 48)(pt 16 48))
	)
	(port
		(pt 0 64)
		(input)
		(text "enabled" (rect 0 0 37 12)(font "Arial" ))
		(text "enabled" (rect 21 59 58 71)(font "Arial" ))
		(line (pt 0 64)(pt 16 64))
	)
	(port
		(pt 184 32)
		(output)
		(text "seconds[5..0]" (rect 0 0 67 12)(font "Arial" ))
		(text "seconds[5..0]" (rect 107 27 174 39)(font "Arial" ))
		(line (pt 184 32)(pt 168 32)(line_width 3))
	)
	(port
		(pt 184 48)
		(output)
		(text "ripple" (rect 0 0 25 12)(font "Arial" ))
		(text "ripple" (rect 142 43 167 55)(font "Arial" ))
		(line (pt 184 48)(pt 168 48))
	)
	(drawing
		(rectangle (rect 16 16 168 96))
	)
)
(symbol
	(rect 840 144 904 192)
	(text "OR2" (rect 1 0 19 10)(font "Arial" (font_size 6)))
	(text "inst19" (rect 3 37 32 49)(font "Arial" ))
	(port
		(pt 0 32)
		(input)
		(text "IN2" (rect 2 23 19 35)(font "Courier New" (bold))(invisible))
		(text "IN2" (rect 2 23 19 35)(font "Courier New" (bold))(invisible))
		(line (pt 0 32)(pt 15 32))
	)
	(port
		(pt 0 16)
		(input)
		(text "IN1" (rect 2 7 19 19)(font "Courier New" (bold))(invisible))
		(text "IN1" (rect 2 7 19 19)(font "Courier New" (bold))(invisible))
		(line (pt 0 16)(pt 15 16))
	)
	(port
		(pt 64 24)
		(output)
		(text "OUT" (rect 48 15 65 27)(font "Courier New" (bold))(invisible))
		(text "OUT" (rect 48 15 65 27)(font "Courier New" (bold))(invisible))
		(line (pt 48 24)(pt 64 24))
	)
	(drawing
		(line (pt 14 36)(pt 25 36))
		(line (pt 14 13)(pt 25 13))
		(arc (pt 7 29)(pt 7 19)(rect -14 8 19 41))
		(arc (pt 49 24)(pt 25 13)(rect -6 13 57 76))
		(arc (pt 25 35)(pt 49 24)(rect -6 -27 57 36))
	)
)
(symbol
	(rect 448 192 496 224)
	(text "NOT" (rect 1 0 21 10)(font "Arial" (font_size 6)))
	(text "inst24" (rect 3 21 32 33)(font "Arial" ))
	(port
		(pt 0 16)
		(input)
		(text "IN" (rect 2 7 13 19)(font "Courier New" (bold))(invisible))
		(text "IN" (rect 2 7 13 19)(font "Courier New" (bold))(invisible))
		(line (pt 0 16)(pt 13 16))
	)
	(port
		(pt 48 16)
		(output)
		(text "OUT" (rect 32 7 49 19)(font "Courier New" (bold))(invisible))
		(text "OUT" (rect 32 7 49 19)(font "Courier New" (bold))(invisible))
		(line (pt 39 16)(pt 48 16))
	)
	(drawing
		(line (pt 13 25)(pt 13 7))
		(line (pt 13 7)(pt 31 16))
		(line (pt 13 25)(pt 31 16))
		(circle (rect 31 12 39 20))
	)
)
(symbol
	(rect 512 256 576 304)
	(text "AND2" (rect 1 0 25 10)(font "Arial" (font_size 6)))
	(text "inst25" (rect 3 37 32 49)(font "Arial" ))
	(port
		(pt 0 16)
		(input)
		(text "IN1" (rect 2 7 19 19)(font "Courier New" (bold))(invisible))
		(text "IN1" (rect 2 7 19 19)(font "Courier New" (bold))(invisible))
		(line (pt 0 16)(pt 14 16))
	)
	(port
		(pt 0 32)
		(input)
		(text "IN2" (rect 2 23 19 35)(font "Courier New" (bold))(invisible))
		(text "IN2" (rect 2 23 19 35)(font "Courier New" (bold))(invisible))
		(line (pt 0 32)(pt 14 32))
	)
	(port
		(pt 64 24)
		(output)
		(text "OUT" (rect 48 15 65 27)(font "Courier New" (bold))(invisible))
		(text "OUT" (rect 48 15 65 27)(font "Courier New" (bold))(invisible))
		(line (pt 42 24)(pt 64 24))
	)
	(drawing
		(line (pt 14 12)(pt 30 12))
		(line (pt 14 37)(pt 31 37))
		(line (pt 14 12)(pt 14 37))
		(arc (pt 31 37)(pt 30 12)(rect 18 12 43 37))
	)
)
(symbol
	(rect 776 152 840 200)
	(text "AND2" (rect 1 0 25 10)(font "Arial" (font_size 6)))
	(text "inst27" (rect 3 37 32 49)(font "Arial" ))
	(port
		(pt 0 16)
		(input)
		(text "IN1" (rect 2 7 19 19)(font "Courier New" (bold))(invisible))
		(text "IN1" (rect 2 7 19 19)(font "Courier New" (bold))(invisible))
		(line (pt 0 16)(pt 14 16))
	)
	(port
		(pt 0 32)
		(input)
		(text "IN2" (rect 2 23 19 35)(font "Courier New" (bold))(invisible))
		(text "IN2" (rect 2 23 19 35)(font "Courier New" (bold))(invisible))
		(line (pt 0 32)(pt 14 32))
	)
	(port
		(pt 64 24)
		(output)
		(text "OUT" (rect 48 15 65 27)(font "Courier New" (bold))(invisible))
		(text "OUT" (rect 48 15 65 27)(font "Courier New" (bold))(invisible))
		(line (pt 42 24)(pt 64 24))
	)
	(drawing
		(line (pt 14 12)(pt 30 12))
		(line (pt 14 37)(pt 31 37))
		(line (pt 14 12)(pt 14 37))
		(arc (pt 31 37)(pt 30 12)(rect 18 12 43 37))
	)
)
(symbol
	(rect 696 184 744 216)
	(text "NOT" (rect 1 0 21 10)(font "Arial" (font_size 6)))
	(text "inst26" (rect 3 21 32 33)(font "Arial" ))
	(port
		(pt 0 16)
		(input)
		(text "IN" (rect 2 7 13 19)(font "Courier New" (bold))(invisible))
		(text "IN" (rect 2 7 13 19)(font "Courier New" (bold))(invisible))
		(line (pt 0 16)(pt 13 16))
	)
	(port
		(pt 48 16)
		(output)
		(text "OUT" (rect 32 7 49 19)(font "Courier New" (bold))(invisible))
		(text "OUT" (rect 32 7 49 19)(font "Courier New" (bold))(invisible))
		(line (pt 39 16)(pt 48 16))
	)
	(drawing
		(line (pt 13 25)(pt 13 7))
		(line (pt 13 7)(pt 31 16))
		(line (pt 13 25)(pt 31 16))
		(circle (rect 31 12 39 20))
	)
)
(symbol
	(rect 480 112 512 128)
	(text "VCC" (rect 7 0 27 10)(font "Arial" (font_size 6)))
	(text "inst28" (rect 3 5 32 17)(font "Arial" )(invisible))
	(port
		(pt 16 16)
		(output)
		(text "1" (rect 19 7 24 19)(font "Courier New" (bold))(invisible))
		(text "1" (rect 19 7 24 19)(font "Courier New" (bold))(invisible))
		(line (pt 16 16)(pt 16 8))
	)
	(drawing
		(line (pt 8 8)(pt 24 8))
	)
)
(symbol
	(rect 512 368 576 416)
	(text "AND2" (rect 1 0 25 10)(font "Arial" (font_size 6)))
	(text "inst29" (rect 3 37 32 49)(font "Arial" ))
	(port
		(pt 0 16)
		(input)
		(text "IN1" (rect 2 7 19 19)(font "Courier New" (bold))(invisible))
		(text "IN1" (rect 2 7 19 19)(font "Courier New" (bold))(invisible))
		(line (pt 0 16)(pt 14 16))
	)
	(port
		(pt 0 32)
		(input)
		(text "IN2" (rect 2 23 19 35)(font "Courier New" (bold))(invisible))
		(text "IN2" (rect 2 23 19 35)(font "Courier New" (bold))(invisible))
		(line (pt 0 32)(pt 14 32))
	)
	(port
		(pt 64 24)
		(output)
		(text "OUT" (rect 48 15 65 27)(font "Courier New" (bold))(invisible))
		(text "OUT" (rect 48 15 65 27)(font "Courier New" (bold))(invisible))
		(line (pt 42 24)(pt 64 24))
	)
	(drawing
		(line (pt 14 12)(pt 30 12))
		(line (pt 14 37)(pt 31 37))
		(line (pt 14 12)(pt 14 37))
		(arc (pt 31 37)(pt 30 12)(rect 18 12 43 37))
	)
)
(symbol
	(rect 1128 240 1192 288)
	(text "OR2" (rect 1 0 19 10)(font "Arial" (font_size 6)))
	(text "inst20" (rect 3 37 32 49)(font "Arial" ))
	(port
		(pt 0 32)
		(input)
		(text "IN2" (rect 2 23 19 35)(font "Courier New" (bold))(invisible))
		(text "IN2" (rect 2 23 19 35)(font "Courier New" (bold))(invisible))
		(line (pt 0 32)(pt 15 32))
	)
	(port
		(pt 0 16)
		(input)
		(text "IN1" (rect 2 7 19 19)(font "Courier New" (bold))(invisible))
		(text "IN1" (rect 2 7 19 19)(font "Courier New" (bold))(invisible))
		(line (pt 0 16)(pt 15 16))
	)
	(port
		(pt 64 24)
		(output)
		(text "OUT" (rect 48 15 65 27)(font "Courier New" (bold))(invisible))
		(text "OUT" (rect 48 15 65 27)(font "Courier New" (bold))(invisible))
		(line (pt 48 24)(pt 64 24))
	)
	(drawing
		(line (pt 14 36)(pt 25 36))
		(line (pt 14 13)(pt 25 13))
		(arc (pt 7 29)(pt 7 19)(rect -14 8 19 41))
		(arc (pt 49 24)(pt 25 13)(rect -6 13 57 76))
		(arc (pt 25 35)(pt 49 24)(rect -6 -27 57 36))
	)
)
(symbol
	(rect 1064 248 1128 296)
	(text "AND2" (rect 1 0 25 10)(font "Arial" (font_size 6)))
	(text "inst30" (rect 3 37 32 49)(font "Arial" ))
	(port
		(pt 0 16)
		(input)
		(text "IN1" (rect 2 7 19 19)(font "Courier New" (bold))(invisible))
		(text "IN1" (rect 2 7 19 19)(font "Courier New" (bold))(invisible))
		(line (pt 0 16)(pt 14 16))
	)
	(port
		(pt 0 32)
		(input)
		(text "IN2" (rect 2 23 19 35)(font "Courier New" (bold))(invisible))
		(text "IN2" (rect 2 23 19 35)(font "Courier New" (bold))(invisible))
		(line (pt 0 32)(pt 14 32))
	)
	(port
		(pt 64 24)
		(output)
		(text "OUT" (rect 48 15 65 27)(font "Courier New" (bold))(invisible))
		(text "OUT" (rect 48 15 65 27)(font "Courier New" (bold))(invisible))
		(line (pt 42 24)(pt 64 24))
	)
	(drawing
		(line (pt 14 12)(pt 30 12))
		(line (pt 14 37)(pt 31 37))
		(line (pt 14 12)(pt 14 37))
		(arc (pt 31 37)(pt 30 12)(rect 18 12 43 37))
	)
)
(symbol
	(rect 984 280 1032 312)
	(text "NOT" (rect 1 0 21 10)(font "Arial" (font_size 6)))
	(text "inst31" (rect 3 21 32 33)(font "Arial" ))
	(port
		(pt 0 16)
		(input)
		(text "IN" (rect 2 7 13 19)(font "Courier New" (bold))(invisible))
		(text "IN" (rect 2 7 13 19)(font "Courier New" (bold))(invisible))
		(line (pt 0 16)(pt 13 16))
	)
	(port
		(pt 48 16)
		(output)
		(text "OUT" (rect 32 7 49 19)(font "Courier New" (bold))(invisible))
		(text "OUT" (rect 32 7 49 19)(font "Courier New" (bold))(invisible))
		(line (pt 39 16)(pt 48 16))
	)
	(drawing
		(line (pt 13 25)(pt 13 7))
		(line (pt 13 7)(pt 31 16))
		(line (pt 13 25)(pt 31 16))
		(circle (rect 31 12 39 20))
	)
)
(symbol
	(rect 448 256 496 288)
	(text "NOT" (rect 1 0 21 10)(font "Arial" (font_size 6)))
	(text "inst34" (rect 3 21 32 33)(font "Arial" ))
	(port
		(pt 0 16)
		(input)
		(text "IN" (rect 2 7 13 19)(font "Courier New" (bold))(invisible))
		(text "IN" (rect 2 7 13 19)(font "Courier New" (bold))(invisible))
		(line (pt 0 16)(pt 13 16))
	)
	(port
		(pt 48 16)
		(output)
		(text "OUT" (rect 32 7 49 19)(font "Courier New" (bold))(invisible))
		(text "OUT" (rect 32 7 49 19)(font "Courier New" (bold))(invisible))
		(line (pt 39 16)(pt 48 16))
	)
	(drawing
		(line (pt 13 25)(pt 13 7))
		(line (pt 13 7)(pt 31 16))
		(line (pt 13 25)(pt 31 16))
		(circle (rect 31 12 39 20))
	)
)
(symbol
	(rect 448 368 496 400)
	(text "NOT" (rect 1 0 21 10)(font "Arial" (font_size 6)))
	(text "inst35" (rect 3 21 32 33)(font "Arial" ))
	(port
		(pt 0 16)
		(input)
		(text "IN" (rect 2 7 13 19)(font "Courier New" (bold))(invisible))
		(text "IN" (rect 2 7 13 19)(font "Courier New" (bold))(invisible))
		(line (pt 0 16)(pt 13 16))
	)
	(port
		(pt 48 16)
		(output)
		(text "OUT" (rect 32 7 49 19)(font "Courier New" (bold))(invisible))
		(text "OUT" (rect 32 7 49 19)(font "Courier New" (bold))(invisible))
		(line (pt 39 16)(pt 48 16))
	)
	(drawing
		(line (pt 13 25)(pt 13 7))
		(line (pt 13 7)(pt 31 16))
		(line (pt 13 25)(pt 31 16))
		(circle (rect 31 12 39 20))
	)
)
(symbol
	(rect 264 40 416 120)
	(text "clockreducer" (rect 5 0 67 12)(font "Arial" ))
	(text "inst37" (rect 8 64 37 76)(font "Arial" ))
	(port
		(pt 0 32)
		(input)
		(text "clock" (rect 0 0 25 12)(font "Arial" ))
		(text "clock" (rect 21 27 46 39)(font "Arial" ))
		(line (pt 0 32)(pt 16 32))
	)
	(port
		(pt 152 32)
		(output)
		(text "reduced" (rect 0 0 38 12)(font "Arial" ))
		(text "reduced" (rect 99 27 137 39)(font "Arial" ))
		(line (pt 152 32)(pt 136 32))
	)
	(drawing
		(rectangle (rect 16 16 136 64))
	)
)
(symbol
	(rect 832 48 1048 128)
	(text "seconds_to_percentages" (rect 5 0 127 12)(font "Arial" ))
	(text "inst40" (rect 8 64 37 76)(font "Arial" ))
	(port
		(pt 0 32)
		(input)
		(text "seconds[5..0]" (rect 0 0 67 12)(font "Arial" ))
		(text "seconds[5..0]" (rect 21 27 88 39)(font "Arial" ))
		(line (pt 0 32)(pt 16 32)(line_width 3))
	)
	(port
		(pt 216 32)
		(output)
		(text "percentage[9..0]" (rect 0 0 80 12)(font "Arial" ))
		(text "percentage[9..0]" (rect 128 27 208 39)(font "Arial" ))
		(line (pt 216 32)(pt 200 32)(line_width 3))
	)
	(drawing
		(rectangle (rect 16 16 200 64))
	)
)
(symbol
	(rect 344 144 408 224)
	(text "JKFF" (rect 1 0 23 10)(font "Arial" (font_size 6)))
	(text "inst2" (rect 3 68 26 80)(font "Arial" ))
	(port
		(pt 32 0)
		(input)
		(text "PRN" (rect 24 13 41 25)(font "Courier New" (bold)))
		(text "PRN" (rect 24 11 41 23)(font "Courier New" (bold)))
		(line (pt 32 4)(pt 32 0))
	)
	(port
		(pt 32 80)
		(input)
		(text "CLRN" (rect 21 59 44 71)(font "Courier New" (bold)))
		(text "CLRN" (rect 21 58 44 70)(font "Courier New" (bold)))
		(line (pt 32 80)(pt 32 76))
	)
	(port
		(pt 0 56)
		(input)
		(text "K" (rect 15 51 20 63)(font "Courier New" (bold)))
		(text "K" (rect 15 51 20 63)(font "Courier New" (bold)))
		(line (pt 0 56)(pt 12 56))
	)
	(port
		(pt 0 24)
		(input)
		(text "J" (rect 15 20 20 32)(font "Courier New" (bold)))
		(text "J" (rect 15 20 20 32)(font "Courier New" (bold)))
		(line (pt 0 24)(pt 12 24))
	)
	(port
		(pt 0 40)
		(input)
		(text "CLK" (rect 2 31 19 43)(font "Courier New" (bold))(invisible))
		(text "CLK" (rect 2 31 19 43)(font "Courier New" (bold))(invisible))
		(line (pt 0 40)(pt 12 40))
	)
	(port
		(pt 64 24)
		(output)
		(text "Q" (rect 45 20 50 32)(font "Courier New" (bold)))
		(text "Q" (rect 43 20 48 32)(font "Courier New" (bold)))
		(line (pt 52 24)(pt 64 24))
	)
	(drawing
		(line (pt 12 12)(pt 52 12))
		(line (pt 12 68)(pt 52 68))
		(line (pt 52 68)(pt 52 12))
		(line (pt 12 68)(pt 12 12))
		(line (pt 12 34)(pt 12 33))
		(line (pt 19 40)(pt 12 47))
		(line (pt 12 32)(pt 20 40))
		(circle (rect 28 4 36 12))
		(circle (rect 28 68 36 76))
	)
)
(symbol
	(rect 280 184 328 216)
	(text "NOT" (rect 1 0 21 10)(font "Arial" (font_size 6)))
	(text "inst36" (rect 3 21 32 33)(font "Arial" ))
	(port
		(pt 0 16)
		(input)
		(text "IN" (rect 2 7 13 19)(font "Courier New" (bold))(invisible))
		(text "IN" (rect 2 7 13 19)(font "Courier New" (bold))(invisible))
		(line (pt 0 16)(pt 13 16))
	)
	(port
		(pt 48 16)
		(output)
		(text "OUT" (rect 32 7 49 19)(font "Courier New" (bold))(invisible))
		(text "OUT" (rect 32 7 49 19)(font "Courier New" (bold))(invisible))
		(line (pt 39 16)(pt 48 16))
	)
	(drawing
		(line (pt 13 25)(pt 13 7))
		(line (pt 13 7)(pt 31 16))
		(line (pt 13 25)(pt 31 16))
		(circle (rect 31 12 39 20))
	)
)
(symbol
	(rect 1120 -136 1264 -56)
	(text "mux2" (rect 57 0 94 16)(font "Arial" (font_size 10)))
	(text "inst3" (rect 8 64 31 76)(font "Arial" ))
	(port
		(pt 0 40)
		(input)
		(text "data1x[9..0]" (rect 0 0 67 14)(font "Arial" (font_size 8)))
		(text "data1x[9..0]" (rect 4 26 71 40)(font "Arial" (font_size 8)))
		(line (pt 0 40)(pt 64 40)(line_width 3))
	)
	(port
		(pt 0 56)
		(input)
		(text "data0x[9..0]" (rect 0 0 67 14)(font "Arial" (font_size 8)))
		(text "data0x[9..0]" (rect 4 42 71 56)(font "Arial" (font_size 8)))
		(line (pt 0 56)(pt 64 56)(line_width 3))
	)
	(port
		(pt 72 80)
		(input)
		(text "sel" (rect 0 0 14 16)(font "Arial" (font_size 8))(vertical))
		(text "sel" (rect 65 51 79 67)(font "Arial" (font_size 8))(vertical))
		(line (pt 72 80)(pt 72 68))
	)
	(port
		(pt 144 48)
		(output)
		(text "result[9..0]" (rect 0 0 60 14)(font "Arial" (font_size 8)))
		(text "result[9..0]" (rect 90 34 150 48)(font "Arial" (font_size 8)))
		(line (pt 144 48)(pt 80 48)(line_width 3))
	)
	(drawing
		(line (pt 64 24)(pt 64 72))
		(line (pt 64 24)(pt 80 32))
		(line (pt 64 72)(pt 80 64))
		(line (pt 80 32)(pt 80 64))
		(line (pt 0 0)(pt 146 0))
		(line (pt 146 0)(pt 146 82))
		(line (pt 0 82)(pt 146 82))
		(line (pt 0 0)(pt 0 82))
		(line (pt 0 0)(pt 0 0))
		(line (pt 0 0)(pt 0 0))
		(line (pt 0 0)(pt 0 0))
		(line (pt 0 0)(pt 0 0))
	)
)
(symbol
	(rect 1080 -72 1112 -40)
	(text "GND" (rect 8 16 29 26)(font "Arial" (font_size 6)))
	(text "inst7" (rect 3 21 26 33)(font "Arial" )(invisible))
	(port
		(pt 16 0)
		(output)
		(text "1" (rect 18 0 23 12)(font "Courier New" (bold))(invisible))
		(text "1" (rect 18 0 23 12)(font "Courier New" (bold))(invisible))
		(line (pt 16 8)(pt 16 0))
	)
	(drawing
		(line (pt 8 8)(pt 16 16))
		(line (pt 16 16)(pt 24 8))
		(line (pt 8 8)(pt 24 8))
	)
)
(connector
	(pt 464 88)
	(pt 424 88)
)
(connector
	(pt 264 72)
	(pt 248 72)
)
(connector
	(pt 248 272)
	(pt 448 272)
)
(connector
	(pt 496 272)
	(pt 512 272)
)
(connector
	(pt 728 96)
	(pt 808 96)
)
(connector
	(pt 912 168)
	(pt 904 168)
)
(connector
	(pt 808 160)
	(pt 840 160)
)
(connector
	(pt 808 96)
	(pt 808 160)
)
(connector
	(pt 576 280)
	(pt 664 280)
)
(connector
	(pt 448 208)
	(pt 424 208)
)
(connector
	(pt 496 208)
	(pt 512 208)
)
(connector
	(pt 512 208)
	(pt 512 240)
)
(connector
	(pt 512 240)
	(pt 424 240)
)
(connector
	(pt 424 288)
	(pt 512 288)
)
(connector
	(pt 448 168)
	(pt 448 72)
)
(connector
	(pt 448 72)
	(pt 464 72)
)
(connector
	(pt 664 184)
	(pt 776 184)
)
(connector
	(pt 744 200)
	(pt 912 200)
)
(connector
	(pt 696 200)
	(pt 664 200)
)
(connector
	(pt 664 184)
	(pt 664 200)
)
(connector
	(pt 664 200)
	(pt 664 280)
)
(connector
	(pt 544 112)
	(pt 520 112)
)
(connector
	(pt 520 144)
	(pt 520 112)
)
(connector
	(pt 520 144)
	(pt 496 144)
)
(connector
	(pt 496 144)
	(pt 496 128)
)
(connector
	(pt 544 16)
	(pt 536 16)
)
(connector
	(pt 536 80)
	(pt 536 16)
)
(connector
	(pt 528 80)
	(pt 536 80)
)
(connector
	(pt 536 80)
	(pt 544 80)
)
(connector
	(pt 424 240)
	(pt 424 288)
)
(connector
	(pt 496 384)
	(pt 512 384)
)
(connector
	(pt 424 400)
	(pt 512 400)
)
(connector
	(pt 248 384)
	(pt 448 384)
)
(connector
	(pt 424 288)
	(pt 424 400)
)
(connector
	(pt 416 72)
	(pt 448 72)
)
(connector
	(pt 1096 168)
	(pt 1200 168)
	(bus)
)
(connector
	(pt 1616 264)
	(pt 1656 264)
	(bus)
)
(connector
	(pt 1616 280)
	(pt 1656 280)
	(bus)
)
(connector
	(pt 1384 264)
	(pt 1408 264)
	(bus)
)
(connector
	(pt 1200 264)
	(pt 1192 264)
)
(connector
	(pt 1096 256)
	(pt 1128 256)
)
(connector
	(pt 952 280)
	(pt 1064 280)
)
(connector
	(pt 1032 296)
	(pt 1200 296)
)
(connector
	(pt 984 296)
	(pt 952 296)
)
(connector
	(pt 1096 184)
	(pt 1096 256)
)
(connector
	(pt 952 280)
	(pt 952 296)
)
(connector
	(pt 760 264)
	(pt 1064 264)
)
(connector
	(pt 760 264)
	(pt 760 168)
)
(connector
	(pt 776 168)
	(pt 760 168)
)
(connector
	(pt 760 168)
	(pt 448 168)
)
(connector
	(pt 952 392)
	(pt 576 392)
)
(connector
	(pt 952 296)
	(pt 952 392)
)
(connector
	(pt 832 80)
	(pt 728 80)
	(bus)
)
(connector
	(pt 408 168)
	(pt 424 168)
)
(connector
	(pt 424 88)
	(pt 424 168)
)
(connector
	(pt 424 168)
	(pt 424 208)
)
(connector
	(pt 264 168)
	(pt 248 168)
)
(connector
	(pt 264 200)
	(pt 280 200)
)
(connector
	(pt 344 168)
	(pt 336 168)
)
(connector
	(pt 336 168)
	(pt 336 200)
)
(connector
	(pt 328 200)
	(pt 336 200)
)
(connector
	(pt 336 200)
	(pt 344 200)
)
(connector
	(pt 344 184)
	(pt 264 184)
)
(connector
	(pt 264 168)
	(pt 264 184)
)
(connector
	(pt 264 184)
	(pt 264 200)
)
(connector
	(pt 248 -32)
	(pt 1192 -32)
)
(connector
	(pt 1192 -32)
	(pt 1192 -56)
)
(connector
	(pt 1048 80)
	(pt 1072 80)
	(bus)
)
(connector
	(pt 1072 -96)
	(pt 1072 80)
	(bus)
)
(connector
	(pt 1072 -96)
	(pt 1120 -96)
	(bus)
)
(connector
	(pt 1120 -80)
	(pt 1096 -80)
	(bus)
)
(connector
	(pt 1096 -80)
	(pt 1096 -72)
	(bus)
)
(connector
	(pt 1408 168)
	(pt 1656 168)
	(bus)
)
(connector
	(pt 1408 184)
	(pt 1656 184)
	(bus)
)
(connector
	(pt 1264 -88)
	(pt 1648 -88)
	(bus)
)
(connector
	(pt 1648 -88)
	(pt 1648 88)
	(bus)
)
(connector
	(pt 1648 88)
	(pt 1656 88)
	(bus)
)
(junction (pt 424 288))
(junction (pt 448 72))
(junction (pt 664 200))
(junction (pt 536 80))
(junction (pt 952 296))
(junction (pt 760 168))
(junction (pt 424 168))
(junction (pt 336 200))
(junction (pt 264 184))
