Analysis & Synthesis report for combinationalmultiplier
Wed Mar 16 05:21:17 2016
Quartus II 64-Bit Version 13.1.0 Build 162 10/23/2013 SJ Web Edition


---------------------
; Table of Contents ;
---------------------
  1. Legal Notice
  2. Analysis & Synthesis Summary
  3. Analysis & Synthesis Settings
  4. Parallel Compilation
  5. Analysis & Synthesis Source Files Read
  6. Analysis & Synthesis Resource Usage Summary
  7. Analysis & Synthesis Resource Utilization by Entity
  8. Analysis & Synthesis IP Cores Summary
  9. General Register Statistics
 10. Multiplexer Restructuring Statistics (Restructuring Performed)
 11. Parameter Settings for User Entity Instance: multiplexer:inst9|lpm_mux:LPM_MUX_component
 12. Parameter Settings for User Entity Instance: multiplexer:inst13|lpm_mux:LPM_MUX_component
 13. Parameter Settings for User Entity Instance: multiplexer:inst18|lpm_mux:LPM_MUX_component
 14. Parameter Settings for User Entity Instance: multiplexer:inst26|lpm_mux:LPM_MUX_component
 15. Parameter Settings for User Entity Instance: multiplexer:inst33|lpm_mux:LPM_MUX_component
 16. Elapsed Time Per Partition
 17. Analysis & Synthesis Messages



----------------
; Legal Notice ;
----------------
Copyright (C) 1991-2013 Altera Corporation
Your use of Altera Corporation's design tools, logic functions 
and other software and tools, and its AMPP partner logic 
functions, and any output files from any of the foregoing 
(including device programming or simulation files), and any 
associated documentation or information are expressly subject 
to the terms and conditions of the Altera Program License 
Subscription Agreement, Altera MegaCore Function License 
Agreement, or other applicable license agreement, including, 
without limitation, that your use is for the sole purpose of 
programming logic devices manufactured by Altera and sold by 
Altera or its authorized distributors.  Please refer to the 
applicable agreement for further details.



+---------------------------------------------------------------------------------+
; Analysis & Synthesis Summary                                                    ;
+------------------------------------+--------------------------------------------+
; Analysis & Synthesis Status        ; Successful - Wed Mar 16 05:21:17 2016      ;
; Quartus II 64-Bit Version          ; 13.1.0 Build 162 10/23/2013 SJ Web Edition ;
; Revision Name                      ; combinationalmultiplier                    ;
; Top-level Entity Name              ; combinationalmultiplier                    ;
; Family                             ; Cyclone III                                ;
; Total logic elements               ; 589                                        ;
;     Total combinational functions  ; 579                                        ;
;     Dedicated logic registers      ; 20                                         ;
; Total registers                    ; 20                                         ;
; Total pins                         ; 49                                         ;
; Total virtual pins                 ; 0                                          ;
; Total memory bits                  ; 0                                          ;
; Embedded Multiplier 9-bit elements ; 0                                          ;
; Total PLLs                         ; 0                                          ;
+------------------------------------+--------------------------------------------+


+--------------------------------------------------------------------------------------------------------------------------------+
; Analysis & Synthesis Settings                                                                                                  ;
+----------------------------------------------------------------------------+-------------------------+-------------------------+
; Option                                                                     ; Setting                 ; Default Value           ;
+----------------------------------------------------------------------------+-------------------------+-------------------------+
; Device                                                                     ; EP3C16F484C6            ;                         ;
; Top-level entity name                                                      ; combinationalmultiplier ; combinationalmultiplier ;
; Family name                                                                ; Cyclone III             ; Cyclone IV GX           ;
; Use smart compilation                                                      ; Off                     ; Off                     ;
; Enable parallel Assembler and TimeQuest Timing Analyzer during compilation ; On                      ; On                      ;
; Enable compact report table                                                ; Off                     ; Off                     ;
; Restructure Multiplexers                                                   ; Auto                    ; Auto                    ;
; Create Debugging Nodes for IP Cores                                        ; Off                     ; Off                     ;
; Preserve fewer node names                                                  ; On                      ; On                      ;
; Disable OpenCore Plus hardware evaluation                                  ; Off                     ; Off                     ;
; Verilog Version                                                            ; Verilog_2001            ; Verilog_2001            ;
; VHDL Version                                                               ; VHDL_1993               ; VHDL_1993               ;
; State Machine Processing                                                   ; Auto                    ; Auto                    ;
; Safe State Machine                                                         ; Off                     ; Off                     ;
; Extract Verilog State Machines                                             ; On                      ; On                      ;
; Extract VHDL State Machines                                                ; On                      ; On                      ;
; Ignore Verilog initial constructs                                          ; Off                     ; Off                     ;
; Iteration limit for constant Verilog loops                                 ; 5000                    ; 5000                    ;
; Iteration limit for non-constant Verilog loops                             ; 250                     ; 250                     ;
; Add Pass-Through Logic to Inferred RAMs                                    ; On                      ; On                      ;
; Infer RAMs from Raw Logic                                                  ; On                      ; On                      ;
; Parallel Synthesis                                                         ; On                      ; On                      ;
; DSP Block Balancing                                                        ; Auto                    ; Auto                    ;
; NOT Gate Push-Back                                                         ; On                      ; On                      ;
; Power-Up Don't Care                                                        ; On                      ; On                      ;
; Remove Redundant Logic Cells                                               ; Off                     ; Off                     ;
; Remove Duplicate Registers                                                 ; On                      ; On                      ;
; Ignore CARRY Buffers                                                       ; Off                     ; Off                     ;
; Ignore CASCADE Buffers                                                     ; Off                     ; Off                     ;
; Ignore GLOBAL Buffers                                                      ; Off                     ; Off                     ;
; Ignore ROW GLOBAL Buffers                                                  ; Off                     ; Off                     ;
; Ignore LCELL Buffers                                                       ; Off                     ; Off                     ;
; Ignore SOFT Buffers                                                        ; On                      ; On                      ;
; Limit AHDL Integers to 32 Bits                                             ; Off                     ; Off                     ;
; Optimization Technique                                                     ; Balanced                ; Balanced                ;
; Carry Chain Length                                                         ; 70                      ; 70                      ;
; Auto Carry Chains                                                          ; On                      ; On                      ;
; Auto Open-Drain Pins                                                       ; On                      ; On                      ;
; Perform WYSIWYG Primitive Resynthesis                                      ; Off                     ; Off                     ;
; Auto ROM Replacement                                                       ; On                      ; On                      ;
; Auto RAM Replacement                                                       ; On                      ; On                      ;
; Auto DSP Block Replacement                                                 ; On                      ; On                      ;
; Auto Shift Register Replacement                                            ; Auto                    ; Auto                    ;
; Allow Shift Register Merging across Hierarchies                            ; Auto                    ; Auto                    ;
; Auto Clock Enable Replacement                                              ; On                      ; On                      ;
; Strict RAM Replacement                                                     ; Off                     ; Off                     ;
; Allow Synchronous Control Signals                                          ; On                      ; On                      ;
; Force Use of Synchronous Clear Signals                                     ; Off                     ; Off                     ;
; Auto RAM Block Balancing                                                   ; On                      ; On                      ;
; Auto RAM to Logic Cell Conversion                                          ; Off                     ; Off                     ;
; Auto Resource Sharing                                                      ; Off                     ; Off                     ;
; Allow Any RAM Size For Recognition                                         ; Off                     ; Off                     ;
; Allow Any ROM Size For Recognition                                         ; Off                     ; Off                     ;
; Allow Any Shift Register Size For Recognition                              ; Off                     ; Off                     ;
; Use LogicLock Constraints during Resource Balancing                        ; On                      ; On                      ;
; Ignore translate_off and synthesis_off directives                          ; Off                     ; Off                     ;
; Timing-Driven Synthesis                                                    ; On                      ; On                      ;
; Report Parameter Settings                                                  ; On                      ; On                      ;
; Report Source Assignments                                                  ; On                      ; On                      ;
; Report Connectivity Checks                                                 ; On                      ; On                      ;
; Ignore Maximum Fan-Out Assignments                                         ; Off                     ; Off                     ;
; Synchronization Register Chain Length                                      ; 2                       ; 2                       ;
; PowerPlay Power Optimization                                               ; Normal compilation      ; Normal compilation      ;
; HDL message level                                                          ; Level2                  ; Level2                  ;
; Suppress Register Optimization Related Messages                            ; Off                     ; Off                     ;
; Number of Removed Registers Reported in Synthesis Report                   ; 5000                    ; 5000                    ;
; Number of Swept Nodes Reported in Synthesis Report                         ; 5000                    ; 5000                    ;
; Number of Inverted Registers Reported in Synthesis Report                  ; 100                     ; 100                     ;
; Clock MUX Protection                                                       ; On                      ; On                      ;
; Auto Gated Clock Conversion                                                ; Off                     ; Off                     ;
; Block Design Naming                                                        ; Auto                    ; Auto                    ;
; SDC constraint protection                                                  ; Off                     ; Off                     ;
; Synthesis Effort                                                           ; Auto                    ; Auto                    ;
; Shift Register Replacement - Allow Asynchronous Clear Signal               ; On                      ; On                      ;
; Pre-Mapping Resynthesis Optimization                                       ; Off                     ; Off                     ;
; Analysis & Synthesis Message Level                                         ; Medium                  ; Medium                  ;
; Disable Register Merging Across Hierarchies                                ; Auto                    ; Auto                    ;
; Resource Aware Inference For Block RAM                                     ; On                      ; On                      ;
; Synthesis Seed                                                             ; 1                       ; 1                       ;
+----------------------------------------------------------------------------+-------------------------+-------------------------+


Parallel compilation was disabled, but you have multiple processors available. Enable parallel compilation to reduce compilation time.
+-------------------------------------+
; Parallel Compilation                ;
+----------------------------+--------+
; Processors                 ; Number ;
+----------------------------+--------+
; Number detected on machine ; 8      ;
; Maximum allowed            ; 1      ;
+----------------------------+--------+


+--------------------------------------------------------------------------------------------------------------------------------------------------------------------------------------+
; Analysis & Synthesis Source Files Read                                                                                                                                               ;
+----------------------------------+-----------------+------------------------------------+----------------------------------------------------------------------------------+---------+
; File Name with User-Entered Path ; Used in Netlist ; File Type                          ; File Name with Absolute Path                                                     ; Library ;
+----------------------------------+-----------------+------------------------------------+----------------------------------------------------------------------------------+---------+
; 7sd.v                            ; yes             ; User Verilog HDL File              ; D:/Valentin/Documente/FPGA/fpga/registeredmultiplier/7sd.v                       ;         ;
; 10bitshift.bdf                   ; yes             ; User Block Diagram/Schematic File  ; D:/Valentin/Documente/FPGA/fpga/registeredmultiplier/10bitshift.bdf              ;         ;
; combinationalmultiplier.bdf      ; yes             ; User Block Diagram/Schematic File  ; D:/Valentin/Documente/FPGA/fpga/registeredmultiplier/combinationalmultiplier.bdf ;         ;
; halfadder.bdf                    ; yes             ; User Block Diagram/Schematic File  ; D:/Valentin/Documente/FPGA/fpga/registeredmultiplier/halfadder.bdf               ;         ;
; fulladder.bdf                    ; yes             ; User Block Diagram/Schematic File  ; D:/Valentin/Documente/FPGA/fpga/registeredmultiplier/fulladder.bdf               ;         ;
; 5bitadder.bdf                    ; yes             ; User Block Diagram/Schematic File  ; D:/Valentin/Documente/FPGA/fpga/registeredmultiplier/5bitadder.bdf               ;         ;
; multiplexer.v                    ; yes             ; User Wizard-Generated File         ; D:/Valentin/Documente/FPGA/fpga/registeredmultiplier/multiplexer.v               ;         ;
; 5bitregister.bdf                 ; yes             ; User Block Diagram/Schematic File  ; D:/Valentin/Documente/FPGA/fpga/registeredmultiplier/5bitregister.bdf            ;         ;
; lpm_mux.tdf                      ; yes             ; Megafunction                       ; c:/altera/13.1/quartus/libraries/megafunctions/lpm_mux.tdf                       ;         ;
; aglobal131.inc                   ; yes             ; Megafunction                       ; c:/altera/13.1/quartus/libraries/megafunctions/aglobal131.inc                    ;         ;
; muxlut.inc                       ; yes             ; Megafunction                       ; c:/altera/13.1/quartus/libraries/megafunctions/muxlut.inc                        ;         ;
; bypassff.inc                     ; yes             ; Megafunction                       ; c:/altera/13.1/quartus/libraries/megafunctions/bypassff.inc                      ;         ;
; altshift.inc                     ; yes             ; Megafunction                       ; c:/altera/13.1/quartus/libraries/megafunctions/altshift.inc                      ;         ;
; db/mux_erc.tdf                   ; yes             ; Auto-Generated Megafunction        ; D:/Valentin/Documente/FPGA/fpga/registeredmultiplier/db/mux_erc.tdf              ;         ;
+----------------------------------+-----------------+------------------------------------+----------------------------------------------------------------------------------+---------+


+--------------------------------------------------------------------------+
; Analysis & Synthesis Resource Usage Summary                              ;
+---------------------------------------------+----------------------------+
; Resource                                    ; Usage                      ;
+---------------------------------------------+----------------------------+
; Estimated Total logic elements              ; 589                        ;
;                                             ;                            ;
; Total combinational functions               ; 579                        ;
; Logic element usage by number of LUT inputs ;                            ;
;     -- 4 input functions                    ; 475                        ;
;     -- 3 input functions                    ; 69                         ;
;     -- <=2 input functions                  ; 35                         ;
;                                             ;                            ;
; Logic elements by mode                      ;                            ;
;     -- normal mode                          ; 579                        ;
;     -- arithmetic mode                      ; 0                          ;
;                                             ;                            ;
; Total registers                             ; 20                         ;
;     -- Dedicated logic registers            ; 20                         ;
;     -- I/O registers                        ; 0                          ;
;                                             ;                            ;
; I/O pins                                    ; 49                         ;
; Embedded Multiplier 9-bit elements          ; 0                          ;
; Maximum fan-out node                        ; 5bitregister:inst39|inst19 ;
; Maximum fan-out                             ; 181                        ;
; Total fan-out                               ; 2299                       ;
; Average fan-out                             ; 3.30                       ;
+---------------------------------------------+----------------------------+


+-------------------------------------------------------------------------------------------------------------------------------------------------------------------------------------------------------------------------------------------------------------+
; Analysis & Synthesis Resource Utilization by Entity                                                                                                                                                                                                         ;
+-----------------------------------+-------------------+--------------+-------------+--------------+---------+-----------+------+--------------+----------------------------------------------------------------------------------------------+--------------+
; Compilation Hierarchy Node        ; LC Combinationals ; LC Registers ; Memory Bits ; DSP Elements ; DSP 9x9 ; DSP 18x18 ; Pins ; Virtual Pins ; Full Hierarchy Name                                                                          ; Library Name ;
+-----------------------------------+-------------------+--------------+-------------+--------------+---------+-----------+------+--------------+----------------------------------------------------------------------------------------------+--------------+
; |combinationalmultiplier          ; 579 (0)           ; 20 (0)       ; 0           ; 0            ; 0       ; 0         ; 49   ; 0            ; |combinationalmultiplier                                                                     ; work         ;
;    |5bitadder:inst15|             ; 10 (0)            ; 0 (0)        ; 0           ; 0            ; 0       ; 0         ; 0    ; 0            ; |combinationalmultiplier|5bitadder:inst15                                                    ; work         ;
;       |fulladder:inst1|           ; 2 (0)             ; 0 (0)        ; 0           ; 0            ; 0       ; 0         ; 0    ; 0            ; |combinationalmultiplier|5bitadder:inst15|fulladder:inst1                                    ; work         ;
;          |halfadder:inst|         ; 2 (2)             ; 0 (0)        ; 0           ; 0            ; 0       ; 0         ; 0    ; 0            ; |combinationalmultiplier|5bitadder:inst15|fulladder:inst1|halfadder:inst                     ; work         ;
;       |fulladder:inst2|           ; 2 (1)             ; 0 (0)        ; 0           ; 0            ; 0       ; 0         ; 0    ; 0            ; |combinationalmultiplier|5bitadder:inst15|fulladder:inst2                                    ; work         ;
;          |halfadder:inst1|        ; 1 (1)             ; 0 (0)        ; 0           ; 0            ; 0       ; 0         ; 0    ; 0            ; |combinationalmultiplier|5bitadder:inst15|fulladder:inst2|halfadder:inst1                    ; work         ;
;       |fulladder:inst3|           ; 2 (1)             ; 0 (0)        ; 0           ; 0            ; 0       ; 0         ; 0    ; 0            ; |combinationalmultiplier|5bitadder:inst15|fulladder:inst3                                    ; work         ;
;          |halfadder:inst1|        ; 1 (1)             ; 0 (0)        ; 0           ; 0            ; 0       ; 0         ; 0    ; 0            ; |combinationalmultiplier|5bitadder:inst15|fulladder:inst3|halfadder:inst1                    ; work         ;
;       |fulladder:inst4|           ; 2 (1)             ; 0 (0)        ; 0           ; 0            ; 0       ; 0         ; 0    ; 0            ; |combinationalmultiplier|5bitadder:inst15|fulladder:inst4                                    ; work         ;
;          |halfadder:inst1|        ; 1 (1)             ; 0 (0)        ; 0           ; 0            ; 0       ; 0         ; 0    ; 0            ; |combinationalmultiplier|5bitadder:inst15|fulladder:inst4|halfadder:inst1                    ; work         ;
;       |fulladder:inst57|          ; 2 (0)             ; 0 (0)        ; 0           ; 0            ; 0       ; 0         ; 0    ; 0            ; |combinationalmultiplier|5bitadder:inst15|fulladder:inst57                                   ; work         ;
;          |halfadder:inst1|        ; 2 (2)             ; 0 (0)        ; 0           ; 0            ; 0       ; 0         ; 0    ; 0            ; |combinationalmultiplier|5bitadder:inst15|fulladder:inst57|halfadder:inst1                   ; work         ;
;    |5bitadder:inst17|             ; 8 (0)             ; 0 (0)        ; 0           ; 0            ; 0       ; 0         ; 0    ; 0            ; |combinationalmultiplier|5bitadder:inst17                                                    ; work         ;
;       |fulladder:inst1|           ; 2 (0)             ; 0 (0)        ; 0           ; 0            ; 0       ; 0         ; 0    ; 0            ; |combinationalmultiplier|5bitadder:inst17|fulladder:inst1                                    ; work         ;
;          |halfadder:inst|         ; 2 (2)             ; 0 (0)        ; 0           ; 0            ; 0       ; 0         ; 0    ; 0            ; |combinationalmultiplier|5bitadder:inst17|fulladder:inst1|halfadder:inst                     ; work         ;
;       |fulladder:inst2|           ; 2 (1)             ; 0 (0)        ; 0           ; 0            ; 0       ; 0         ; 0    ; 0            ; |combinationalmultiplier|5bitadder:inst17|fulladder:inst2                                    ; work         ;
;          |halfadder:inst1|        ; 1 (1)             ; 0 (0)        ; 0           ; 0            ; 0       ; 0         ; 0    ; 0            ; |combinationalmultiplier|5bitadder:inst17|fulladder:inst2|halfadder:inst1                    ; work         ;
;       |fulladder:inst3|           ; 2 (1)             ; 0 (0)        ; 0           ; 0            ; 0       ; 0         ; 0    ; 0            ; |combinationalmultiplier|5bitadder:inst17|fulladder:inst3                                    ; work         ;
;          |halfadder:inst1|        ; 1 (1)             ; 0 (0)        ; 0           ; 0            ; 0       ; 0         ; 0    ; 0            ; |combinationalmultiplier|5bitadder:inst17|fulladder:inst3|halfadder:inst1                    ; work         ;
;       |fulladder:inst4|           ; 2 (1)             ; 0 (0)        ; 0           ; 0            ; 0       ; 0         ; 0    ; 0            ; |combinationalmultiplier|5bitadder:inst17|fulladder:inst4                                    ; work         ;
;          |halfadder:inst1|        ; 1 (1)             ; 0 (0)        ; 0           ; 0            ; 0       ; 0         ; 0    ; 0            ; |combinationalmultiplier|5bitadder:inst17|fulladder:inst4|halfadder:inst1                    ; work         ;
;    |5bitadder:inst25|             ; 10 (0)            ; 0 (0)        ; 0           ; 0            ; 0       ; 0         ; 0    ; 0            ; |combinationalmultiplier|5bitadder:inst25                                                    ; work         ;
;       |fulladder:inst1|           ; 2 (0)             ; 0 (0)        ; 0           ; 0            ; 0       ; 0         ; 0    ; 0            ; |combinationalmultiplier|5bitadder:inst25|fulladder:inst1                                    ; work         ;
;          |halfadder:inst|         ; 2 (2)             ; 0 (0)        ; 0           ; 0            ; 0       ; 0         ; 0    ; 0            ; |combinationalmultiplier|5bitadder:inst25|fulladder:inst1|halfadder:inst                     ; work         ;
;       |fulladder:inst2|           ; 2 (1)             ; 0 (0)        ; 0           ; 0            ; 0       ; 0         ; 0    ; 0            ; |combinationalmultiplier|5bitadder:inst25|fulladder:inst2                                    ; work         ;
;          |halfadder:inst1|        ; 1 (1)             ; 0 (0)        ; 0           ; 0            ; 0       ; 0         ; 0    ; 0            ; |combinationalmultiplier|5bitadder:inst25|fulladder:inst2|halfadder:inst1                    ; work         ;
;       |fulladder:inst34|          ; 1 (0)             ; 0 (0)        ; 0           ; 0            ; 0       ; 0         ; 0    ; 0            ; |combinationalmultiplier|5bitadder:inst25|fulladder:inst34                                   ; work         ;
;          |halfadder:inst1|        ; 1 (1)             ; 0 (0)        ; 0           ; 0            ; 0       ; 0         ; 0    ; 0            ; |combinationalmultiplier|5bitadder:inst25|fulladder:inst34|halfadder:inst1                   ; work         ;
;       |fulladder:inst3|           ; 2 (1)             ; 0 (0)        ; 0           ; 0            ; 0       ; 0         ; 0    ; 0            ; |combinationalmultiplier|5bitadder:inst25|fulladder:inst3                                    ; work         ;
;          |halfadder:inst1|        ; 1 (1)             ; 0 (0)        ; 0           ; 0            ; 0       ; 0         ; 0    ; 0            ; |combinationalmultiplier|5bitadder:inst25|fulladder:inst3|halfadder:inst1                    ; work         ;
;       |fulladder:inst4|           ; 2 (1)             ; 0 (0)        ; 0           ; 0            ; 0       ; 0         ; 0    ; 0            ; |combinationalmultiplier|5bitadder:inst25|fulladder:inst4                                    ; work         ;
;          |halfadder:inst1|        ; 1 (1)             ; 0 (0)        ; 0           ; 0            ; 0       ; 0         ; 0    ; 0            ; |combinationalmultiplier|5bitadder:inst25|fulladder:inst4|halfadder:inst1                    ; work         ;
;       |fulladder:inst57|          ; 1 (0)             ; 0 (0)        ; 0           ; 0            ; 0       ; 0         ; 0    ; 0            ; |combinationalmultiplier|5bitadder:inst25|fulladder:inst57                                   ; work         ;
;          |halfadder:inst1|        ; 1 (1)             ; 0 (0)        ; 0           ; 0            ; 0       ; 0         ; 0    ; 0            ; |combinationalmultiplier|5bitadder:inst25|fulladder:inst57|halfadder:inst1                   ; work         ;
;    |5bitadder:inst32|             ; 16 (0)            ; 0 (0)        ; 0           ; 0            ; 0       ; 0         ; 0    ; 0            ; |combinationalmultiplier|5bitadder:inst32                                                    ; work         ;
;       |fulladder:inst1|           ; 2 (0)             ; 0 (0)        ; 0           ; 0            ; 0       ; 0         ; 0    ; 0            ; |combinationalmultiplier|5bitadder:inst32|fulladder:inst1                                    ; work         ;
;          |halfadder:inst|         ; 2 (2)             ; 0 (0)        ; 0           ; 0            ; 0       ; 0         ; 0    ; 0            ; |combinationalmultiplier|5bitadder:inst32|fulladder:inst1|halfadder:inst                     ; work         ;
;       |fulladder:inst2|           ; 2 (1)             ; 0 (0)        ; 0           ; 0            ; 0       ; 0         ; 0    ; 0            ; |combinationalmultiplier|5bitadder:inst32|fulladder:inst2                                    ; work         ;
;          |halfadder:inst1|        ; 1 (1)             ; 0 (0)        ; 0           ; 0            ; 0       ; 0         ; 0    ; 0            ; |combinationalmultiplier|5bitadder:inst32|fulladder:inst2|halfadder:inst1                    ; work         ;
;       |fulladder:inst34|          ; 2 (0)             ; 0 (0)        ; 0           ; 0            ; 0       ; 0         ; 0    ; 0            ; |combinationalmultiplier|5bitadder:inst32|fulladder:inst34                                   ; work         ;
;          |halfadder:inst1|        ; 2 (2)             ; 0 (0)        ; 0           ; 0            ; 0       ; 0         ; 0    ; 0            ; |combinationalmultiplier|5bitadder:inst32|fulladder:inst34|halfadder:inst1                   ; work         ;
;       |fulladder:inst3|           ; 2 (1)             ; 0 (0)        ; 0           ; 0            ; 0       ; 0         ; 0    ; 0            ; |combinationalmultiplier|5bitadder:inst32|fulladder:inst3                                    ; work         ;
;          |halfadder:inst1|        ; 1 (1)             ; 0 (0)        ; 0           ; 0            ; 0       ; 0         ; 0    ; 0            ; |combinationalmultiplier|5bitadder:inst32|fulladder:inst3|halfadder:inst1                    ; work         ;
;       |fulladder:inst488|         ; 1 (0)             ; 0 (0)        ; 0           ; 0            ; 0       ; 0         ; 0    ; 0            ; |combinationalmultiplier|5bitadder:inst32|fulladder:inst488                                  ; work         ;
;          |halfadder:inst1|        ; 1 (1)             ; 0 (0)        ; 0           ; 0            ; 0       ; 0         ; 0    ; 0            ; |combinationalmultiplier|5bitadder:inst32|fulladder:inst488|halfadder:inst1                  ; work         ;
;       |fulladder:inst4|           ; 2 (1)             ; 0 (0)        ; 0           ; 0            ; 0       ; 0         ; 0    ; 0            ; |combinationalmultiplier|5bitadder:inst32|fulladder:inst4                                    ; work         ;
;          |halfadder:inst1|        ; 1 (1)             ; 0 (0)        ; 0           ; 0            ; 0       ; 0         ; 0    ; 0            ; |combinationalmultiplier|5bitadder:inst32|fulladder:inst4|halfadder:inst1                    ; work         ;
;       |fulladder:inst57|          ; 1 (0)             ; 0 (0)        ; 0           ; 0            ; 0       ; 0         ; 0    ; 0            ; |combinationalmultiplier|5bitadder:inst32|fulladder:inst57                                   ; work         ;
;          |halfadder:inst1|        ; 1 (1)             ; 0 (0)        ; 0           ; 0            ; 0       ; 0         ; 0    ; 0            ; |combinationalmultiplier|5bitadder:inst32|fulladder:inst57|halfadder:inst1                   ; work         ;
;       |fulladder:inst5|           ; 2 (0)             ; 0 (0)        ; 0           ; 0            ; 0       ; 0         ; 0    ; 0            ; |combinationalmultiplier|5bitadder:inst32|fulladder:inst5                                    ; work         ;
;          |halfadder:inst1|        ; 2 (2)             ; 0 (0)        ; 0           ; 0            ; 0       ; 0         ; 0    ; 0            ; |combinationalmultiplier|5bitadder:inst32|fulladder:inst5|halfadder:inst1                    ; work         ;
;       |fulladder:inst667|         ; 2 (0)             ; 0 (0)        ; 0           ; 0            ; 0       ; 0         ; 0    ; 0            ; |combinationalmultiplier|5bitadder:inst32|fulladder:inst667                                  ; work         ;
;          |halfadder:inst1|        ; 2 (2)             ; 0 (0)        ; 0           ; 0            ; 0       ; 0         ; 0    ; 0            ; |combinationalmultiplier|5bitadder:inst32|fulladder:inst667|halfadder:inst1                  ; work         ;
;    |5bitregister:inst19|          ; 0 (0)             ; 5 (5)        ; 0           ; 0            ; 0       ; 0         ; 0    ; 0            ; |combinationalmultiplier|5bitregister:inst19                                                 ; work         ;
;    |5bitregister:inst38|          ; 0 (0)             ; 5 (5)        ; 0           ; 0            ; 0       ; 0         ; 0    ; 0            ; |combinationalmultiplier|5bitregister:inst38                                                 ; work         ;
;    |5bitregister:inst39|          ; 0 (0)             ; 5 (5)        ; 0           ; 0            ; 0       ; 0         ; 0    ; 0            ; |combinationalmultiplier|5bitregister:inst39                                                 ; work         ;
;    |5bitregister:inst|            ; 0 (0)             ; 5 (5)        ; 0           ; 0            ; 0       ; 0         ; 0    ; 0            ; |combinationalmultiplier|5bitregister:inst                                                   ; work         ;
;    |bcd_7seg_decoder:inst42|      ; 531 (531)         ; 0 (0)        ; 0           ; 0            ; 0       ; 0         ; 0    ; 0            ; |combinationalmultiplier|bcd_7seg_decoder:inst42                                             ; work         ;
;    |multiplexer:inst33|           ; 1 (0)             ; 0 (0)        ; 0           ; 0            ; 0       ; 0         ; 0    ; 0            ; |combinationalmultiplier|multiplexer:inst33                                                  ; work         ;
;       |lpm_mux:LPM_MUX_component| ; 1 (0)             ; 0 (0)        ; 0           ; 0            ; 0       ; 0         ; 0    ; 0            ; |combinationalmultiplier|multiplexer:inst33|lpm_mux:LPM_MUX_component                        ; work         ;
;          |mux_erc:auto_generated| ; 1 (1)             ; 0 (0)        ; 0           ; 0            ; 0       ; 0         ; 0    ; 0            ; |combinationalmultiplier|multiplexer:inst33|lpm_mux:LPM_MUX_component|mux_erc:auto_generated ; work         ;
;    |multiplexer:inst9|            ; 3 (0)             ; 0 (0)        ; 0           ; 0            ; 0       ; 0         ; 0    ; 0            ; |combinationalmultiplier|multiplexer:inst9                                                   ; work         ;
;       |lpm_mux:LPM_MUX_component| ; 3 (0)             ; 0 (0)        ; 0           ; 0            ; 0       ; 0         ; 0    ; 0            ; |combinationalmultiplier|multiplexer:inst9|lpm_mux:LPM_MUX_component                         ; work         ;
;          |mux_erc:auto_generated| ; 3 (3)             ; 0 (0)        ; 0           ; 0            ; 0       ; 0         ; 0    ; 0            ; |combinationalmultiplier|multiplexer:inst9|lpm_mux:LPM_MUX_component|mux_erc:auto_generated  ; work         ;
+-----------------------------------+-------------------+--------------+-------------+--------------+---------+-----------+------+--------------+----------------------------------------------------------------------------------------------+--------------+
Note: For table entries with two numbers listed, the numbers in parentheses indicate the number of resources of the given type used by the specific entity alone. The numbers listed outside of parentheses indicate the total resources of the given type used by the specific entity and all of its sub-entities in the hierarchy.


+----------------------------------------------------------------------------------------------------------------------------------------------------------------------------------+
; Analysis & Synthesis IP Cores Summary                                                                                                                                            ;
+--------+--------------+---------+--------------+--------------+---------------------------------------------+--------------------------------------------------------------------+
; Vendor ; IP Core Name ; Version ; Release Date ; License Type ; Entity Instance                             ; IP Include File                                                    ;
+--------+--------------+---------+--------------+--------------+---------------------------------------------+--------------------------------------------------------------------+
; Altera ; LPM_MUX      ; 13.1    ; N/A          ; N/A          ; |combinationalmultiplier|multiplexer:inst9  ; D:/Valentin/Documente/FPGA/fpga/registeredmultiplier/multiplexer.v ;
; Altera ; LPM_MUX      ; 13.1    ; N/A          ; N/A          ; |combinationalmultiplier|multiplexer:inst13 ; D:/Valentin/Documente/FPGA/fpga/registeredmultiplier/multiplexer.v ;
; Altera ; LPM_MUX      ; 13.1    ; N/A          ; N/A          ; |combinationalmultiplier|multiplexer:inst18 ; D:/Valentin/Documente/FPGA/fpga/registeredmultiplier/multiplexer.v ;
; Altera ; LPM_MUX      ; 13.1    ; N/A          ; N/A          ; |combinationalmultiplier|multiplexer:inst26 ; D:/Valentin/Documente/FPGA/fpga/registeredmultiplier/multiplexer.v ;
; Altera ; LPM_MUX      ; 13.1    ; N/A          ; N/A          ; |combinationalmultiplier|multiplexer:inst33 ; D:/Valentin/Documente/FPGA/fpga/registeredmultiplier/multiplexer.v ;
+--------+--------------+---------+--------------+--------------+---------------------------------------------+--------------------------------------------------------------------+


+------------------------------------------------------+
; General Register Statistics                          ;
+----------------------------------------------+-------+
; Statistic                                    ; Value ;
+----------------------------------------------+-------+
; Total registers                              ; 20    ;
; Number of registers using Synchronous Clear  ; 0     ;
; Number of registers using Synchronous Load   ; 0     ;
; Number of registers using Asynchronous Clear ; 0     ;
; Number of registers using Asynchronous Load  ; 0     ;
; Number of registers using Clock Enable       ; 0     ;
; Number of registers using Preset             ; 0     ;
+----------------------------------------------+-------+


+------------------------------------------------------------------------------------------------------------------------------------------------------------------------------+
; Multiplexer Restructuring Statistics (Restructuring Performed)                                                                                                               ;
+--------------------+-----------+---------------+----------------------+------------------------+------------+----------------------------------------------------------------+
; Multiplexer Inputs ; Bus Width ; Baseline Area ; Area if Restructured ; Saving if Restructured ; Registered ; Example Multiplexer Output                                     ;
+--------------------+-----------+---------------+----------------------+------------------------+------------+----------------------------------------------------------------+
; 3:1                ; 2 bits    ; 4 LEs         ; 4 LEs                ; 0 LEs                  ; No         ; |combinationalmultiplier|bcd_7seg_decoder:inst42|seven_seg1[3] ;
; 9:1                ; 2 bits    ; 12 LEs        ; 12 LEs               ; 0 LEs                  ; No         ; |combinationalmultiplier|bcd_7seg_decoder:inst42|seven_seg0[0] ;
; 1024:1             ; 2 bits    ; 1364 LEs      ; 530 LEs              ; 834 LEs                ; No         ; |combinationalmultiplier|bcd_7seg_decoder:inst42|seven_seg0[4] ;
+--------------------+-----------+---------------+----------------------+------------------------+------------+----------------------------------------------------------------+


+------------------------------------------------------------------------------------------+
; Parameter Settings for User Entity Instance: multiplexer:inst9|lpm_mux:LPM_MUX_component ;
+------------------------+-------------+---------------------------------------------------+
; Parameter Name         ; Value       ; Type                                              ;
+------------------------+-------------+---------------------------------------------------+
; AUTO_CARRY_CHAINS      ; ON          ; AUTO_CARRY                                        ;
; IGNORE_CARRY_BUFFERS   ; OFF         ; IGNORE_CARRY                                      ;
; AUTO_CASCADE_CHAINS    ; ON          ; AUTO_CASCADE                                      ;
; IGNORE_CASCADE_BUFFERS ; OFF         ; IGNORE_CASCADE                                    ;
; LPM_WIDTH              ; 10          ; Signed Integer                                    ;
; LPM_SIZE               ; 2           ; Signed Integer                                    ;
; LPM_WIDTHS             ; 1           ; Signed Integer                                    ;
; LPM_PIPELINE           ; 0           ; Untyped                                           ;
; CBXI_PARAMETER         ; mux_erc     ; Untyped                                           ;
; DEVICE_FAMILY          ; Cyclone III ; Untyped                                           ;
+------------------------+-------------+---------------------------------------------------+
Note: In order to hide this table in the UI and the text report file, please set the "Show Parameter Settings in Synthesis Report" option in "Analysis and Synthesis Settings -> More Settings" to "Off".


+-------------------------------------------------------------------------------------------+
; Parameter Settings for User Entity Instance: multiplexer:inst13|lpm_mux:LPM_MUX_component ;
+------------------------+-------------+----------------------------------------------------+
; Parameter Name         ; Value       ; Type                                               ;
+------------------------+-------------+----------------------------------------------------+
; AUTO_CARRY_CHAINS      ; ON          ; AUTO_CARRY                                         ;
; IGNORE_CARRY_BUFFERS   ; OFF         ; IGNORE_CARRY                                       ;
; AUTO_CASCADE_CHAINS    ; ON          ; AUTO_CASCADE                                       ;
; IGNORE_CASCADE_BUFFERS ; OFF         ; IGNORE_CASCADE                                     ;
; LPM_WIDTH              ; 10          ; Signed Integer                                     ;
; LPM_SIZE               ; 2           ; Signed Integer                                     ;
; LPM_WIDTHS             ; 1           ; Signed Integer                                     ;
; LPM_PIPELINE           ; 0           ; Untyped                                            ;
; CBXI_PARAMETER         ; mux_erc     ; Untyped                                            ;
; DEVICE_FAMILY          ; Cyclone III ; Untyped                                            ;
+------------------------+-------------+----------------------------------------------------+
Note: In order to hide this table in the UI and the text report file, please set the "Show Parameter Settings in Synthesis Report" option in "Analysis and Synthesis Settings -> More Settings" to "Off".


+-------------------------------------------------------------------------------------------+
; Parameter Settings for User Entity Instance: multiplexer:inst18|lpm_mux:LPM_MUX_component ;
+------------------------+-------------+----------------------------------------------------+
; Parameter Name         ; Value       ; Type                                               ;
+------------------------+-------------+----------------------------------------------------+
; AUTO_CARRY_CHAINS      ; ON          ; AUTO_CARRY                                         ;
; IGNORE_CARRY_BUFFERS   ; OFF         ; IGNORE_CARRY                                       ;
; AUTO_CASCADE_CHAINS    ; ON          ; AUTO_CASCADE                                       ;
; IGNORE_CASCADE_BUFFERS ; OFF         ; IGNORE_CASCADE                                     ;
; LPM_WIDTH              ; 10          ; Signed Integer                                     ;
; LPM_SIZE               ; 2           ; Signed Integer                                     ;
; LPM_WIDTHS             ; 1           ; Signed Integer                                     ;
; LPM_PIPELINE           ; 0           ; Untyped                                            ;
; CBXI_PARAMETER         ; mux_erc     ; Untyped                                            ;
; DEVICE_FAMILY          ; Cyclone III ; Untyped                                            ;
+------------------------+-------------+----------------------------------------------------+
Note: In order to hide this table in the UI and the text report file, please set the "Show Parameter Settings in Synthesis Report" option in "Analysis and Synthesis Settings -> More Settings" to "Off".


+-------------------------------------------------------------------------------------------+
; Parameter Settings for User Entity Instance: multiplexer:inst26|lpm_mux:LPM_MUX_component ;
+------------------------+-------------+----------------------------------------------------+
; Parameter Name         ; Value       ; Type                                               ;
+------------------------+-------------+----------------------------------------------------+
; AUTO_CARRY_CHAINS      ; ON          ; AUTO_CARRY                                         ;
; IGNORE_CARRY_BUFFERS   ; OFF         ; IGNORE_CARRY                                       ;
; AUTO_CASCADE_CHAINS    ; ON          ; AUTO_CASCADE                                       ;
; IGNORE_CASCADE_BUFFERS ; OFF         ; IGNORE_CASCADE                                     ;
; LPM_WIDTH              ; 10          ; Signed Integer                                     ;
; LPM_SIZE               ; 2           ; Signed Integer                                     ;
; LPM_WIDTHS             ; 1           ; Signed Integer                                     ;
; LPM_PIPELINE           ; 0           ; Untyped                                            ;
; CBXI_PARAMETER         ; mux_erc     ; Untyped                                            ;
; DEVICE_FAMILY          ; Cyclone III ; Untyped                                            ;
+------------------------+-------------+----------------------------------------------------+
Note: In order to hide this table in the UI and the text report file, please set the "Show Parameter Settings in Synthesis Report" option in "Analysis and Synthesis Settings -> More Settings" to "Off".


+-------------------------------------------------------------------------------------------+
; Parameter Settings for User Entity Instance: multiplexer:inst33|lpm_mux:LPM_MUX_component ;
+------------------------+-------------+----------------------------------------------------+
; Parameter Name         ; Value       ; Type                                               ;
+------------------------+-------------+----------------------------------------------------+
; AUTO_CARRY_CHAINS      ; ON          ; AUTO_CARRY                                         ;
; IGNORE_CARRY_BUFFERS   ; OFF         ; IGNORE_CARRY                                       ;
; AUTO_CASCADE_CHAINS    ; ON          ; AUTO_CASCADE                                       ;
; IGNORE_CASCADE_BUFFERS ; OFF         ; IGNORE_CASCADE                                     ;
; LPM_WIDTH              ; 10          ; Signed Integer                                     ;
; LPM_SIZE               ; 2           ; Signed Integer                                     ;
; LPM_WIDTHS             ; 1           ; Signed Integer                                     ;
; LPM_PIPELINE           ; 0           ; Untyped                                            ;
; CBXI_PARAMETER         ; mux_erc     ; Untyped                                            ;
; DEVICE_FAMILY          ; Cyclone III ; Untyped                                            ;
+------------------------+-------------+----------------------------------------------------+
Note: In order to hide this table in the UI and the text report file, please set the "Show Parameter Settings in Synthesis Report" option in "Analysis and Synthesis Settings -> More Settings" to "Off".


+-------------------------------+
; Elapsed Time Per Partition    ;
+----------------+--------------+
; Partition Name ; Elapsed Time ;
+----------------+--------------+
; Top            ; 00:00:25     ;
+----------------+--------------+


+-------------------------------+
; Analysis & Synthesis Messages ;
+-------------------------------+
Info: *******************************************************************
Info: Running Quartus II 64-Bit Analysis & Synthesis
    Info: Version 13.1.0 Build 162 10/23/2013 SJ Web Edition
    Info: Processing started: Wed Mar 16 05:20:47 2016
Info: Command: quartus_map --read_settings_files=on --write_settings_files=off combinationalmultiplier -c combinationalmultiplier
Warning (20028): Parallel compilation is not licensed and has been disabled
Info (12021): Found 1 design units, including 1 entities, in source file 7sd.v
    Info (12023): Found entity 1: bcd_7seg_decoder
Info (12021): Found 1 design units, including 1 entities, in source file 10bitshift.bdf
    Info (12023): Found entity 1: 10bitshift
Info (12021): Found 1 design units, including 1 entities, in source file combinationalmultiplier.bdf
    Info (12023): Found entity 1: combinationalmultiplier
Info (12021): Found 1 design units, including 1 entities, in source file halfadder.bdf
    Info (12023): Found entity 1: halfadder
Info (12021): Found 1 design units, including 1 entities, in source file fulladder.bdf
    Info (12023): Found entity 1: fulladder
Info (12021): Found 1 design units, including 1 entities, in source file 5bitadder.bdf
    Info (12023): Found entity 1: 5bitadder
Info (12021): Found 1 design units, including 1 entities, in source file multiplexer.v
    Info (12023): Found entity 1: multiplexer
Info (12021): Found 1 design units, including 1 entities, in source file 5bitregister.bdf
    Info (12023): Found entity 1: 5bitregister
Info (12127): Elaborating entity "combinationalmultiplier" for the top level hierarchy
Info (12128): Elaborating entity "bcd_7seg_decoder" for hierarchy "bcd_7seg_decoder:inst42"
Warning (10240): Verilog HDL Always Construct warning at 7sd.v(4): inferring latch(es) for variable "seven_seg0", which holds its previous value in one or more paths through the always construct
Warning (10240): Verilog HDL Always Construct warning at 7sd.v(4): inferring latch(es) for variable "seven_seg1", which holds its previous value in one or more paths through the always construct
Warning (10240): Verilog HDL Always Construct warning at 7sd.v(4): inferring latch(es) for variable "seven_seg2", which holds its previous value in one or more paths through the always construct
Warning (10240): Verilog HDL Always Construct warning at 7sd.v(4): inferring latch(es) for variable "seven_seg3", which holds its previous value in one or more paths through the always construct
Info (10041): Inferred latch for "seven_seg3[0]" at 7sd.v(9)
Info (10041): Inferred latch for "seven_seg3[1]" at 7sd.v(9)
Info (10041): Inferred latch for "seven_seg3[2]" at 7sd.v(9)
Info (10041): Inferred latch for "seven_seg3[3]" at 7sd.v(9)
Info (10041): Inferred latch for "seven_seg3[4]" at 7sd.v(9)
Info (10041): Inferred latch for "seven_seg3[5]" at 7sd.v(9)
Info (10041): Inferred latch for "seven_seg3[6]" at 7sd.v(9)
Info (10041): Inferred latch for "seven_seg2[0]" at 7sd.v(9)
Info (10041): Inferred latch for "seven_seg2[1]" at 7sd.v(9)
Info (10041): Inferred latch for "seven_seg2[2]" at 7sd.v(9)
Info (10041): Inferred latch for "seven_seg2[3]" at 7sd.v(9)
Info (10041): Inferred latch for "seven_seg2[4]" at 7sd.v(9)
Info (10041): Inferred latch for "seven_seg2[5]" at 7sd.v(9)
Info (10041): Inferred latch for "seven_seg2[6]" at 7sd.v(9)
Info (10041): Inferred latch for "seven_seg1[0]" at 7sd.v(9)
Info (10041): Inferred latch for "seven_seg1[1]" at 7sd.v(9)
Info (10041): Inferred latch for "seven_seg1[2]" at 7sd.v(9)
Info (10041): Inferred latch for "seven_seg1[3]" at 7sd.v(9)
Info (10041): Inferred latch for "seven_seg1[4]" at 7sd.v(9)
Info (10041): Inferred latch for "seven_seg1[5]" at 7sd.v(9)
Info (10041): Inferred latch for "seven_seg1[6]" at 7sd.v(9)
Info (10041): Inferred latch for "seven_seg0[0]" at 7sd.v(9)
Info (10041): Inferred latch for "seven_seg0[1]" at 7sd.v(9)
Info (10041): Inferred latch for "seven_seg0[2]" at 7sd.v(9)
Info (10041): Inferred latch for "seven_seg0[3]" at 7sd.v(9)
Info (10041): Inferred latch for "seven_seg0[4]" at 7sd.v(9)
Info (10041): Inferred latch for "seven_seg0[5]" at 7sd.v(9)
Info (10041): Inferred latch for "seven_seg0[6]" at 7sd.v(9)
Info (12128): Elaborating entity "5bitregister" for hierarchy "5bitregister:inst38"
Info (12128): Elaborating entity "5bitadder" for hierarchy "5bitadder:inst32"
Info (12128): Elaborating entity "fulladder" for hierarchy "5bitadder:inst32|fulladder:inst"
Info (12128): Elaborating entity "halfadder" for hierarchy "5bitadder:inst32|fulladder:inst|halfadder:inst1"
Info (12128): Elaborating entity "10bitshift" for hierarchy "10bitshift:inst31"
Warning (275011): Block or symbol "WIRE" of instance "inst1" overlaps another block or symbol
Warning (275011): Block or symbol "WIRE" of instance "inst3" overlaps another block or symbol
Warning (275011): Block or symbol "WIRE" of instance "inst5" overlaps another block or symbol
Warning (275011): Block or symbol "WIRE" of instance "inst7" overlaps another block or symbol
Warning (275011): Block or symbol "WIRE" of instance "inst9" overlaps another block or symbol
Info (12128): Elaborating entity "multiplexer" for hierarchy "multiplexer:inst9"
Info (12128): Elaborating entity "lpm_mux" for hierarchy "multiplexer:inst9|lpm_mux:LPM_MUX_component"
Info (12130): Elaborated megafunction instantiation "multiplexer:inst9|lpm_mux:LPM_MUX_component"
Info (12133): Instantiated megafunction "multiplexer:inst9|lpm_mux:LPM_MUX_component" with the following parameter:
    Info (12134): Parameter "lpm_size" = "2"
    Info (12134): Parameter "lpm_type" = "LPM_MUX"
    Info (12134): Parameter "lpm_width" = "10"
    Info (12134): Parameter "lpm_widths" = "1"
Info (12021): Found 1 design units, including 1 entities, in source file db/mux_erc.tdf
    Info (12023): Found entity 1: mux_erc
Info (12128): Elaborating entity "mux_erc" for hierarchy "multiplexer:inst9|lpm_mux:LPM_MUX_component|mux_erc:auto_generated"
Warning (13024): Output pins are stuck at VCC or GND
    Warning (13410): Pin "D3[6]" is stuck at VCC
    Warning (13410): Pin "D3[5]" is stuck at VCC
    Warning (13410): Pin "D3[4]" is stuck at VCC
    Warning (13410): Pin "D3[3]" is stuck at VCC
    Warning (13410): Pin "D3[0]" is stuck at VCC
Info (286030): Timing-Driven Synthesis is running
Info (16010): Generating hard_block partition "hard_block:auto_generated_inst"
    Info (16011): Adding 0 node(s), including 0 DDIO, 0 PLL, 0 transceiver and 0 LCELL
Info (21057): Implemented 638 device resources after synthesis - the final resource count might be different
    Info (21058): Implemented 11 input pins
    Info (21059): Implemented 38 output pins
    Info (21061): Implemented 589 logic cells
Info: Quartus II 64-Bit Analysis & Synthesis was successful. 0 errors, 16 warnings
    Info: Peak virtual memory: 536 megabytes
    Info: Processing ended: Wed Mar 16 05:21:17 2016
    Info: Elapsed time: 00:00:30
    Info: Total CPU time (on all processors): 00:00:30


