-- Catapult Block Level Synthesis: Report                                              
-- ------------------------------- ---------------------------------------------------
-- Version:                        2010a.198 Production Release                        
-- Build Date:                     Tue Nov  2 16:03:18 PST 2010                        
                                                                                       
-- Generated by:                   Valentin@THINKPAD                                   
-- Generated date:                 Fri May 13 11:42:23 +0100 2016                      

Solution Settings: vga_mouse_square.v8
  Current state: schedule
  Project: processing_final_1
  
  Design Input Files Specified
    $PROJECT_HOME/ip/vga_mouse_square.c
      $MGC_HOME/shared/include/ac_int.h
        $MGC_HOME/shared/include/assert.h
          $MGC_HOME/shared/include/_mingw.h
      $MGC_HOME/shared/include/ac_fixed.h
  
  Processes/Blocks in Design
    Process                Real Operation(s) count Latency Throughput Reset Length II Comments 
    ---------------------- ----------------------- ------- ---------- ------------ -- --------
    /vga_mouse_square/core                     911      11          1            0  1        ? 
    Design Total:                              911      11          1            0  1          
    
  Clock Information
    Clock Signal Edge   Period Sharing Alloc (%) Used by Processes/Blocks 
    ------------ ------ ------ ----------------- ------------------------
    clk          rising 37.037             20.00 /vga_mouse_square/core   
    
  I/O Data Ranges
    Port                   Mode DeclType DeclWidth DeclRange ActType ActWidth ActRange 
    ---------------------- ---- -------- --------- --------- ------- -------- --------
    vga_xy:rsc.z           IN   Unsigned        20                                     
    mouse_xy:rsc.z         IN   Unsigned        20                                     
    video_in:rsc.z         IN   Unsigned        30                                     
    levels_in:rsc.z        IN   Unsigned         5                                     
    last_xy_input:rsc.z    IN   Unsigned        20                                     
    onTrack_input:rsc.z    IN   Unsigned         1                                     
    lastLight_input:rsc.z  IN   Unsigned        10                                     
    sw_zero:rsc.z          IN   Unsigned         1                                     
    sw_one:rsc.z           IN   Unsigned         1                                     
    sw_two:rsc.z           IN   Unsigned         1                                     
    history:rsc.z          IN   Unsigned         1                                     
    clk                    IN   Unsigned         1                                     
    en                     IN   Unsigned         1                                     
    arst_n                 IN   Unsigned         1                                     
    video_out:rsc.z        OUT  Unsigned        30                                     
    levelz_out:rsc.z       OUT  Unsigned         5                                     
    last_xy_output:rsc.z   OUT  Unsigned        20                                     
    onTrack_output:rsc.z   OUT  Unsigned         1                                     
    lastLight_output:rsc.z OUT  Unsigned        10                                     
    level_pulse:rsc.z      OUT  Unsigned         1                                     
    
  Memory Resources
    Resource Name: /vga_mouse_square/vga_xy:rsc
      Memory Component: mgc_in_wire                  Size:         1 x 20
      External:         true                         Packing Mode: sidebyside
      Memory Map:
      Variable                 Indices Phys Memory Address     
      ------------------------ ------- -----------------------
      /vga_mouse_square/vga_xy    0:19 00000000-00000000 (0-0) 
      
    Resource Name: /vga_mouse_square/mouse_xy:rsc
      Memory Component: mgc_in_wire                  Size:         1 x 20
      External:         true                         Packing Mode: sidebyside
      Memory Map:
      Variable                   Indices Phys Memory Address     
      -------------------------- ------- -----------------------
      /vga_mouse_square/mouse_xy    0:19 00000000-00000000 (0-0) 
      
    Resource Name: /vga_mouse_square/cursor_size:rsc
      Memory Component: mgc_in_wire                  Size:         1 x 8
      External:         true                         Packing Mode: sidebyside
      Memory Map:
      Variable                      Indices Phys Memory Address     
      ----------------------------- ------- -----------------------
      /vga_mouse_square/cursor_size     0:7 00000000-00000000 (0-0) 
      
    Resource Name: /vga_mouse_square/video_in:rsc
      Memory Component: mgc_in_wire                  Size:         1 x 30
      External:         true                         Packing Mode: sidebyside
      Memory Map:
      Variable                   Indices Phys Memory Address     
      -------------------------- ------- -----------------------
      /vga_mouse_square/video_in    0:29 00000000-00000000 (0-0) 
      
    Resource Name: /vga_mouse_square/video_out:rsc
      Memory Component: mgc_out_stdreg               Size:         1 x 30
      External:         true                         Packing Mode: sidebyside
      Memory Map:
      Variable                    Indices Phys Memory Address     
      --------------------------- ------- -----------------------
      /vga_mouse_square/video_out    0:29 00000000-00000000 (0-0) 
      
    Resource Name: /vga_mouse_square/levels_in:rsc
      Memory Component: mgc_in_wire                  Size:         1 x 5
      External:         true                         Packing Mode: sidebyside
      Memory Map:
      Variable                    Indices Phys Memory Address     
      --------------------------- ------- -----------------------
      /vga_mouse_square/levels_in     0:4 00000000-00000000 (0-0) 
      
    Resource Name: /vga_mouse_square/levelz_out:rsc
      Memory Component: mgc_out_stdreg               Size:         1 x 5
      External:         true                         Packing Mode: sidebyside
      Memory Map:
      Variable                     Indices Phys Memory Address     
      ---------------------------- ------- -----------------------
      /vga_mouse_square/levelz_out     0:4 00000000-00000000 (0-0) 
      
    Resource Name: /vga_mouse_square/last_xy_input:rsc
      Memory Component: mgc_in_wire                  Size:         1 x 20
      External:         true                         Packing Mode: sidebyside
      Memory Map:
      Variable                        Indices Phys Memory Address     
      ------------------------------- ------- -----------------------
      /vga_mouse_square/last_xy_input    0:19 00000000-00000000 (0-0) 
      
    Resource Name: /vga_mouse_square/last_xy_output:rsc
      Memory Component: mgc_out_stdreg               Size:         1 x 20
      External:         true                         Packing Mode: sidebyside
      Memory Map:
      Variable                         Indices Phys Memory Address     
      -------------------------------- ------- -----------------------
      /vga_mouse_square/last_xy_output    0:19 00000000-00000000 (0-0) 
      
    Resource Name: /vga_mouse_square/onTrack_input:rsc
      Memory Component: mgc_in_wire                  Size:         1 x 1
      External:         true                         Packing Mode: sidebyside
      Memory Map:
      Variable                        Indices Phys Memory Address     
      ------------------------------- ------- -----------------------
      /vga_mouse_square/onTrack_input     0:0 00000000-00000000 (0-0) 
      
    Resource Name: /vga_mouse_square/onTrack_output:rsc
      Memory Component: mgc_out_stdreg               Size:         1 x 1
      External:         true                         Packing Mode: sidebyside
      Memory Map:
      Variable                         Indices Phys Memory Address     
      -------------------------------- ------- -----------------------
      /vga_mouse_square/onTrack_output     0:0 00000000-00000000 (0-0) 
      
    Resource Name: /vga_mouse_square/lastLight_input:rsc
      Memory Component: mgc_in_wire                  Size:         1 x 10
      External:         true                         Packing Mode: sidebyside
      Memory Map:
      Variable                          Indices Phys Memory Address     
      --------------------------------- ------- -----------------------
      /vga_mouse_square/lastLight_input     0:9 00000000-00000000 (0-0) 
      
    Resource Name: /vga_mouse_square/lastLight_output:rsc
      Memory Component: mgc_out_stdreg               Size:         1 x 10
      External:         true                         Packing Mode: sidebyside
      Memory Map:
      Variable                           Indices Phys Memory Address     
      ---------------------------------- ------- -----------------------
      /vga_mouse_square/lastLight_output     0:9 00000000-00000000 (0-0) 
      
    Resource Name: /vga_mouse_square/sw_zero:rsc
      Memory Component: mgc_in_wire                  Size:         1 x 1
      External:         true                         Packing Mode: sidebyside
      Memory Map:
      Variable                  Indices Phys Memory Address     
      ------------------------- ------- -----------------------
      /vga_mouse_square/sw_zero     0:0 00000000-00000000 (0-0) 
      
    Resource Name: /vga_mouse_square/sw_one:rsc
      Memory Component: mgc_in_wire                  Size:         1 x 1
      External:         true                         Packing Mode: sidebyside
      Memory Map:
      Variable                 Indices Phys Memory Address     
      ------------------------ ------- -----------------------
      /vga_mouse_square/sw_one     0:0 00000000-00000000 (0-0) 
      
    Resource Name: /vga_mouse_square/sw_two:rsc
      Memory Component: mgc_in_wire                  Size:         1 x 1
      External:         true                         Packing Mode: sidebyside
      Memory Map:
      Variable                 Indices Phys Memory Address     
      ------------------------ ------- -----------------------
      /vga_mouse_square/sw_two     0:0 00000000-00000000 (0-0) 
      
    Resource Name: /vga_mouse_square/level_pulse:rsc
      Memory Component: mgc_out_stdreg               Size:         1 x 1
      External:         true                         Packing Mode: sidebyside
      Memory Map:
      Variable                      Indices Phys Memory Address     
      ----------------------------- ------- -----------------------
      /vga_mouse_square/level_pulse     0:0 00000000-00000000 (0-0) 
      
    Resource Name: /vga_mouse_square/history:rsc
      Memory Component: mgc_in_wire                  Size:         1 x 1
      External:         true                         Packing Mode: sidebyside
      Memory Map:
      Variable                  Indices Phys Memory Address     
      ------------------------- ------- -----------------------
      /vga_mouse_square/history     0:0 00000000-00000000 (0-0) 
      
  Multi-Cycle (Combinational) Component Usage
    Instance Component Name Delay 
    -------- -------------- -----
    
  Loops
    Process                Loop             Iterations C-Steps Total Cycles   Duration  Unroll Init Comments 
    ---------------------- ---------------- ---------- ------- ------------- ---------- ------ ---- --------
    /vga_mouse_square/core main               Infinite      12         11 ?  407.41 ns            1          
    
  Loop Execution Profile
    Process                Loop             Total Cycles % of Overall Design Cycles Throughput Cycles Comments 
    ---------------------- ---------------- ------------ -------------------------- ----------------- --------
    /vga_mouse_square/core main                    11 ?                      100.00              1 ?           
    
  End of Report
