Analysis & Synthesis report for stopwatch
Thu Mar 17 23:33:30 2016
Quartus II 64-Bit Version 13.1.0 Build 162 10/23/2013 SJ Web Edition


---------------------
; Table of Contents ;
---------------------
  1. Legal Notice
  2. Analysis & Synthesis Summary
  3. Analysis & Synthesis Settings
  4. Parallel Compilation
  5. Analysis & Synthesis Source Files Read
  6. Analysis & Synthesis Resource Usage Summary
  7. Analysis & Synthesis Resource Utilization by Entity
  8. Analysis & Synthesis IP Cores Summary
  9. User-Specified and Inferred Latches
 10. General Register Statistics
 11. Multiplexer Restructuring Statistics (Restructuring Performed)
 12. Elapsed Time Per Partition
 13. Analysis & Synthesis Messages



----------------
; Legal Notice ;
----------------
Copyright (C) 1991-2013 Altera Corporation
Your use of Altera Corporation's design tools, logic functions 
and other software and tools, and its AMPP partner logic 
functions, and any output files from any of the foregoing 
(including device programming or simulation files), and any 
associated documentation or information are expressly subject 
to the terms and conditions of the Altera Program License 
Subscription Agreement, Altera MegaCore Function License 
Agreement, or other applicable license agreement, including, 
without limitation, that your use is for the sole purpose of 
programming logic devices manufactured by Altera and sold by 
Altera or its authorized distributors.  Please refer to the 
applicable agreement for further details.



+---------------------------------------------------------------------------------+
; Analysis & Synthesis Summary                                                    ;
+------------------------------------+--------------------------------------------+
; Analysis & Synthesis Status        ; Successful - Thu Mar 17 23:33:30 2016      ;
; Quartus II 64-Bit Version          ; 13.1.0 Build 162 10/23/2013 SJ Web Edition ;
; Revision Name                      ; stopwatch                                  ;
; Top-level Entity Name              ; stopwatch                                  ;
; Family                             ; Cyclone III                                ;
; Total logic elements               ; 155                                        ;
;     Total combinational functions  ; 149                                        ;
;     Dedicated logic registers      ; 49                                         ;
; Total registers                    ; 49                                         ;
; Total pins                         ; 32                                         ;
; Total virtual pins                 ; 0                                          ;
; Total memory bits                  ; 0                                          ;
; Embedded Multiplier 9-bit elements ; 0                                          ;
; Total PLLs                         ; 0                                          ;
+------------------------------------+--------------------------------------------+


+----------------------------------------------------------------------------------------------------------------------+
; Analysis & Synthesis Settings                                                                                        ;
+----------------------------------------------------------------------------+--------------------+--------------------+
; Option                                                                     ; Setting            ; Default Value      ;
+----------------------------------------------------------------------------+--------------------+--------------------+
; Device                                                                     ; EP3C16F484C6       ;                    ;
; Top-level entity name                                                      ; stopwatch          ; stopwatch          ;
; Family name                                                                ; Cyclone III        ; Cyclone IV GX      ;
; Use smart compilation                                                      ; Off                ; Off                ;
; Enable parallel Assembler and TimeQuest Timing Analyzer during compilation ; On                 ; On                 ;
; Enable compact report table                                                ; Off                ; Off                ;
; Restructure Multiplexers                                                   ; Auto               ; Auto               ;
; Create Debugging Nodes for IP Cores                                        ; Off                ; Off                ;
; Preserve fewer node names                                                  ; On                 ; On                 ;
; Disable OpenCore Plus hardware evaluation                                  ; Off                ; Off                ;
; Verilog Version                                                            ; Verilog_2001       ; Verilog_2001       ;
; VHDL Version                                                               ; VHDL_1993          ; VHDL_1993          ;
; State Machine Processing                                                   ; Auto               ; Auto               ;
; Safe State Machine                                                         ; Off                ; Off                ;
; Extract Verilog State Machines                                             ; On                 ; On                 ;
; Extract VHDL State Machines                                                ; On                 ; On                 ;
; Ignore Verilog initial constructs                                          ; Off                ; Off                ;
; Iteration limit for constant Verilog loops                                 ; 5000               ; 5000               ;
; Iteration limit for non-constant Verilog loops                             ; 250                ; 250                ;
; Add Pass-Through Logic to Inferred RAMs                                    ; On                 ; On                 ;
; Infer RAMs from Raw Logic                                                  ; On                 ; On                 ;
; Parallel Synthesis                                                         ; On                 ; On                 ;
; DSP Block Balancing                                                        ; Auto               ; Auto               ;
; NOT Gate Push-Back                                                         ; On                 ; On                 ;
; Power-Up Don't Care                                                        ; On                 ; On                 ;
; Remove Redundant Logic Cells                                               ; Off                ; Off                ;
; Remove Duplicate Registers                                                 ; On                 ; On                 ;
; Ignore CARRY Buffers                                                       ; Off                ; Off                ;
; Ignore CASCADE Buffers                                                     ; Off                ; Off                ;
; Ignore GLOBAL Buffers                                                      ; Off                ; Off                ;
; Ignore ROW GLOBAL Buffers                                                  ; Off                ; Off                ;
; Ignore LCELL Buffers                                                       ; Off                ; Off                ;
; Ignore SOFT Buffers                                                        ; On                 ; On                 ;
; Limit AHDL Integers to 32 Bits                                             ; Off                ; Off                ;
; Optimization Technique                                                     ; Balanced           ; Balanced           ;
; Carry Chain Length                                                         ; 70                 ; 70                 ;
; Auto Carry Chains                                                          ; On                 ; On                 ;
; Auto Open-Drain Pins                                                       ; On                 ; On                 ;
; Perform WYSIWYG Primitive Resynthesis                                      ; Off                ; Off                ;
; Auto ROM Replacement                                                       ; On                 ; On                 ;
; Auto RAM Replacement                                                       ; On                 ; On                 ;
; Auto DSP Block Replacement                                                 ; On                 ; On                 ;
; Auto Shift Register Replacement                                            ; Auto               ; Auto               ;
; Allow Shift Register Merging across Hierarchies                            ; Auto               ; Auto               ;
; Auto Clock Enable Replacement                                              ; On                 ; On                 ;
; Strict RAM Replacement                                                     ; Off                ; Off                ;
; Allow Synchronous Control Signals                                          ; On                 ; On                 ;
; Force Use of Synchronous Clear Signals                                     ; Off                ; Off                ;
; Auto RAM Block Balancing                                                   ; On                 ; On                 ;
; Auto RAM to Logic Cell Conversion                                          ; Off                ; Off                ;
; Auto Resource Sharing                                                      ; Off                ; Off                ;
; Allow Any RAM Size For Recognition                                         ; Off                ; Off                ;
; Allow Any ROM Size For Recognition                                         ; Off                ; Off                ;
; Allow Any Shift Register Size For Recognition                              ; Off                ; Off                ;
; Use LogicLock Constraints during Resource Balancing                        ; On                 ; On                 ;
; Ignore translate_off and synthesis_off directives                          ; Off                ; Off                ;
; Timing-Driven Synthesis                                                    ; On                 ; On                 ;
; Report Parameter Settings                                                  ; On                 ; On                 ;
; Report Source Assignments                                                  ; On                 ; On                 ;
; Report Connectivity Checks                                                 ; On                 ; On                 ;
; Ignore Maximum Fan-Out Assignments                                         ; Off                ; Off                ;
; Synchronization Register Chain Length                                      ; 2                  ; 2                  ;
; PowerPlay Power Optimization                                               ; Normal compilation ; Normal compilation ;
; HDL message level                                                          ; Level2             ; Level2             ;
; Suppress Register Optimization Related Messages                            ; Off                ; Off                ;
; Number of Removed Registers Reported in Synthesis Report                   ; 5000               ; 5000               ;
; Number of Swept Nodes Reported in Synthesis Report                         ; 5000               ; 5000               ;
; Number of Inverted Registers Reported in Synthesis Report                  ; 100                ; 100                ;
; Clock MUX Protection                                                       ; On                 ; On                 ;
; Auto Gated Clock Conversion                                                ; Off                ; Off                ;
; Block Design Naming                                                        ; Auto               ; Auto               ;
; SDC constraint protection                                                  ; Off                ; Off                ;
; Synthesis Effort                                                           ; Auto               ; Auto               ;
; Shift Register Replacement - Allow Asynchronous Clear Signal               ; On                 ; On                 ;
; Pre-Mapping Resynthesis Optimization                                       ; Off                ; Off                ;
; Analysis & Synthesis Message Level                                         ; Medium             ; Medium             ;
; Disable Register Merging Across Hierarchies                                ; Auto               ; Auto               ;
; Resource Aware Inference For Block RAM                                     ; On                 ; On                 ;
; Synthesis Seed                                                             ; 1                  ; 1                  ;
+----------------------------------------------------------------------------+--------------------+--------------------+


Parallel compilation was disabled, but you have multiple processors available. Enable parallel compilation to reduce compilation time.
+-------------------------------------+
; Parallel Compilation                ;
+----------------------------+--------+
; Processors                 ; Number ;
+----------------------------+--------+
; Number detected on machine ; 8      ;
; Maximum allowed            ; 1      ;
+----------------------------+--------+


+----------------------------------------------------------------------------------------------------------------------------------------------------------------------------+
; Analysis & Synthesis Source Files Read                                                                                                                                     ;
+----------------------------------+-----------------+------------------------------------+------------------------------------------------------------------------+---------+
; File Name with User-Entered Path ; Used in Netlist ; File Type                          ; File Name with Absolute Path                                           ; Library ;
+----------------------------------+-----------------+------------------------------------+------------------------------------------------------------------------+---------+
; 5clockdivider.bdf                ; yes             ; User Block Diagram/Schematic File  ; D:/Valentin/Documente/FPGA/fpga/stopwatch_working/5clockdivider.bdf    ;         ;
; stopwatch.bdf                    ; yes             ; User Block Diagram/Schematic File  ; D:/Valentin/Documente/FPGA/fpga/stopwatch_working/stopwatch.bdf        ;         ;
; binarydivider.bdf                ; yes             ; User Block Diagram/Schematic File  ; D:/Valentin/Documente/FPGA/fpga/stopwatch_working/binarydivider.bdf    ;         ;
; 7sdcounter.v                     ; yes             ; User Verilog HDL File              ; D:/Valentin/Documente/FPGA/fpga/stopwatch_working/7sdcounter.v         ;         ;
; altctrlclk.v                     ; yes             ; User Wizard-Generated File         ; D:/Valentin/Documente/FPGA/fpga/stopwatch_working/altctrlclk.v         ;         ;
; 4bitupcounterV.v                 ; yes             ; User Verilog HDL File              ; D:/Valentin/Documente/FPGA/fpga/stopwatch_working/4bitupcounterV.v     ;         ;
; 9999upcounter.bdf                ; yes             ; User Block Diagram/Schematic File  ; D:/Valentin/Documente/FPGA/fpga/stopwatch_working/9999upcounter.bdf    ;         ;
; frequencyreducer.bdf             ; yes             ; User Block Diagram/Schematic File  ; D:/Valentin/Documente/FPGA/fpga/stopwatch_working/frequencyreducer.bdf ;         ;
+----------------------------------+-----------------+------------------------------------+------------------------------------------------------------------------+---------+


+-------------------------------------------------------------+
; Analysis & Synthesis Resource Usage Summary                 ;
+---------------------------------------------+---------------+
; Resource                                    ; Usage         ;
+---------------------------------------------+---------------+
; Estimated Total logic elements              ; 155           ;
;                                             ;               ;
; Total combinational functions               ; 149           ;
; Logic element usage by number of LUT inputs ;               ;
;     -- 4 input functions                    ; 71            ;
;     -- 3 input functions                    ; 49            ;
;     -- <=2 input functions                  ; 29            ;
;                                             ;               ;
; Logic elements by mode                      ;               ;
;     -- normal mode                          ; 149           ;
;     -- arithmetic mode                      ; 0             ;
;                                             ;               ;
; Total registers                             ; 49            ;
;     -- Dedicated logic registers            ; 49            ;
;     -- I/O registers                        ; 0             ;
;                                             ;               ;
; I/O pins                                    ; 32            ;
; Embedded Multiplier 9-bit elements          ; 0             ;
; Maximum fan-out node                        ; BUTTON0~input ;
; Maximum fan-out                             ; 19            ;
; Total fan-out                               ; 662           ;
; Average fan-out                             ; 2.52          ;
+---------------------------------------------+---------------+


+------------------------------------------------------------------------------------------------------------------------------------------------------------------------------------------------------------------------------------------------------------------------------------------------------------------------+
; Analysis & Synthesis Resource Utilization by Entity                                                                                                                                                                                                                                                                    ;
+--------------------------------------------------------------------------+-------------------+--------------+-------------+--------------+---------+-----------+------+--------------+------------------------------------------------------------------------------------------------------------------+--------------+
; Compilation Hierarchy Node                                               ; LC Combinationals ; LC Registers ; Memory Bits ; DSP Elements ; DSP 9x9 ; DSP 18x18 ; Pins ; Virtual Pins ; Full Hierarchy Name                                                                                              ; Library Name ;
+--------------------------------------------------------------------------+-------------------+--------------+-------------+--------------+---------+-----------+------+--------------+------------------------------------------------------------------------------------------------------------------+--------------+
; |stopwatch                                                               ; 149 (18)          ; 49 (1)       ; 0           ; 0            ; 0       ; 0         ; 32   ; 0            ; |stopwatch                                                                                                       ; work         ;
;    |9999upcounter:inst15|                                                ; 19 (0)            ; 19 (0)       ; 0           ; 0            ; 0       ; 0         ; 0    ; 0            ; |stopwatch|9999upcounter:inst15                                                                                  ; work         ;
;       |V4bitupcounterV:inst1|                                            ; 5 (5)             ; 5 (5)        ; 0           ; 0            ; 0       ; 0         ; 0    ; 0            ; |stopwatch|9999upcounter:inst15|V4bitupcounterV:inst1                                                            ; work         ;
;       |V4bitupcounterV:inst2|                                            ; 5 (5)             ; 5 (5)        ; 0           ; 0            ; 0       ; 0         ; 0    ; 0            ; |stopwatch|9999upcounter:inst15|V4bitupcounterV:inst2                                                            ; work         ;
;       |V4bitupcounterV:inst3|                                            ; 4 (4)             ; 4 (4)        ; 0           ; 0            ; 0       ; 0         ; 0    ; 0            ; |stopwatch|9999upcounter:inst15|V4bitupcounterV:inst3                                                            ; work         ;
;       |V4bitupcounterV:inst|                                             ; 5 (5)             ; 5 (5)        ; 0           ; 0            ; 0       ; 0         ; 0    ; 0            ; |stopwatch|9999upcounter:inst15|V4bitupcounterV:inst                                                             ; work         ;
;    |bcd_7seg_decoder:inst14|                                             ; 21 (21)           ; 0 (0)        ; 0           ; 0            ; 0       ; 0         ; 0    ; 0            ; |stopwatch|bcd_7seg_decoder:inst14                                                                               ; work         ;
;    |bcd_7seg_decoder:inst21|                                             ; 21 (21)           ; 0 (0)        ; 0           ; 0            ; 0       ; 0         ; 0    ; 0            ; |stopwatch|bcd_7seg_decoder:inst21                                                                               ; work         ;
;    |bcd_7seg_decoder:inst22|                                             ; 21 (21)           ; 0 (0)        ; 0           ; 0            ; 0       ; 0         ; 0    ; 0            ; |stopwatch|bcd_7seg_decoder:inst22                                                                               ; work         ;
;    |bcd_7seg_decoder:inst23|                                             ; 21 (21)           ; 0 (0)        ; 0           ; 0            ; 0       ; 0         ; 0    ; 0            ; |stopwatch|bcd_7seg_decoder:inst23                                                                               ; work         ;
;    |frequencyreducer:inst|                                               ; 28 (0)            ; 29 (0)       ; 0           ; 0            ; 0       ; 0         ; 0    ; 0            ; |stopwatch|frequencyreducer:inst                                                                                 ; work         ;
;       |5clockdivider:inst10|                                             ; 3 (3)             ; 4 (4)        ; 0           ; 0            ; 0       ; 0         ; 0    ; 0            ; |stopwatch|frequencyreducer:inst|5clockdivider:inst10                                                            ; work         ;
;       |5clockdivider:inst1|                                              ; 4 (4)             ; 4 (4)        ; 0           ; 0            ; 0       ; 0         ; 0    ; 0            ; |stopwatch|frequencyreducer:inst|5clockdivider:inst1                                                             ; work         ;
;       |5clockdivider:inst6|                                              ; 4 (4)             ; 4 (4)        ; 0           ; 0            ; 0       ; 0         ; 0    ; 0            ; |stopwatch|frequencyreducer:inst|5clockdivider:inst6                                                             ; work         ;
;       |5clockdivider:inst7|                                              ; 4 (4)             ; 4 (4)        ; 0           ; 0            ; 0       ; 0         ; 0    ; 0            ; |stopwatch|frequencyreducer:inst|5clockdivider:inst7                                                             ; work         ;
;       |5clockdivider:inst8|                                              ; 4 (4)             ; 4 (4)        ; 0           ; 0            ; 0       ; 0         ; 0    ; 0            ; |stopwatch|frequencyreducer:inst|5clockdivider:inst8                                                             ; work         ;
;       |5clockdivider:inst9|                                              ; 4 (4)             ; 4 (4)        ; 0           ; 0            ; 0       ; 0         ; 0    ; 0            ; |stopwatch|frequencyreducer:inst|5clockdivider:inst9                                                             ; work         ;
;       |altctrlclk:inst13|                                                ; 0 (0)             ; 0 (0)        ; 0           ; 0            ; 0       ; 0         ; 0    ; 0            ; |stopwatch|frequencyreducer:inst|altctrlclk:inst13                                                               ; work         ;
;          |altctrlclk_altclkctrl_uhi:altctrlclk_altclkctrl_uhi_component| ; 0 (0)             ; 0 (0)        ; 0           ; 0            ; 0       ; 0         ; 0    ; 0            ; |stopwatch|frequencyreducer:inst|altctrlclk:inst13|altctrlclk_altclkctrl_uhi:altctrlclk_altclkctrl_uhi_component ; work         ;
;       |binarydivider:inst2|                                              ; 1 (1)             ; 1 (1)        ; 0           ; 0            ; 0       ; 0         ; 0    ; 0            ; |stopwatch|frequencyreducer:inst|binarydivider:inst2                                                             ; work         ;
;       |binarydivider:inst3|                                              ; 1 (1)             ; 1 (1)        ; 0           ; 0            ; 0       ; 0         ; 0    ; 0            ; |stopwatch|frequencyreducer:inst|binarydivider:inst3                                                             ; work         ;
;       |binarydivider:inst4|                                              ; 1 (1)             ; 1 (1)        ; 0           ; 0            ; 0       ; 0         ; 0    ; 0            ; |stopwatch|frequencyreducer:inst|binarydivider:inst4                                                             ; work         ;
;       |binarydivider:inst5|                                              ; 1 (1)             ; 1 (1)        ; 0           ; 0            ; 0       ; 0         ; 0    ; 0            ; |stopwatch|frequencyreducer:inst|binarydivider:inst5                                                             ; work         ;
;       |binarydivider:inst|                                               ; 1 (1)             ; 1 (1)        ; 0           ; 0            ; 0       ; 0         ; 0    ; 0            ; |stopwatch|frequencyreducer:inst|binarydivider:inst                                                              ; work         ;
+--------------------------------------------------------------------------+-------------------+--------------+-------------+--------------+---------+-----------+------+--------------+------------------------------------------------------------------------------------------------------------------+--------------+
Note: For table entries with two numbers listed, the numbers in parentheses indicate the number of resources of the given type used by the specific entity alone. The numbers listed outside of parentheses indicate the total resources of the given type used by the specific entity and all of its sub-entities in the hierarchy.


+-------------------------------------------------------------------------------------------------------------------------------------------------------------------------------------+
; Analysis & Synthesis IP Cores Summary                                                                                                                                               ;
+--------+--------------+---------+--------------+--------------+----------------------------------------------------+----------------------------------------------------------------+
; Vendor ; IP Core Name ; Version ; Release Date ; License Type ; Entity Instance                                    ; IP Include File                                                ;
+--------+--------------+---------+--------------+--------------+----------------------------------------------------+----------------------------------------------------------------+
; Altera ; ALTCLKCTRL   ; 13.1    ; N/A          ; N/A          ; |stopwatch|frequencyreducer:inst|altctrlclk:inst13 ; D:/Valentin/Documente/FPGA/fpga/stopwatch_working/altctrlclk.v ;
+--------+--------------+---------+--------------+--------------+----------------------------------------------------+----------------------------------------------------------------+


+----------------------------------------------------------------------------------------------------+
; User-Specified and Inferred Latches                                                                ;
+-----------------------------------------------------+---------------------+------------------------+
; Latch Name                                          ; Latch Enable Signal ; Free of Timing Hazards ;
+-----------------------------------------------------+---------------------+------------------------+
; bcd_7seg_decoder:inst14|seven_seg0[6]               ; GND                 ; yes                    ;
; bcd_7seg_decoder:inst14|seven_seg0[5]               ; GND                 ; yes                    ;
; bcd_7seg_decoder:inst14|seven_seg0[4]               ; GND                 ; yes                    ;
; bcd_7seg_decoder:inst14|seven_seg0[3]               ; GND                 ; yes                    ;
; bcd_7seg_decoder:inst14|seven_seg0[2]               ; GND                 ; yes                    ;
; bcd_7seg_decoder:inst14|seven_seg0[1]               ; GND                 ; yes                    ;
; bcd_7seg_decoder:inst14|seven_seg0[0]               ; GND                 ; yes                    ;
; bcd_7seg_decoder:inst21|seven_seg0[6]               ; GND                 ; yes                    ;
; bcd_7seg_decoder:inst21|seven_seg0[5]               ; GND                 ; yes                    ;
; bcd_7seg_decoder:inst21|seven_seg0[4]               ; GND                 ; yes                    ;
; bcd_7seg_decoder:inst21|seven_seg0[3]               ; GND                 ; yes                    ;
; bcd_7seg_decoder:inst21|seven_seg0[2]               ; GND                 ; yes                    ;
; bcd_7seg_decoder:inst21|seven_seg0[1]               ; GND                 ; yes                    ;
; bcd_7seg_decoder:inst21|seven_seg0[0]               ; GND                 ; yes                    ;
; bcd_7seg_decoder:inst22|seven_seg0[6]               ; GND                 ; yes                    ;
; bcd_7seg_decoder:inst22|seven_seg0[5]               ; GND                 ; yes                    ;
; bcd_7seg_decoder:inst22|seven_seg0[4]               ; GND                 ; yes                    ;
; bcd_7seg_decoder:inst22|seven_seg0[3]               ; GND                 ; yes                    ;
; bcd_7seg_decoder:inst22|seven_seg0[2]               ; GND                 ; yes                    ;
; bcd_7seg_decoder:inst22|seven_seg0[1]               ; GND                 ; yes                    ;
; bcd_7seg_decoder:inst22|seven_seg0[0]               ; GND                 ; yes                    ;
; bcd_7seg_decoder:inst23|seven_seg0[6]               ; GND                 ; yes                    ;
; bcd_7seg_decoder:inst23|seven_seg0[5]               ; GND                 ; yes                    ;
; bcd_7seg_decoder:inst23|seven_seg0[4]               ; GND                 ; yes                    ;
; bcd_7seg_decoder:inst23|seven_seg0[3]               ; GND                 ; yes                    ;
; bcd_7seg_decoder:inst23|seven_seg0[2]               ; GND                 ; yes                    ;
; bcd_7seg_decoder:inst23|seven_seg0[1]               ; GND                 ; yes                    ;
; bcd_7seg_decoder:inst23|seven_seg0[0]               ; GND                 ; yes                    ;
; inst11[3]                                           ; BUTTON2             ; yes                    ;
; inst11[2]                                           ; BUTTON2             ; yes                    ;
; inst11[1]                                           ; BUTTON2             ; yes                    ;
; inst11[0]                                           ; BUTTON2             ; yes                    ;
; inst12[3]                                           ; BUTTON2             ; yes                    ;
; inst12[2]                                           ; BUTTON2             ; yes                    ;
; inst12[1]                                           ; BUTTON2             ; yes                    ;
; inst12[0]                                           ; BUTTON2             ; yes                    ;
; inst17[3]                                           ; BUTTON2             ; yes                    ;
; inst17[2]                                           ; BUTTON2             ; yes                    ;
; inst17[1]                                           ; BUTTON2             ; yes                    ;
; inst17[0]                                           ; BUTTON2             ; yes                    ;
; inst19[3]                                           ; BUTTON2             ; yes                    ;
; inst19[2]                                           ; BUTTON2             ; yes                    ;
; inst19[1]                                           ; BUTTON2             ; yes                    ;
; inst19[0]                                           ; BUTTON2             ; yes                    ;
; Number of user-specified and inferred latches = 44  ;                     ;                        ;
+-----------------------------------------------------+---------------------+------------------------+
Note: All latches listed above may not be present at the end of synthesis due to various synthesis optimizations.


+------------------------------------------------------+
; General Register Statistics                          ;
+----------------------------------------------+-------+
; Statistic                                    ; Value ;
+----------------------------------------------+-------+
; Total registers                              ; 49    ;
; Number of registers using Synchronous Clear  ; 0     ;
; Number of registers using Synchronous Load   ; 0     ;
; Number of registers using Asynchronous Clear ; 19    ;
; Number of registers using Asynchronous Load  ; 0     ;
; Number of registers using Clock Enable       ; 0     ;
; Number of registers using Preset             ; 0     ;
+----------------------------------------------+-------+


+----------------------------------------------------------------------------------------------------------------------------------------------------------------+
; Multiplexer Restructuring Statistics (Restructuring Performed)                                                                                                 ;
+--------------------+-----------+---------------+----------------------+------------------------+------------+--------------------------------------------------+
; Multiplexer Inputs ; Bus Width ; Baseline Area ; Area if Restructured ; Saving if Restructured ; Registered ; Example Multiplexer Output                       ;
+--------------------+-----------+---------------+----------------------+------------------------+------------+--------------------------------------------------+
; 5:1                ; 3 bits    ; 9 LEs         ; 6 LEs                ; 3 LEs                  ; No         ; |stopwatch|bcd_7seg_decoder:inst14|seven_seg0[0] ;
; 5:1                ; 3 bits    ; 9 LEs         ; 6 LEs                ; 3 LEs                  ; No         ; |stopwatch|bcd_7seg_decoder:inst21|seven_seg0[5] ;
; 5:1                ; 3 bits    ; 9 LEs         ; 6 LEs                ; 3 LEs                  ; No         ; |stopwatch|bcd_7seg_decoder:inst22|seven_seg0[0] ;
; 5:1                ; 3 bits    ; 9 LEs         ; 6 LEs                ; 3 LEs                  ; No         ; |stopwatch|bcd_7seg_decoder:inst23|seven_seg0[5] ;
+--------------------+-----------+---------------+----------------------+------------------------+------------+--------------------------------------------------+


+-------------------------------+
; Elapsed Time Per Partition    ;
+----------------+--------------+
; Partition Name ; Elapsed Time ;
+----------------+--------------+
; Top            ; 00:00:01     ;
+----------------+--------------+


+-------------------------------+
; Analysis & Synthesis Messages ;
+-------------------------------+
Info: *******************************************************************
Info: Running Quartus II 64-Bit Analysis & Synthesis
    Info: Version 13.1.0 Build 162 10/23/2013 SJ Web Edition
    Info: Processing started: Thu Mar 17 23:33:26 2016
Info: Command: quartus_map --read_settings_files=on --write_settings_files=off stopwatch -c stopwatch
Warning (20028): Parallel compilation is not licensed and has been disabled
Info (12021): Found 1 design units, including 1 entities, in source file 5clockdivider.bdf
    Info (12023): Found entity 1: 5clockdivider
Info (12021): Found 1 design units, including 1 entities, in source file stopwatch.bdf
    Info (12023): Found entity 1: stopwatch
Info (12021): Found 1 design units, including 1 entities, in source file binarydivider.bdf
    Info (12023): Found entity 1: binarydivider
Info (12021): Found 1 design units, including 1 entities, in source file 7sdcounter.v
    Info (12023): Found entity 1: bcd_7seg_decoder
Info (12021): Found 2 design units, including 2 entities, in source file altctrlclk.v
    Info (12023): Found entity 1: altctrlclk_altclkctrl_uhi
    Info (12023): Found entity 2: altctrlclk
Info (12021): Found 1 design units, including 1 entities, in source file bcdmux.v
    Info (12023): Found entity 1: bcdmux
Info (12021): Found 1 design units, including 1 entities, in source file multix.v
    Info (12023): Found entity 1: multix
Info (12021): Found 1 design units, including 1 entities, in source file 4bitupcounter.bdf
    Info (12023): Found entity 1: 4bitupcounter
Info (12021): Found 1 design units, including 1 entities, in source file upcounter.v
    Info (12023): Found entity 1: upcounter
Info (12021): Found 1 design units, including 1 entities, in source file 4bitupcounterv.v
    Info (12023): Found entity 1: V4bitupcounterV
Info (12021): Found 1 design units, including 1 entities, in source file 9999upcounter.bdf
    Info (12023): Found entity 1: 9999upcounter
Info (12021): Found 1 design units, including 1 entities, in source file frequencyreducer.bdf
    Info (12023): Found entity 1: frequencyreducer
Info (12127): Elaborating entity "stopwatch" for the top level hierarchy
Info (12128): Elaborating entity "bcd_7seg_decoder" for hierarchy "bcd_7seg_decoder:inst14"
Warning (10240): Verilog HDL Always Construct warning at 7sdcounter.v(4): inferring latch(es) for variable "seven_seg0", which holds its previous value in one or more paths through the always construct
Info (10041): Inferred latch for "seven_seg0[0]" at 7sdcounter.v(6)
Info (10041): Inferred latch for "seven_seg0[1]" at 7sdcounter.v(6)
Info (10041): Inferred latch for "seven_seg0[2]" at 7sdcounter.v(6)
Info (10041): Inferred latch for "seven_seg0[3]" at 7sdcounter.v(6)
Info (10041): Inferred latch for "seven_seg0[4]" at 7sdcounter.v(6)
Info (10041): Inferred latch for "seven_seg0[5]" at 7sdcounter.v(6)
Info (10041): Inferred latch for "seven_seg0[6]" at 7sdcounter.v(6)
Info (12128): Elaborating entity "9999upcounter" for hierarchy "9999upcounter:inst15"
Info (12128): Elaborating entity "V4bitupcounterV" for hierarchy "9999upcounter:inst15|V4bitupcounterV:inst"
Warning (10230): Verilog HDL assignment warning at 4bitupcounterV.v(10): truncated value with size 32 to match size of target (4)
Info (12128): Elaborating entity "frequencyreducer" for hierarchy "frequencyreducer:inst"
Info (12128): Elaborating entity "5clockdivider" for hierarchy "frequencyreducer:inst|5clockdivider:inst10"
Info (12128): Elaborating entity "binarydivider" for hierarchy "frequencyreducer:inst|binarydivider:inst5"
Info (12128): Elaborating entity "altctrlclk" for hierarchy "frequencyreducer:inst|altctrlclk:inst13"
Info (12128): Elaborating entity "altctrlclk_altclkctrl_uhi" for hierarchy "frequencyreducer:inst|altctrlclk:inst13|altctrlclk_altclkctrl_uhi:altctrlclk_altclkctrl_uhi_component"
Info (286030): Timing-Driven Synthesis is running
Info (16010): Generating hard_block partition "hard_block:auto_generated_inst"
    Info (16011): Adding 0 node(s), including 0 DDIO, 0 PLL, 0 transceiver and 0 LCELL
Info (21057): Implemented 188 device resources after synthesis - the final resource count might be different
    Info (21058): Implemented 4 input pins
    Info (21059): Implemented 28 output pins
    Info (21061): Implemented 155 logic cells
Info: Quartus II 64-Bit Analysis & Synthesis was successful. 0 errors, 3 warnings
    Info: Peak virtual memory: 479 megabytes
    Info: Processing ended: Thu Mar 17 23:33:30 2016
    Info: Elapsed time: 00:00:04
    Info: Total CPU time (on all processors): 00:00:04


