/*
WARNING: Do NOT edit the input and output ports in this file in a text
editor if you plan to continue editing the block that represents it in
the Block Editor! File corruption is VERY likely to occur.
*/
/*
Copyright (C) 1991-2013 Altera Corporation
Your use of Altera Corporation's design tools, logic functions 
and other software and tools, and its AMPP partner logic 
functions, and any output files from any of the foregoing 
(including device programming or simulation files), and any 
associated documentation or information are expressly subject 
to the terms and conditions of the Altera Program License 
Subscription Agreement, Altera MegaCore Function License 
Agreement, or other applicable license agreement, including, 
without limitation, that your use is for the sole purpose of 
programming logic devices manufactured by Altera and sold by 
Altera or its authorized distributors.  Please refer to the 
applicable agreement for further details.
*/
(header "graphic" (version "1.4"))
(pin
	(input)
	(rect 80 128 248 144)
	(text "INPUT" (rect 125 0 153 10)(font "Arial" (font_size 6)))
	(text "CLOCK" (rect 5 0 43 12)(font "Arial" ))
	(pt 168 8)
	(drawing
		(line (pt 84 12)(pt 109 12))
		(line (pt 84 4)(pt 109 4))
		(line (pt 113 8)(pt 168 8))
		(line (pt 84 12)(pt 84 4))
		(line (pt 109 4)(pt 113 8))
		(line (pt 109 12)(pt 113 8))
	)
	(text "VCC" (rect 128 7 148 17)(font "Arial" (font_size 6)))
	(annotation_block (location)(rect 24 144 80 160))
)
(pin
	(input)
	(rect 80 144 248 160)
	(text "INPUT" (rect 125 0 153 10)(font "Arial" (font_size 6)))
	(text "RESET" (rect 5 0 41 12)(font "Arial" ))
	(pt 168 8)
	(drawing
		(line (pt 84 12)(pt 109 12))
		(line (pt 84 4)(pt 109 4))
		(line (pt 113 8)(pt 168 8))
		(line (pt 84 12)(pt 84 4))
		(line (pt 109 4)(pt 113 8))
		(line (pt 109 12)(pt 113 8))
	)
	(text "GND" (rect 128 7 149 17)(font "Arial" (font_size 6)))
)
(pin
	(output)
	(rect 1096 128 1272 144)
	(text "OUTPUT" (rect 1 0 39 10)(font "Arial" (font_size 6)))
	(text "D0[3..0]" (rect 90 0 130 12)(font "Arial" ))
	(pt 0 8)
	(drawing
		(line (pt 0 8)(pt 52 8))
		(line (pt 52 4)(pt 78 4))
		(line (pt 52 12)(pt 78 12))
		(line (pt 52 12)(pt 52 4))
		(line (pt 78 4)(pt 82 8))
		(line (pt 82 8)(pt 78 12))
		(line (pt 78 12)(pt 82 8))
	)
	(annotation_block (location)(rect 1272 144 1328 160))
)
(pin
	(output)
	(rect 1096 160 1272 176)
	(text "OUTPUT" (rect 1 0 39 10)(font "Arial" (font_size 6)))
	(text "D2[3..0]" (rect 90 0 130 12)(font "Arial" ))
	(pt 0 8)
	(drawing
		(line (pt 0 8)(pt 52 8))
		(line (pt 52 4)(pt 78 4))
		(line (pt 52 12)(pt 78 12))
		(line (pt 52 12)(pt 52 4))
		(line (pt 78 4)(pt 82 8))
		(line (pt 82 8)(pt 78 12))
		(line (pt 78 12)(pt 82 8))
	)
	(annotation_block (location)(rect 1272 176 1328 192))
)
(pin
	(output)
	(rect 1096 144 1272 160)
	(text "OUTPUT" (rect 1 0 39 10)(font "Arial" (font_size 6)))
	(text "D1[3..0]" (rect 90 0 130 12)(font "Arial" ))
	(pt 0 8)
	(drawing
		(line (pt 0 8)(pt 52 8))
		(line (pt 52 4)(pt 78 4))
		(line (pt 52 12)(pt 78 12))
		(line (pt 52 12)(pt 52 4))
		(line (pt 78 4)(pt 82 8))
		(line (pt 82 8)(pt 78 12))
		(line (pt 78 12)(pt 82 8))
	)
	(annotation_block (location)(rect 1272 160 1328 176))
)
(pin
	(output)
	(rect 1096 176 1272 192)
	(text "OUTPUT" (rect 1 0 39 10)(font "Arial" (font_size 6)))
	(text "D3[3..0]" (rect 90 0 130 12)(font "Arial" ))
	(pt 0 8)
	(drawing
		(line (pt 0 8)(pt 52 8))
		(line (pt 52 4)(pt 78 4))
		(line (pt 52 12)(pt 78 12))
		(line (pt 52 12)(pt 52 4))
		(line (pt 78 4)(pt 82 8))
		(line (pt 82 8)(pt 78 12))
		(line (pt 78 12)(pt 82 8))
	)
	(annotation_block (location)(rect 1272 192 1328 208))
)
(symbol
	(rect 304 104 480 184)
	(text "V4bitupcounterV" (rect 5 0 86 12)(font "Arial" ))
	(text "inst" (rect 8 64 25 76)(font "Arial" ))
	(port
		(pt 0 32)
		(input)
		(text "clock" (rect 0 0 25 12)(font "Arial" ))
		(text "clock" (rect 21 27 46 39)(font "Arial" ))
		(line (pt 0 32)(pt 16 32))
	)
	(port
		(pt 0 48)
		(input)
		(text "reset" (rect 0 0 24 12)(font "Arial" ))
		(text "reset" (rect 21 43 45 55)(font "Arial" ))
		(line (pt 0 48)(pt 16 48))
	)
	(port
		(pt 176 32)
		(output)
		(text "number[3..0]" (rect 0 0 62 12)(font "Arial" ))
		(text "number[3..0]" (rect 103 27 165 39)(font "Arial" ))
		(line (pt 176 32)(pt 160 32)(line_width 3))
	)
	(port
		(pt 176 48)
		(output)
		(text "ripple" (rect 0 0 25 12)(font "Arial" ))
		(text "ripple" (rect 134 43 159 55)(font "Arial" ))
		(line (pt 176 48)(pt 160 48))
	)
	(drawing
		(rectangle (rect 16 16 160 64))
	)
)
(symbol
	(rect 496 184 672 264)
	(text "V4bitupcounterV" (rect 5 0 86 12)(font "Arial" ))
	(text "inst1" (rect 8 64 31 76)(font "Arial" ))
	(port
		(pt 0 32)
		(input)
		(text "clock" (rect 0 0 25 12)(font "Arial" ))
		(text "clock" (rect 21 27 46 39)(font "Arial" ))
		(line (pt 0 32)(pt 16 32))
	)
	(port
		(pt 0 48)
		(input)
		(text "reset" (rect 0 0 24 12)(font "Arial" ))
		(text "reset" (rect 21 43 45 55)(font "Arial" ))
		(line (pt 0 48)(pt 16 48))
	)
	(port
		(pt 176 32)
		(output)
		(text "number[3..0]" (rect 0 0 62 12)(font "Arial" ))
		(text "number[3..0]" (rect 103 27 165 39)(font "Arial" ))
		(line (pt 176 32)(pt 160 32)(line_width 3))
	)
	(port
		(pt 176 48)
		(output)
		(text "ripple" (rect 0 0 25 12)(font "Arial" ))
		(text "ripple" (rect 134 43 159 55)(font "Arial" ))
		(line (pt 176 48)(pt 160 48))
	)
	(drawing
		(rectangle (rect 16 16 160 64))
	)
)
(symbol
	(rect 688 264 864 344)
	(text "V4bitupcounterV" (rect 5 0 86 12)(font "Arial" ))
	(text "inst2" (rect 8 64 31 76)(font "Arial" ))
	(port
		(pt 0 32)
		(input)
		(text "clock" (rect 0 0 25 12)(font "Arial" ))
		(text "clock" (rect 21 27 46 39)(font "Arial" ))
		(line (pt 0 32)(pt 16 32))
	)
	(port
		(pt 0 48)
		(input)
		(text "reset" (rect 0 0 24 12)(font "Arial" ))
		(text "reset" (rect 21 43 45 55)(font "Arial" ))
		(line (pt 0 48)(pt 16 48))
	)
	(port
		(pt 176 32)
		(output)
		(text "number[3..0]" (rect 0 0 62 12)(font "Arial" ))
		(text "number[3..0]" (rect 103 27 165 39)(font "Arial" ))
		(line (pt 176 32)(pt 160 32)(line_width 3))
	)
	(port
		(pt 176 48)
		(output)
		(text "ripple" (rect 0 0 25 12)(font "Arial" ))
		(text "ripple" (rect 134 43 159 55)(font "Arial" ))
		(line (pt 176 48)(pt 160 48))
	)
	(drawing
		(rectangle (rect 16 16 160 64))
	)
)
(symbol
	(rect 880 344 1056 424)
	(text "V4bitupcounterV" (rect 5 0 86 12)(font "Arial" ))
	(text "inst3" (rect 8 64 31 76)(font "Arial" ))
	(port
		(pt 0 32)
		(input)
		(text "clock" (rect 0 0 25 12)(font "Arial" ))
		(text "clock" (rect 21 27 46 39)(font "Arial" ))
		(line (pt 0 32)(pt 16 32))
	)
	(port
		(pt 0 48)
		(input)
		(text "reset" (rect 0 0 24 12)(font "Arial" ))
		(text "reset" (rect 21 43 45 55)(font "Arial" ))
		(line (pt 0 48)(pt 16 48))
	)
	(port
		(pt 176 32)
		(output)
		(text "number[3..0]" (rect 0 0 62 12)(font "Arial" ))
		(text "number[3..0]" (rect 103 27 165 39)(font "Arial" ))
		(line (pt 176 32)(pt 160 32)(line_width 3))
	)
	(port
		(pt 176 48)
		(output)
		(text "ripple" (rect 0 0 25 12)(font "Arial" ))
		(text "ripple" (rect 134 43 159 55)(font "Arial" ))
		(line (pt 176 48)(pt 160 48))
	)
	(drawing
		(rectangle (rect 16 16 160 64))
	)
)
(connector
	(pt 1056 376)
	(pt 1064 376)
	(bus)
)
(connector
	(pt 1064 376)
	(pt 1064 184)
	(bus)
)
(connector
	(pt 1064 184)
	(pt 1096 184)
	(bus)
)
(connector
	(pt 864 296)
	(pt 1048 296)
	(bus)
)
(connector
	(pt 1048 168)
	(pt 1048 296)
	(bus)
)
(connector
	(pt 1048 168)
	(pt 1096 168)
	(bus)
)
(connector
	(pt 1096 152)
	(pt 1032 152)
	(bus)
)
(connector
	(pt 1032 152)
	(pt 1032 216)
	(bus)
)
(connector
	(pt 672 216)
	(pt 1032 216)
	(bus)
)
(connector
	(pt 480 152)
	(pt 488 152)
)
(connector
	(pt 488 152)
	(pt 488 216)
)
(connector
	(pt 488 216)
	(pt 496 216)
)
(connector
	(pt 672 232)
	(pt 680 232)
)
(connector
	(pt 680 232)
	(pt 680 296)
)
(connector
	(pt 680 296)
	(pt 688 296)
)
(connector
	(pt 864 312)
	(pt 872 312)
)
(connector
	(pt 872 312)
	(pt 872 376)
)
(connector
	(pt 872 376)
	(pt 880 376)
)
(connector
	(pt 248 136)
	(pt 304 136)
)
(connector
	(pt 288 232)
	(pt 496 232)
)
(connector
	(pt 248 152)
	(pt 288 152)
)
(connector
	(pt 288 152)
	(pt 304 152)
)
(connector
	(pt 288 312)
	(pt 688 312)
)
(connector
	(pt 288 152)
	(pt 288 232)
)
(connector
	(pt 288 392)
	(pt 880 392)
)
(connector
	(pt 288 232)
	(pt 288 312)
)
(connector
	(pt 288 312)
	(pt 288 392)
)
(connector
	(pt 480 136)
	(pt 1096 136)
	(bus)
)
(junction (pt 288 152))
(junction (pt 288 232))
(junction (pt 288 312))
