Analysis & Synthesis report for Message
Tue Apr 12 15:34:11 2016
Quartus II 64-Bit Version 13.1.0 Build 162 10/23/2013 SJ Web Edition


---------------------
; Table of Contents ;
---------------------
  1. Legal Notice
  2. Analysis & Synthesis Summary
  3. Analysis & Synthesis Settings
  4. Parallel Compilation
  5. Analysis & Synthesis Source Files Read
  6. Analysis & Synthesis Resource Usage Summary
  7. Analysis & Synthesis Resource Utilization by Entity
  8. Registers Removed During Synthesis
  9. General Register Statistics
 10. Inverted Register Statistics
 11. Elapsed Time Per Partition
 12. Analysis & Synthesis Messages
 13. Analysis & Synthesis Suppressed Messages



----------------
; Legal Notice ;
----------------
Copyright (C) 1991-2013 Altera Corporation
Your use of Altera Corporation's design tools, logic functions 
and other software and tools, and its AMPP partner logic 
functions, and any output files from any of the foregoing 
(including device programming or simulation files), and any 
associated documentation or information are expressly subject 
to the terms and conditions of the Altera Program License 
Subscription Agreement, Altera MegaCore Function License 
Agreement, or other applicable license agreement, including, 
without limitation, that your use is for the sole purpose of 
programming logic devices manufactured by Altera and sold by 
Altera or its authorized distributors.  Please refer to the 
applicable agreement for further details.



+---------------------------------------------------------------------------------+
; Analysis & Synthesis Summary                                                    ;
+------------------------------------+--------------------------------------------+
; Analysis & Synthesis Status        ; Successful - Tue Apr 12 15:34:11 2016      ;
; Quartus II 64-Bit Version          ; 13.1.0 Build 162 10/23/2013 SJ Web Edition ;
; Revision Name                      ; Message                                    ;
; Top-level Entity Name              ; Message                                    ;
; Family                             ; Cyclone III                                ;
; Total logic elements               ; 158                                        ;
;     Total combinational functions  ; 158                                        ;
;     Dedicated logic registers      ; 76                                         ;
; Total registers                    ; 76                                         ;
; Total pins                         ; 29                                         ;
; Total virtual pins                 ; 0                                          ;
; Total memory bits                  ; 0                                          ;
; Embedded Multiplier 9-bit elements ; 0                                          ;
; Total PLLs                         ; 0                                          ;
+------------------------------------+--------------------------------------------+


+----------------------------------------------------------------------------------------------------------------------+
; Analysis & Synthesis Settings                                                                                        ;
+----------------------------------------------------------------------------+--------------------+--------------------+
; Option                                                                     ; Setting            ; Default Value      ;
+----------------------------------------------------------------------------+--------------------+--------------------+
; Device                                                                     ; EP3C16F484C6       ;                    ;
; Top-level entity name                                                      ; Message            ; Message            ;
; Family name                                                                ; Cyclone III        ; Cyclone IV GX      ;
; Use smart compilation                                                      ; Off                ; Off                ;
; Enable parallel Assembler and TimeQuest Timing Analyzer during compilation ; On                 ; On                 ;
; Enable compact report table                                                ; Off                ; Off                ;
; Restructure Multiplexers                                                   ; Auto               ; Auto               ;
; Create Debugging Nodes for IP Cores                                        ; Off                ; Off                ;
; Preserve fewer node names                                                  ; On                 ; On                 ;
; Disable OpenCore Plus hardware evaluation                                  ; Off                ; Off                ;
; Verilog Version                                                            ; Verilog_2001       ; Verilog_2001       ;
; VHDL Version                                                               ; VHDL_1993          ; VHDL_1993          ;
; State Machine Processing                                                   ; Auto               ; Auto               ;
; Safe State Machine                                                         ; Off                ; Off                ;
; Extract Verilog State Machines                                             ; On                 ; On                 ;
; Extract VHDL State Machines                                                ; On                 ; On                 ;
; Ignore Verilog initial constructs                                          ; Off                ; Off                ;
; Iteration limit for constant Verilog loops                                 ; 5000               ; 5000               ;
; Iteration limit for non-constant Verilog loops                             ; 250                ; 250                ;
; Add Pass-Through Logic to Inferred RAMs                                    ; On                 ; On                 ;
; Infer RAMs from Raw Logic                                                  ; On                 ; On                 ;
; Parallel Synthesis                                                         ; On                 ; On                 ;
; DSP Block Balancing                                                        ; Auto               ; Auto               ;
; NOT Gate Push-Back                                                         ; On                 ; On                 ;
; Power-Up Don't Care                                                        ; On                 ; On                 ;
; Remove Redundant Logic Cells                                               ; Off                ; Off                ;
; Remove Duplicate Registers                                                 ; On                 ; On                 ;
; Ignore CARRY Buffers                                                       ; Off                ; Off                ;
; Ignore CASCADE Buffers                                                     ; Off                ; Off                ;
; Ignore GLOBAL Buffers                                                      ; Off                ; Off                ;
; Ignore ROW GLOBAL Buffers                                                  ; Off                ; Off                ;
; Ignore LCELL Buffers                                                       ; Off                ; Off                ;
; Ignore SOFT Buffers                                                        ; On                 ; On                 ;
; Limit AHDL Integers to 32 Bits                                             ; Off                ; Off                ;
; Optimization Technique                                                     ; Balanced           ; Balanced           ;
; Carry Chain Length                                                         ; 70                 ; 70                 ;
; Auto Carry Chains                                                          ; On                 ; On                 ;
; Auto Open-Drain Pins                                                       ; On                 ; On                 ;
; Perform WYSIWYG Primitive Resynthesis                                      ; Off                ; Off                ;
; Auto ROM Replacement                                                       ; On                 ; On                 ;
; Auto RAM Replacement                                                       ; On                 ; On                 ;
; Auto DSP Block Replacement                                                 ; On                 ; On                 ;
; Auto Shift Register Replacement                                            ; Auto               ; Auto               ;
; Allow Shift Register Merging across Hierarchies                            ; Auto               ; Auto               ;
; Auto Clock Enable Replacement                                              ; On                 ; On                 ;
; Strict RAM Replacement                                                     ; Off                ; Off                ;
; Allow Synchronous Control Signals                                          ; On                 ; On                 ;
; Force Use of Synchronous Clear Signals                                     ; Off                ; Off                ;
; Auto RAM Block Balancing                                                   ; On                 ; On                 ;
; Auto RAM to Logic Cell Conversion                                          ; Off                ; Off                ;
; Auto Resource Sharing                                                      ; Off                ; Off                ;
; Allow Any RAM Size For Recognition                                         ; Off                ; Off                ;
; Allow Any ROM Size For Recognition                                         ; Off                ; Off                ;
; Allow Any Shift Register Size For Recognition                              ; Off                ; Off                ;
; Use LogicLock Constraints during Resource Balancing                        ; On                 ; On                 ;
; Ignore translate_off and synthesis_off directives                          ; Off                ; Off                ;
; Timing-Driven Synthesis                                                    ; On                 ; On                 ;
; Report Parameter Settings                                                  ; On                 ; On                 ;
; Report Source Assignments                                                  ; On                 ; On                 ;
; Report Connectivity Checks                                                 ; On                 ; On                 ;
; Ignore Maximum Fan-Out Assignments                                         ; Off                ; Off                ;
; Synchronization Register Chain Length                                      ; 2                  ; 2                  ;
; PowerPlay Power Optimization                                               ; Normal compilation ; Normal compilation ;
; HDL message level                                                          ; Level2             ; Level2             ;
; Suppress Register Optimization Related Messages                            ; Off                ; Off                ;
; Number of Removed Registers Reported in Synthesis Report                   ; 5000               ; 5000               ;
; Number of Swept Nodes Reported in Synthesis Report                         ; 5000               ; 5000               ;
; Number of Inverted Registers Reported in Synthesis Report                  ; 100                ; 100                ;
; Clock MUX Protection                                                       ; On                 ; On                 ;
; Auto Gated Clock Conversion                                                ; Off                ; Off                ;
; Block Design Naming                                                        ; Auto               ; Auto               ;
; SDC constraint protection                                                  ; Off                ; Off                ;
; Synthesis Effort                                                           ; Auto               ; Auto               ;
; Shift Register Replacement - Allow Asynchronous Clear Signal               ; On                 ; On                 ;
; Pre-Mapping Resynthesis Optimization                                       ; Off                ; Off                ;
; Analysis & Synthesis Message Level                                         ; Medium             ; Medium             ;
; Disable Register Merging Across Hierarchies                                ; Auto               ; Auto               ;
; Resource Aware Inference For Block RAM                                     ; On                 ; On                 ;
; Synthesis Seed                                                             ; 1                  ; 1                  ;
+----------------------------------------------------------------------------+--------------------+--------------------+


Parallel compilation was disabled, but you have multiple processors available. Enable parallel compilation to reduce compilation time.
+-------------------------------------+
; Parallel Compilation                ;
+----------------------------+--------+
; Processors                 ; Number ;
+----------------------------+--------+
; Number detected on machine ; 8      ;
; Maximum allowed            ; 1      ;
+----------------------------+--------+


+------------------------------------------------------------------------------------------------------------------------------------------------------------+
; Analysis & Synthesis Source Files Read                                                                                                                     ;
+----------------------------------+-----------------+------------------------------------+--------------------------------------------------------+---------+
; File Name with User-Entered Path ; Used in Netlist ; File Type                          ; File Name with Absolute Path                           ; Library ;
+----------------------------------+-----------------+------------------------------------+--------------------------------------------------------+---------+
; Message.bdf                      ; yes             ; User Block Diagram/Schematic File  ; D:/Valentin/Documente/FPGA/fpga/Message/Message.bdf    ;         ;
; clockreducer.v                   ; yes             ; User Verilog HDL File              ; D:/Valentin/Documente/FPGA/fpga/Message/clockreducer.v ;         ;
; digit0.sv                        ; yes             ; User SystemVerilog HDL File        ; D:/Valentin/Documente/FPGA/fpga/Message/digit0.sv      ;         ;
; digit1.sv                        ; yes             ; User SystemVerilog HDL File        ; D:/Valentin/Documente/FPGA/fpga/Message/digit1.sv      ;         ;
; digit2.sv                        ; yes             ; User SystemVerilog HDL File        ; D:/Valentin/Documente/FPGA/fpga/Message/digit2.sv      ;         ;
; digit3.sv                        ; yes             ; User SystemVerilog HDL File        ; D:/Valentin/Documente/FPGA/fpga/Message/digit3.sv      ;         ;
+----------------------------------+-----------------+------------------------------------+--------------------------------------------------------+---------+


+-------------------------------------------------------------------------+
; Analysis & Synthesis Resource Usage Summary                             ;
+---------------------------------------------+---------------------------+
; Resource                                    ; Usage                     ;
+---------------------------------------------+---------------------------+
; Estimated Total logic elements              ; 158                       ;
;                                             ;                           ;
; Total combinational functions               ; 158                       ;
; Logic element usage by number of LUT inputs ;                           ;
;     -- 4 input functions                    ; 80                        ;
;     -- 3 input functions                    ; 18                        ;
;     -- <=2 input functions                  ; 60                        ;
;                                             ;                           ;
; Logic elements by mode                      ;                           ;
;     -- normal mode                          ; 116                       ;
;     -- arithmetic mode                      ; 42                        ;
;                                             ;                           ;
; Total registers                             ; 76                        ;
;     -- Dedicated logic registers            ; 76                        ;
;     -- I/O registers                        ; 0                         ;
;                                             ;                           ;
; I/O pins                                    ; 29                        ;
; Embedded Multiplier 9-bit elements          ; 0                         ;
; Maximum fan-out node                        ; clockreducer:inst|reduced ;
; Maximum fan-out                             ; 51                        ;
; Total fan-out                               ; 697                       ;
; Average fan-out                             ; 2.39                      ;
+---------------------------------------------+---------------------------+


+------------------------------------------------------------------------------------------------------------------------------------------------------------------------------------+
; Analysis & Synthesis Resource Utilization by Entity                                                                                                                                ;
+----------------------------+-------------------+--------------+-------------+--------------+---------+-----------+------+--------------+----------------------------+--------------+
; Compilation Hierarchy Node ; LC Combinationals ; LC Registers ; Memory Bits ; DSP Elements ; DSP 9x9 ; DSP 18x18 ; Pins ; Virtual Pins ; Full Hierarchy Name        ; Library Name ;
+----------------------------+-------------------+--------------+-------------+--------------+---------+-----------+------+--------------+----------------------------+--------------+
; |Message                   ; 158 (0)           ; 76 (0)       ; 0           ; 0            ; 0       ; 0         ; 29   ; 0            ; |Message                   ; work         ;
;    |clockreducer:inst|     ; 47 (47)           ; 26 (26)      ; 0           ; 0            ; 0       ; 0         ; 0    ; 0            ; |Message|clockreducer:inst ; work         ;
;    |digit0:inst5|          ; 29 (29)           ; 13 (13)      ; 0           ; 0            ; 0       ; 0         ; 0    ; 0            ; |Message|digit0:inst5      ; work         ;
;    |digit1:inst6|          ; 28 (28)           ; 13 (13)      ; 0           ; 0            ; 0       ; 0         ; 0    ; 0            ; |Message|digit1:inst6      ; work         ;
;    |digit2:inst7|          ; 27 (27)           ; 12 (12)      ; 0           ; 0            ; 0       ; 0         ; 0    ; 0            ; |Message|digit2:inst7      ; work         ;
;    |digit3:inst8|          ; 27 (27)           ; 12 (12)      ; 0           ; 0            ; 0       ; 0         ; 0    ; 0            ; |Message|digit3:inst8      ; work         ;
+----------------------------+-------------------+--------------+-------------+--------------+---------+-----------+------+--------------+----------------------------+--------------+
Note: For table entries with two numbers listed, the numbers in parentheses indicate the number of resources of the given type used by the specific entity alone. The numbers listed outside of parentheses indicate the total resources of the given type used by the specific entity and all of its sub-entities in the hierarchy.


+-----------------------------------------------------------------------------+
; Registers Removed During Synthesis                                          ;
+---------------------------------------+-------------------------------------+
; Register name                         ; Reason for Removal                  ;
+---------------------------------------+-------------------------------------+
; digit2:inst7|counter[0]               ; Merged with digit0:inst5|counter[0] ;
; digit3:inst8|counter[0]               ; Merged with digit1:inst6|counter[0] ;
; Total Number of Removed Registers = 2 ;                                     ;
+---------------------------------------+-------------------------------------+


+------------------------------------------------------+
; General Register Statistics                          ;
+----------------------------------------------+-------+
; Statistic                                    ; Value ;
+----------------------------------------------+-------+
; Total registers                              ; 76    ;
; Number of registers using Synchronous Clear  ; 0     ;
; Number of registers using Synchronous Load   ; 0     ;
; Number of registers using Asynchronous Clear ; 0     ;
; Number of registers using Asynchronous Load  ; 0     ;
; Number of registers using Clock Enable       ; 0     ;
; Number of registers using Preset             ; 0     ;
+----------------------------------------------+-------+


+--------------------------------------------------+
; Inverted Register Statistics                     ;
+----------------------------------------+---------+
; Inverted Register                      ; Fan out ;
+----------------------------------------+---------+
; digit0:inst5|counter[0]                ; 26      ;
; digit0:inst5|counter[1]                ; 15      ;
; digit1:inst6|counter[1]                ; 15      ;
; Total number of inverted registers = 3 ;         ;
+----------------------------------------+---------+


+-------------------------------+
; Elapsed Time Per Partition    ;
+----------------+--------------+
; Partition Name ; Elapsed Time ;
+----------------+--------------+
; Top            ; 00:00:01     ;
+----------------+--------------+


+-------------------------------+
; Analysis & Synthesis Messages ;
+-------------------------------+
Info: *******************************************************************
Info: Running Quartus II 64-Bit Analysis & Synthesis
    Info: Version 13.1.0 Build 162 10/23/2013 SJ Web Edition
    Info: Processing started: Tue Apr 12 15:34:07 2016
Info: Command: quartus_map --read_settings_files=on --write_settings_files=off Message -c Message
Warning (20028): Parallel compilation is not licensed and has been disabled
Info (12021): Found 1 design units, including 1 entities, in source file message.bdf
    Info (12023): Found entity 1: Message
Info (12021): Found 1 design units, including 1 entities, in source file clockreducer.v
    Info (12023): Found entity 1: clockreducer
Info (12021): Found 1 design units, including 1 entities, in source file digit0.sv
    Info (12023): Found entity 1: digit0
Info (12021): Found 1 design units, including 1 entities, in source file digit1.sv
    Info (12023): Found entity 1: digit1
Info (12021): Found 1 design units, including 1 entities, in source file digit2.sv
    Info (12023): Found entity 1: digit2
Info (12021): Found 1 design units, including 1 entities, in source file digit3.sv
    Info (12023): Found entity 1: digit3
Info (12127): Elaborating entity "Message" for the top level hierarchy
Info (12128): Elaborating entity "digit0" for hierarchy "digit0:inst5"
Warning (10230): Verilog HDL assignment warning at digit0.sv(14): truncated value with size 32 to match size of target (6)
Warning (10030): Net "mem.data_a" at digit0.sv(3) has no driver or initial value, using a default initial value '0'
Warning (10030): Net "mem.waddr_a" at digit0.sv(3) has no driver or initial value, using a default initial value '0'
Warning (10030): Net "mem.we_a" at digit0.sv(3) has no driver or initial value, using a default initial value '0'
Info (12128): Elaborating entity "clockreducer" for hierarchy "clockreducer:inst"
Warning (10230): Verilog HDL assignment warning at clockreducer.v(13): truncated value with size 32 to match size of target (25)
Info (12128): Elaborating entity "digit1" for hierarchy "digit1:inst6"
Warning (10230): Verilog HDL assignment warning at digit1.sv(14): truncated value with size 32 to match size of target (6)
Warning (10030): Net "mem.data_a" at digit1.sv(3) has no driver or initial value, using a default initial value '0'
Warning (10030): Net "mem.waddr_a" at digit1.sv(3) has no driver or initial value, using a default initial value '0'
Warning (10030): Net "mem.we_a" at digit1.sv(3) has no driver or initial value, using a default initial value '0'
Info (12128): Elaborating entity "digit2" for hierarchy "digit2:inst7"
Warning (10230): Verilog HDL assignment warning at digit2.sv(14): truncated value with size 32 to match size of target (6)
Warning (10030): Net "mem.data_a" at digit2.sv(3) has no driver or initial value, using a default initial value '0'
Warning (10030): Net "mem.waddr_a" at digit2.sv(3) has no driver or initial value, using a default initial value '0'
Warning (10030): Net "mem.we_a" at digit2.sv(3) has no driver or initial value, using a default initial value '0'
Info (12128): Elaborating entity "digit3" for hierarchy "digit3:inst8"
Warning (10230): Verilog HDL assignment warning at digit3.sv(14): truncated value with size 32 to match size of target (6)
Warning (10030): Net "mem.data_a" at digit3.sv(3) has no driver or initial value, using a default initial value '0'
Warning (10030): Net "mem.waddr_a" at digit3.sv(3) has no driver or initial value, using a default initial value '0'
Warning (10030): Net "mem.we_a" at digit3.sv(3) has no driver or initial value, using a default initial value '0'
Info (276014): Found 4 instances of uninferred RAM logic
    Info (276004): RAM logic "digit0:inst5|mem" is uninferred due to inappropriate RAM size
    Info (276004): RAM logic "digit1:inst6|mem" is uninferred due to inappropriate RAM size
    Info (276004): RAM logic "digit2:inst7|mem" is uninferred due to inappropriate RAM size
    Info (276004): RAM logic "digit3:inst8|mem" is uninferred due to inappropriate RAM size
Critical Warning (127005): Memory depth (32) in the design file differs from memory depth (25) in the Memory Initialization File "D:/Valentin/Documente/FPGA/fpga/Message/db/Message.ram0_digit0_f678db51.hdl.mif" -- setting initial value for remaining addresses to 0
Critical Warning (127005): Memory depth (32) in the design file differs from memory depth (25) in the Memory Initialization File "D:/Valentin/Documente/FPGA/fpga/Message/db/Message.ram0_digit1_f678db50.hdl.mif" -- setting initial value for remaining addresses to 0
Critical Warning (127005): Memory depth (32) in the design file differs from memory depth (25) in the Memory Initialization File "D:/Valentin/Documente/FPGA/fpga/Message/db/Message.ram0_digit2_f678db53.hdl.mif" -- setting initial value for remaining addresses to 0
Critical Warning (127005): Memory depth (32) in the design file differs from memory depth (25) in the Memory Initialization File "D:/Valentin/Documente/FPGA/fpga/Message/db/Message.ram0_digit3_f678db52.hdl.mif" -- setting initial value for remaining addresses to 0
Info (286030): Timing-Driven Synthesis is running
Info (144001): Generated suppressed messages file D:/Valentin/Documente/FPGA/fpga/Message/output_files/Message.map.smsg
Info (16010): Generating hard_block partition "hard_block:auto_generated_inst"
    Info (16011): Adding 0 node(s), including 0 DDIO, 0 PLL, 0 transceiver and 0 LCELL
Info (21057): Implemented 187 device resources after synthesis - the final resource count might be different
    Info (21058): Implemented 1 input pins
    Info (21059): Implemented 28 output pins
    Info (21061): Implemented 158 logic cells
Info: Quartus II 64-Bit Analysis & Synthesis was successful. 0 errors, 22 warnings
    Info: Peak virtual memory: 516 megabytes
    Info: Processing ended: Tue Apr 12 15:34:11 2016
    Info: Elapsed time: 00:00:04
    Info: Total CPU time (on all processors): 00:00:03


+------------------------------------------+
; Analysis & Synthesis Suppressed Messages ;
+------------------------------------------+
The suppressed messages can be found in D:/Valentin/Documente/FPGA/fpga/Message/output_files/Message.map.smsg.


