Analysis & Synthesis report for nightclock
Sun Mar 20 03:59:12 2016
Quartus II 64-Bit Version 13.1.0 Build 162 10/23/2013 SJ Web Edition


---------------------
; Table of Contents ;
---------------------
  1. Legal Notice
  2. Analysis & Synthesis Summary
  3. Analysis & Synthesis Settings
  4. Parallel Compilation
  5. Analysis & Synthesis Source Files Read
  6. Analysis & Synthesis Resource Usage Summary
  7. Analysis & Synthesis Resource Utilization by Entity
  8. Analysis & Synthesis IP Cores Summary
  9. User-Specified and Inferred Latches
 10. General Register Statistics
 11. Multiplexer Restructuring Statistics (Restructuring Performed)
 12. Parameter Settings for User Entity Instance: mux2:inst3|lpm_mux:LPM_MUX_component
 13. Elapsed Time Per Partition
 14. Analysis & Synthesis Messages



----------------
; Legal Notice ;
----------------
Copyright (C) 1991-2013 Altera Corporation
Your use of Altera Corporation's design tools, logic functions 
and other software and tools, and its AMPP partner logic 
functions, and any output files from any of the foregoing 
(including device programming or simulation files), and any 
associated documentation or information are expressly subject 
to the terms and conditions of the Altera Program License 
Subscription Agreement, Altera MegaCore Function License 
Agreement, or other applicable license agreement, including, 
without limitation, that your use is for the sole purpose of 
programming logic devices manufactured by Altera and sold by 
Altera or its authorized distributors.  Please refer to the 
applicable agreement for further details.



+---------------------------------------------------------------------------------+
; Analysis & Synthesis Summary                                                    ;
+------------------------------------+--------------------------------------------+
; Analysis & Synthesis Status        ; Successful - Sun Mar 20 03:59:12 2016      ;
; Quartus II 64-Bit Version          ; 13.1.0 Build 162 10/23/2013 SJ Web Edition ;
; Revision Name                      ; nightclock                                 ;
; Top-level Entity Name              ; nightclock                                 ;
; Family                             ; Cyclone III                                ;
; Total logic elements               ; 240                                        ;
;     Total combinational functions  ; 240                                        ;
;     Dedicated logic registers      ; 46                                         ;
; Total registers                    ; 46                                         ;
; Total pins                         ; 44                                         ;
; Total virtual pins                 ; 0                                          ;
; Total memory bits                  ; 0                                          ;
; Embedded Multiplier 9-bit elements ; 0                                          ;
; Total PLLs                         ; 0                                          ;
+------------------------------------+--------------------------------------------+


+----------------------------------------------------------------------------------------------------------------------+
; Analysis & Synthesis Settings                                                                                        ;
+----------------------------------------------------------------------------+--------------------+--------------------+
; Option                                                                     ; Setting            ; Default Value      ;
+----------------------------------------------------------------------------+--------------------+--------------------+
; Device                                                                     ; EP3C16F484C6       ;                    ;
; Top-level entity name                                                      ; nightclock         ; nightclock         ;
; Family name                                                                ; Cyclone III        ; Cyclone IV GX      ;
; Use smart compilation                                                      ; Off                ; Off                ;
; Enable parallel Assembler and TimeQuest Timing Analyzer during compilation ; On                 ; On                 ;
; Enable compact report table                                                ; Off                ; Off                ;
; Restructure Multiplexers                                                   ; Auto               ; Auto               ;
; Create Debugging Nodes for IP Cores                                        ; Off                ; Off                ;
; Preserve fewer node names                                                  ; On                 ; On                 ;
; Disable OpenCore Plus hardware evaluation                                  ; Off                ; Off                ;
; Verilog Version                                                            ; Verilog_2001       ; Verilog_2001       ;
; VHDL Version                                                               ; VHDL_1993          ; VHDL_1993          ;
; State Machine Processing                                                   ; Auto               ; Auto               ;
; Safe State Machine                                                         ; Off                ; Off                ;
; Extract Verilog State Machines                                             ; On                 ; On                 ;
; Extract VHDL State Machines                                                ; On                 ; On                 ;
; Ignore Verilog initial constructs                                          ; Off                ; Off                ;
; Iteration limit for constant Verilog loops                                 ; 5000               ; 5000               ;
; Iteration limit for non-constant Verilog loops                             ; 250                ; 250                ;
; Add Pass-Through Logic to Inferred RAMs                                    ; On                 ; On                 ;
; Infer RAMs from Raw Logic                                                  ; On                 ; On                 ;
; Parallel Synthesis                                                         ; On                 ; On                 ;
; DSP Block Balancing                                                        ; Auto               ; Auto               ;
; NOT Gate Push-Back                                                         ; On                 ; On                 ;
; Power-Up Don't Care                                                        ; On                 ; On                 ;
; Remove Redundant Logic Cells                                               ; Off                ; Off                ;
; Remove Duplicate Registers                                                 ; On                 ; On                 ;
; Ignore CARRY Buffers                                                       ; Off                ; Off                ;
; Ignore CASCADE Buffers                                                     ; Off                ; Off                ;
; Ignore GLOBAL Buffers                                                      ; Off                ; Off                ;
; Ignore ROW GLOBAL Buffers                                                  ; Off                ; Off                ;
; Ignore LCELL Buffers                                                       ; Off                ; Off                ;
; Ignore SOFT Buffers                                                        ; On                 ; On                 ;
; Limit AHDL Integers to 32 Bits                                             ; Off                ; Off                ;
; Optimization Technique                                                     ; Balanced           ; Balanced           ;
; Carry Chain Length                                                         ; 70                 ; 70                 ;
; Auto Carry Chains                                                          ; On                 ; On                 ;
; Auto Open-Drain Pins                                                       ; On                 ; On                 ;
; Perform WYSIWYG Primitive Resynthesis                                      ; Off                ; Off                ;
; Auto ROM Replacement                                                       ; On                 ; On                 ;
; Auto RAM Replacement                                                       ; On                 ; On                 ;
; Auto DSP Block Replacement                                                 ; On                 ; On                 ;
; Auto Shift Register Replacement                                            ; Auto               ; Auto               ;
; Allow Shift Register Merging across Hierarchies                            ; Auto               ; Auto               ;
; Auto Clock Enable Replacement                                              ; On                 ; On                 ;
; Strict RAM Replacement                                                     ; Off                ; Off                ;
; Allow Synchronous Control Signals                                          ; On                 ; On                 ;
; Force Use of Synchronous Clear Signals                                     ; Off                ; Off                ;
; Auto RAM Block Balancing                                                   ; On                 ; On                 ;
; Auto RAM to Logic Cell Conversion                                          ; Off                ; Off                ;
; Auto Resource Sharing                                                      ; Off                ; Off                ;
; Allow Any RAM Size For Recognition                                         ; Off                ; Off                ;
; Allow Any ROM Size For Recognition                                         ; Off                ; Off                ;
; Allow Any Shift Register Size For Recognition                              ; Off                ; Off                ;
; Use LogicLock Constraints during Resource Balancing                        ; On                 ; On                 ;
; Ignore translate_off and synthesis_off directives                          ; Off                ; Off                ;
; Timing-Driven Synthesis                                                    ; On                 ; On                 ;
; Report Parameter Settings                                                  ; On                 ; On                 ;
; Report Source Assignments                                                  ; On                 ; On                 ;
; Report Connectivity Checks                                                 ; On                 ; On                 ;
; Ignore Maximum Fan-Out Assignments                                         ; Off                ; Off                ;
; Synchronization Register Chain Length                                      ; 2                  ; 2                  ;
; PowerPlay Power Optimization                                               ; Normal compilation ; Normal compilation ;
; HDL message level                                                          ; Level2             ; Level2             ;
; Suppress Register Optimization Related Messages                            ; Off                ; Off                ;
; Number of Removed Registers Reported in Synthesis Report                   ; 5000               ; 5000               ;
; Number of Swept Nodes Reported in Synthesis Report                         ; 5000               ; 5000               ;
; Number of Inverted Registers Reported in Synthesis Report                  ; 100                ; 100                ;
; Clock MUX Protection                                                       ; On                 ; On                 ;
; Auto Gated Clock Conversion                                                ; Off                ; Off                ;
; Block Design Naming                                                        ; Auto               ; Auto               ;
; SDC constraint protection                                                  ; Off                ; Off                ;
; Synthesis Effort                                                           ; Auto               ; Auto               ;
; Shift Register Replacement - Allow Asynchronous Clear Signal               ; On                 ; On                 ;
; Pre-Mapping Resynthesis Optimization                                       ; Off                ; Off                ;
; Analysis & Synthesis Message Level                                         ; Medium             ; Medium             ;
; Disable Register Merging Across Hierarchies                                ; Auto               ; Auto               ;
; Resource Aware Inference For Block RAM                                     ; On                 ; On                 ;
; Synthesis Seed                                                             ; 1                  ; 1                  ;
+----------------------------------------------------------------------------+--------------------+--------------------+


Parallel compilation was disabled, but you have multiple processors available. Enable parallel compilation to reduce compilation time.
+-------------------------------------+
; Parallel Compilation                ;
+----------------------------+--------+
; Processors                 ; Number ;
+----------------------------+--------+
; Number detected on machine ; 8      ;
; Maximum allowed            ; 1      ;
+----------------------------+--------+


+------------------------------------------------------------------------------------------------------------------------------------------------------------------------+
; Analysis & Synthesis Source Files Read                                                                                                                                 ;
+----------------------------------+-----------------+------------------------------------+--------------------------------------------------------------------+---------+
; File Name with User-Entered Path ; Used in Netlist ; File Type                          ; File Name with Absolute Path                                       ; Library ;
+----------------------------------+-----------------+------------------------------------+--------------------------------------------------------------------+---------+
; nightclock.bdf                   ; yes             ; User Block Diagram/Schematic File  ; D:/Valentin/Documente/FPGA/fpga/nightclock/nightclock.bdf          ;         ;
; clockreducer.v                   ; yes             ; User Verilog HDL File              ; D:/Valentin/Documente/FPGA/fpga/nightclock/clockreducer.v          ;         ;
; secondscounter.v                 ; yes             ; User Verilog HDL File              ; D:/Valentin/Documente/FPGA/fpga/nightclock/secondscounter.v        ;         ;
; to24_5bit_upcounter.v            ; yes             ; User Verilog HDL File              ; D:/Valentin/Documente/FPGA/fpga/nightclock/to24_5bit_upcounter.v   ;         ;
; to24_5bit_to_BCD.v               ; yes             ; User Verilog HDL File              ; D:/Valentin/Documente/FPGA/fpga/nightclock/to24_5bit_to_BCD.v      ;         ;
; to60_5bit_to_BCD.v               ; yes             ; User Verilog HDL File              ; D:/Valentin/Documente/FPGA/fpga/nightclock/to60_5bit_to_BCD.v      ;         ;
; seconds_to_percentage.v          ; yes             ; User Verilog HDL File              ; D:/Valentin/Documente/FPGA/fpga/nightclock/seconds_to_percentage.v ;         ;
; mux2.v                           ; yes             ; User Wizard-Generated File         ; D:/Valentin/Documente/FPGA/fpga/nightclock/mux2.v                  ;         ;
; lpm_mux.tdf                      ; yes             ; Megafunction                       ; c:/altera/13.1/quartus/libraries/megafunctions/lpm_mux.tdf         ;         ;
; aglobal131.inc                   ; yes             ; Megafunction                       ; c:/altera/13.1/quartus/libraries/megafunctions/aglobal131.inc      ;         ;
; muxlut.inc                       ; yes             ; Megafunction                       ; c:/altera/13.1/quartus/libraries/megafunctions/muxlut.inc          ;         ;
; bypassff.inc                     ; yes             ; Megafunction                       ; c:/altera/13.1/quartus/libraries/megafunctions/bypassff.inc        ;         ;
; altshift.inc                     ; yes             ; Megafunction                       ; c:/altera/13.1/quartus/libraries/megafunctions/altshift.inc        ;         ;
; db/mux_erc.tdf                   ; yes             ; Auto-Generated Megafunction        ; D:/Valentin/Documente/FPGA/fpga/nightclock/db/mux_erc.tdf          ;         ;
+----------------------------------+-----------------+------------------------------------+--------------------------------------------------------------------+---------+


+------------------------------------------------------------------------------------+
; Analysis & Synthesis Resource Usage Summary                                        ;
+---------------------------------------------+--------------------------------------+
; Resource                                    ; Usage                                ;
+---------------------------------------------+--------------------------------------+
; Estimated Total logic elements              ; 240                                  ;
;                                             ;                                      ;
; Total combinational functions               ; 240                                  ;
; Logic element usage by number of LUT inputs ;                                      ;
;     -- 4 input functions                    ; 105                                  ;
;     -- 3 input functions                    ; 49                                   ;
;     -- <=2 input functions                  ; 86                                   ;
;                                             ;                                      ;
; Logic elements by mode                      ;                                      ;
;     -- normal mode                          ; 202                                  ;
;     -- arithmetic mode                      ; 38                                   ;
;                                             ;                                      ;
; Total registers                             ; 46                                   ;
;     -- Dedicated logic registers            ; 46                                   ;
;     -- I/O registers                        ; 0                                    ;
;                                             ;                                      ;
; I/O pins                                    ; 44                                   ;
; Embedded Multiplier 9-bit elements          ; 0                                    ;
; Maximum fan-out node                        ; to24_5bit_upcounter:inst11|number[4] ;
; Maximum fan-out                             ; 34                                   ;
; Total fan-out                               ; 921                                  ;
; Average fan-out                             ; 2.46                                 ;
+---------------------------------------------+--------------------------------------+


+-----------------------------------------------------------------------------------------------------------------------------------------------------------------------------------------------------------------------------------------+
; Analysis & Synthesis Resource Utilization by Entity                                                                                                                                                                                     ;
+------------------------------------+-------------------+--------------+-------------+--------------+---------+-----------+------+--------------+-------------------------------------------------------------------------+--------------+
; Compilation Hierarchy Node         ; LC Combinationals ; LC Registers ; Memory Bits ; DSP Elements ; DSP 9x9 ; DSP 18x18 ; Pins ; Virtual Pins ; Full Hierarchy Name                                                     ; Library Name ;
+------------------------------------+-------------------+--------------+-------------+--------------+---------+-----------+------+--------------+-------------------------------------------------------------------------+--------------+
; |nightclock                        ; 240 (4)           ; 46 (1)       ; 0           ; 0            ; 0       ; 0         ; 44   ; 0            ; |nightclock                                                             ; work         ;
;    |clockreducer:inst37|           ; 47 (47)           ; 26 (26)      ; 0           ; 0            ; 0       ; 0         ; 0    ; 0            ; |nightclock|clockreducer:inst37                                         ; work         ;
;    |mux2:inst3|                    ; 16 (0)            ; 0 (0)        ; 0           ; 0            ; 0       ; 0         ; 0    ; 0            ; |nightclock|mux2:inst3                                                  ; work         ;
;       |lpm_mux:LPM_MUX_component|  ; 16 (0)            ; 0 (0)        ; 0           ; 0            ; 0       ; 0         ; 0    ; 0            ; |nightclock|mux2:inst3|lpm_mux:LPM_MUX_component                        ; work         ;
;          |mux_erc:auto_generated|  ; 16 (16)           ; 0 (0)        ; 0           ; 0            ; 0       ; 0         ; 0    ; 0            ; |nightclock|mux2:inst3|lpm_mux:LPM_MUX_component|mux_erc:auto_generated ; work         ;
;    |seconds_to_percentages:inst40| ; 2 (2)             ; 0 (0)        ; 0           ; 0            ; 0       ; 0         ; 0    ; 0            ; |nightclock|seconds_to_percentages:inst40                               ; work         ;
;    |secondscounter:inst4|          ; 10 (10)           ; 7 (7)        ; 0           ; 0            ; 0       ; 0         ; 0    ; 0            ; |nightclock|secondscounter:inst4                                        ; work         ;
;    |secondscounter:inst6|          ; 6 (6)             ; 7 (7)        ; 0           ; 0            ; 0       ; 0         ; 0    ; 0            ; |nightclock|secondscounter:inst6                                        ; work         ;
;    |to24_5bit_to_BCD:inst9|        ; 49 (49)           ; 0 (0)        ; 0           ; 0            ; 0       ; 0         ; 0    ; 0            ; |nightclock|to24_5bit_to_BCD:inst9                                      ; work         ;
;    |to24_5bit_upcounter:inst11|    ; 16 (16)           ; 5 (5)        ; 0           ; 0            ; 0       ; 0         ; 0    ; 0            ; |nightclock|to24_5bit_upcounter:inst11                                  ; work         ;
;    |to60_6bit_to_BCD:inst5|        ; 90 (90)           ; 0 (0)        ; 0           ; 0            ; 0       ; 0         ; 0    ; 0            ; |nightclock|to60_6bit_to_BCD:inst5                                      ; work         ;
+------------------------------------+-------------------+--------------+-------------+--------------+---------+-----------+------+--------------+-------------------------------------------------------------------------+--------------+
Note: For table entries with two numbers listed, the numbers in parentheses indicate the number of resources of the given type used by the specific entity alone. The numbers listed outside of parentheses indicate the total resources of the given type used by the specific entity and all of its sub-entities in the hierarchy.


+--------------------------------------------------------------------------------------------------------------------------------------------+
; Analysis & Synthesis IP Cores Summary                                                                                                      ;
+--------+--------------+---------+--------------+--------------+------------------------+---------------------------------------------------+
; Vendor ; IP Core Name ; Version ; Release Date ; License Type ; Entity Instance        ; IP Include File                                   ;
+--------+--------------+---------+--------------+--------------+------------------------+---------------------------------------------------+
; Altera ; LPM_MUX      ; 13.1    ; N/A          ; N/A          ; |nightclock|mux2:inst3 ; D:/Valentin/Documente/FPGA/fpga/nightclock/mux2.v ;
+--------+--------------+---------+--------------+--------------+------------------------+---------------------------------------------------+


+----------------------------------------------------------------------------------------------------+
; User-Specified and Inferred Latches                                                                ;
+-----------------------------------------------------+---------------------+------------------------+
; Latch Name                                          ; Latch Enable Signal ; Free of Timing Hazards ;
+-----------------------------------------------------+---------------------+------------------------+
; to24_5bit_to_BCD:inst9|seven_seg1[6]                ; GND                 ; yes                    ;
; to24_5bit_to_BCD:inst9|seven_seg1[4]                ; GND                 ; yes                    ;
; to24_5bit_to_BCD:inst9|seven_seg1[3]                ; GND                 ; yes                    ;
; to24_5bit_to_BCD:inst9|seven_seg1[2]                ; GND                 ; yes                    ;
; to24_5bit_to_BCD:inst9|seven_seg1[1]                ; GND                 ; yes                    ;
; to24_5bit_to_BCD:inst9|seven_seg1[0]                ; GND                 ; yes                    ;
; to24_5bit_to_BCD:inst9|seven_seg0[6]                ; GND                 ; yes                    ;
; to24_5bit_to_BCD:inst9|seven_seg0[5]                ; GND                 ; yes                    ;
; to24_5bit_to_BCD:inst9|seven_seg0[4]                ; GND                 ; yes                    ;
; to24_5bit_to_BCD:inst9|seven_seg0[3]                ; GND                 ; yes                    ;
; to24_5bit_to_BCD:inst9|seven_seg0[2]                ; GND                 ; yes                    ;
; to24_5bit_to_BCD:inst9|seven_seg0[1]                ; GND                 ; yes                    ;
; to24_5bit_to_BCD:inst9|seven_seg0[0]                ; GND                 ; yes                    ;
; to60_6bit_to_BCD:inst5|seven_seg1[6]                ; GND                 ; yes                    ;
; to60_6bit_to_BCD:inst5|seven_seg1[5]                ; GND                 ; yes                    ;
; to60_6bit_to_BCD:inst5|seven_seg1[4]                ; GND                 ; yes                    ;
; to60_6bit_to_BCD:inst5|seven_seg1[3]                ; GND                 ; yes                    ;
; to60_6bit_to_BCD:inst5|seven_seg1[2]                ; GND                 ; yes                    ;
; to60_6bit_to_BCD:inst5|seven_seg1[1]                ; GND                 ; yes                    ;
; to60_6bit_to_BCD:inst5|seven_seg1[0]                ; GND                 ; yes                    ;
; to60_6bit_to_BCD:inst5|seven_seg0[6]                ; GND                 ; yes                    ;
; to60_6bit_to_BCD:inst5|seven_seg0[5]                ; GND                 ; yes                    ;
; to60_6bit_to_BCD:inst5|seven_seg0[4]                ; GND                 ; yes                    ;
; to60_6bit_to_BCD:inst5|seven_seg0[3]                ; GND                 ; yes                    ;
; to60_6bit_to_BCD:inst5|seven_seg0[2]                ; GND                 ; yes                    ;
; to60_6bit_to_BCD:inst5|seven_seg0[1]                ; GND                 ; yes                    ;
; to60_6bit_to_BCD:inst5|seven_seg0[0]                ; GND                 ; yes                    ;
; Number of user-specified and inferred latches = 27  ;                     ;                        ;
+-----------------------------------------------------+---------------------+------------------------+
Note: All latches listed above may not be present at the end of synthesis due to various synthesis optimizations.


+------------------------------------------------------+
; General Register Statistics                          ;
+----------------------------------------------+-------+
; Statistic                                    ; Value ;
+----------------------------------------------+-------+
; Total registers                              ; 46    ;
; Number of registers using Synchronous Clear  ; 12    ;
; Number of registers using Synchronous Load   ; 0     ;
; Number of registers using Asynchronous Clear ; 0     ;
; Number of registers using Asynchronous Load  ; 0     ;
; Number of registers using Clock Enable       ; 0     ;
; Number of registers using Preset             ; 0     ;
+----------------------------------------------+-------+


+----------------------------------------------------------------------------------------------------------------------------------------------------------------+
; Multiplexer Restructuring Statistics (Restructuring Performed)                                                                                                 ;
+--------------------+-----------+---------------+----------------------+------------------------+------------+--------------------------------------------------+
; Multiplexer Inputs ; Bus Width ; Baseline Area ; Area if Restructured ; Saving if Restructured ; Registered ; Example Multiplexer Output                       ;
+--------------------+-----------+---------------+----------------------+------------------------+------------+--------------------------------------------------+
; 3:1                ; 5 bits    ; 10 LEs        ; 5 LEs                ; 5 LEs                  ; Yes        ; |nightclock|to24_5bit_upcounter:inst11|number[1] ;
; 32:1               ; 2 bits    ; 42 LEs        ; 12 LEs               ; 30 LEs                 ; No         ; |nightclock|to24_5bit_to_BCD:inst9|seven_seg0[4] ;
; 32:1               ; 2 bits    ; 42 LEs        ; 8 LEs                ; 34 LEs                 ; No         ; |nightclock|to24_5bit_to_BCD:inst9|seven_seg1[2] ;
; 33:1               ; 2 bits    ; 44 LEs        ; 18 LEs               ; 26 LEs                 ; No         ; |nightclock|to60_6bit_to_BCD:inst5|seven_seg1[2] ;
; 64:1               ; 2 bits    ; 84 LEs        ; 14 LEs               ; 70 LEs                 ; No         ; |nightclock|to60_6bit_to_BCD:inst5|seven_seg1[1] ;
+--------------------+-----------+---------------+----------------------+------------------------+------------+--------------------------------------------------+


+-----------------------------------------------------------------------------------+
; Parameter Settings for User Entity Instance: mux2:inst3|lpm_mux:LPM_MUX_component ;
+------------------------+-------------+--------------------------------------------+
; Parameter Name         ; Value       ; Type                                       ;
+------------------------+-------------+--------------------------------------------+
; AUTO_CARRY_CHAINS      ; ON          ; AUTO_CARRY                                 ;
; IGNORE_CARRY_BUFFERS   ; OFF         ; IGNORE_CARRY                               ;
; AUTO_CASCADE_CHAINS    ; ON          ; AUTO_CASCADE                               ;
; IGNORE_CASCADE_BUFFERS ; OFF         ; IGNORE_CASCADE                             ;
; LPM_WIDTH              ; 10          ; Signed Integer                             ;
; LPM_SIZE               ; 2           ; Signed Integer                             ;
; LPM_WIDTHS             ; 1           ; Signed Integer                             ;
; LPM_PIPELINE           ; 0           ; Untyped                                    ;
; CBXI_PARAMETER         ; mux_erc     ; Untyped                                    ;
; DEVICE_FAMILY          ; Cyclone III ; Untyped                                    ;
+------------------------+-------------+--------------------------------------------+
Note: In order to hide this table in the UI and the text report file, please set the "Show Parameter Settings in Synthesis Report" option in "Analysis and Synthesis Settings -> More Settings" to "Off".


+-------------------------------+
; Elapsed Time Per Partition    ;
+----------------+--------------+
; Partition Name ; Elapsed Time ;
+----------------+--------------+
; Top            ; 00:00:01     ;
+----------------+--------------+


+-------------------------------+
; Analysis & Synthesis Messages ;
+-------------------------------+
Info: *******************************************************************
Info: Running Quartus II 64-Bit Analysis & Synthesis
    Info: Version 13.1.0 Build 162 10/23/2013 SJ Web Edition
    Info: Processing started: Sun Mar 20 03:59:08 2016
Info: Command: quartus_map --read_settings_files=on --write_settings_files=off nightclock -c nightclock
Warning (20028): Parallel compilation is not licensed and has been disabled
Info (12021): Found 1 design units, including 1 entities, in source file nightclock.bdf
    Info (12023): Found entity 1: nightclock
Info (12021): Found 1 design units, including 1 entities, in source file clockreducer.v
    Info (12023): Found entity 1: clockreducer
Info (12021): Found 1 design units, including 1 entities, in source file secondscounter.v
    Info (12023): Found entity 1: secondscounter
Info (12021): Found 1 design units, including 1 entities, in source file to24_5bit_upcounter.v
    Info (12023): Found entity 1: to24_5bit_upcounter
Info (12021): Found 1 design units, including 1 entities, in source file to24_5bit_to_bcd.v
    Info (12023): Found entity 1: to24_5bit_to_BCD
Info (12021): Found 1 design units, including 1 entities, in source file to60_5bit_to_bcd.v
    Info (12023): Found entity 1: to60_6bit_to_BCD
Info (12021): Found 1 design units, including 1 entities, in source file switch.bdf
    Info (12023): Found entity 1: switch
Info (12021): Found 1 design units, including 1 entities, in source file seconds_to_percentage.v
    Info (12023): Found entity 1: seconds_to_percentages
Info (12021): Found 1 design units, including 1 entities, in source file mux2.v
    Info (12023): Found entity 1: mux2
Info (12127): Elaborating entity "nightclock" for the top level hierarchy
Info (12128): Elaborating entity "clockreducer" for hierarchy "clockreducer:inst37"
Warning (10230): Verilog HDL assignment warning at clockreducer.v(13): truncated value with size 32 to match size of target (25)
Info (12128): Elaborating entity "to24_5bit_to_BCD" for hierarchy "to24_5bit_to_BCD:inst9"
Warning (10240): Verilog HDL Always Construct warning at to24_5bit_to_BCD.v(4): inferring latch(es) for variable "seven_seg0", which holds its previous value in one or more paths through the always construct
Warning (10240): Verilog HDL Always Construct warning at to24_5bit_to_BCD.v(4): inferring latch(es) for variable "seven_seg1", which holds its previous value in one or more paths through the always construct
Info (10041): Inferred latch for "seven_seg1[0]" at to24_5bit_to_BCD.v(7)
Info (10041): Inferred latch for "seven_seg1[1]" at to24_5bit_to_BCD.v(7)
Info (10041): Inferred latch for "seven_seg1[2]" at to24_5bit_to_BCD.v(7)
Info (10041): Inferred latch for "seven_seg1[3]" at to24_5bit_to_BCD.v(7)
Info (10041): Inferred latch for "seven_seg1[4]" at to24_5bit_to_BCD.v(7)
Info (10041): Inferred latch for "seven_seg1[5]" at to24_5bit_to_BCD.v(7)
Info (10041): Inferred latch for "seven_seg1[6]" at to24_5bit_to_BCD.v(7)
Info (10041): Inferred latch for "seven_seg0[0]" at to24_5bit_to_BCD.v(7)
Info (10041): Inferred latch for "seven_seg0[1]" at to24_5bit_to_BCD.v(7)
Info (10041): Inferred latch for "seven_seg0[2]" at to24_5bit_to_BCD.v(7)
Info (10041): Inferred latch for "seven_seg0[3]" at to24_5bit_to_BCD.v(7)
Info (10041): Inferred latch for "seven_seg0[4]" at to24_5bit_to_BCD.v(7)
Info (10041): Inferred latch for "seven_seg0[5]" at to24_5bit_to_BCD.v(7)
Info (10041): Inferred latch for "seven_seg0[6]" at to24_5bit_to_BCD.v(7)
Info (12128): Elaborating entity "to24_5bit_upcounter" for hierarchy "to24_5bit_upcounter:inst11"
Warning (10230): Verilog HDL assignment warning at to24_5bit_upcounter.v(8): truncated value with size 32 to match size of target (5)
Info (12128): Elaborating entity "secondscounter" for hierarchy "secondscounter:inst4"
Warning (10230): Verilog HDL assignment warning at secondscounter.v(11): truncated value with size 32 to match size of target (6)
Info (12128): Elaborating entity "to60_6bit_to_BCD" for hierarchy "to60_6bit_to_BCD:inst5"
Warning (10240): Verilog HDL Always Construct warning at to60_5bit_to_BCD.v(4): inferring latch(es) for variable "seven_seg0", which holds its previous value in one or more paths through the always construct
Warning (10240): Verilog HDL Always Construct warning at to60_5bit_to_BCD.v(4): inferring latch(es) for variable "seven_seg1", which holds its previous value in one or more paths through the always construct
Info (10041): Inferred latch for "seven_seg1[0]" at to60_5bit_to_BCD.v(7)
Info (10041): Inferred latch for "seven_seg1[1]" at to60_5bit_to_BCD.v(7)
Info (10041): Inferred latch for "seven_seg1[2]" at to60_5bit_to_BCD.v(7)
Info (10041): Inferred latch for "seven_seg1[3]" at to60_5bit_to_BCD.v(7)
Info (10041): Inferred latch for "seven_seg1[4]" at to60_5bit_to_BCD.v(7)
Info (10041): Inferred latch for "seven_seg1[5]" at to60_5bit_to_BCD.v(7)
Info (10041): Inferred latch for "seven_seg1[6]" at to60_5bit_to_BCD.v(7)
Info (10041): Inferred latch for "seven_seg0[0]" at to60_5bit_to_BCD.v(7)
Info (10041): Inferred latch for "seven_seg0[1]" at to60_5bit_to_BCD.v(7)
Info (10041): Inferred latch for "seven_seg0[2]" at to60_5bit_to_BCD.v(7)
Info (10041): Inferred latch for "seven_seg0[3]" at to60_5bit_to_BCD.v(7)
Info (10041): Inferred latch for "seven_seg0[4]" at to60_5bit_to_BCD.v(7)
Info (10041): Inferred latch for "seven_seg0[5]" at to60_5bit_to_BCD.v(7)
Info (10041): Inferred latch for "seven_seg0[6]" at to60_5bit_to_BCD.v(7)
Info (12128): Elaborating entity "mux2" for hierarchy "mux2:inst3"
Info (12128): Elaborating entity "lpm_mux" for hierarchy "mux2:inst3|lpm_mux:LPM_MUX_component"
Info (12130): Elaborated megafunction instantiation "mux2:inst3|lpm_mux:LPM_MUX_component"
Info (12133): Instantiated megafunction "mux2:inst3|lpm_mux:LPM_MUX_component" with the following parameter:
    Info (12134): Parameter "lpm_size" = "2"
    Info (12134): Parameter "lpm_type" = "LPM_MUX"
    Info (12134): Parameter "lpm_width" = "10"
    Info (12134): Parameter "lpm_widths" = "1"
Info (12021): Found 1 design units, including 1 entities, in source file db/mux_erc.tdf
    Info (12023): Found entity 1: mux_erc
Info (12128): Elaborating entity "mux_erc" for hierarchy "mux2:inst3|lpm_mux:LPM_MUX_component|mux_erc:auto_generated"
Info (12128): Elaborating entity "seconds_to_percentages" for hierarchy "seconds_to_percentages:inst40"
Warning (13024): Output pins are stuck at VCC or GND
    Warning (13410): Pin "HOURLEFT[5]" is stuck at VCC
Info (286030): Timing-Driven Synthesis is running
Info (16010): Generating hard_block partition "hard_block:auto_generated_inst"
    Info (16011): Adding 0 node(s), including 0 DDIO, 0 PLL, 0 transceiver and 0 LCELL
Info (21057): Implemented 285 device resources after synthesis - the final resource count might be different
    Info (21058): Implemented 5 input pins
    Info (21059): Implemented 39 output pins
    Info (21061): Implemented 241 logic cells
Info: Quartus II 64-Bit Analysis & Synthesis was successful. 0 errors, 10 warnings
    Info: Peak virtual memory: 475 megabytes
    Info: Processing ended: Sun Mar 20 03:59:12 2016
    Info: Elapsed time: 00:00:04
    Info: Total CPU time (on all processors): 00:00:03


